1,64
2,69
3,75
4,82
5,87
6,91
7,94
8,102
9,111
10,115
11,118
12,121
13,123
14,126
15,129
16,131
17,133
18,134
19,135
20,136
21,138
22,139
23,140
24,142
25,143
26,144
27,146
28,147
29,148
30,150
31,151
32,152
33,153
34,154
35,155
36,157
37,158
38,159
39,161
40,162
41,163
42,164
43,165
44,166
45,168
46,169
47,170
48,172
49,173
50,174
51,175
52,176
53,177
54,179
55,180
56,181
57,183
58,184
59,185
60,186
61,187
62,188
63,189
64,190
65,191
