1,0
2,0
3,0
4,0
5,0
6,0
7,0
8,6
9,6
10,6
11,6
12,6
13,6
14,6
15,6
16,6
17,7
18,7
19,57
20,57
21,57
22,57
23,57
24,90
25,90
26,90
27,91
28,91
29,91
30,91
31,91
32,92
33,92
34,92
35,92
36,92
37,92
38,92
39,101
40,101
41,101
42,101
43,101
44,101
45,101
46,101
47,101
48,107
49,109
50,109
51,109
52,109
53,109
54,109
55,109
56,109
57,109
58,109
59,109
60,109
61,109
62,109
63,109
64,109
65,109
66,109
67,109
68,109
69,109
70,109
71,109
72,109
73,111
74,113
75,114
76,114
77,114
78,114
79,114
80,114
81,114
82,114
83,116
84,116
85,116
86,116
87,116
88,116
89,116
90,116
91,116
92,116
93,118
94,118
95,118
96,118
97,118
98,118
99,118
100,118
101,118
102,118
103,118
104,118
105,118
106,118
107,118
108,118
109,118
110,118
111,118
112,118
113,123
114,123
115,123
116,123
117,123
118,123
119,123
120,133
121,133
122,133
123,133
124,133
125,133
126,133
127,133
128,133
129,133
130,133
131,133
132,133
133,133
134,133
135,133
136,133
137,133
138,133
139,133
140,133
141,133
142,133
143,133
144,133
145,133
146,133
147,133
148,133
149,141
150,141
151,141
152,141
153,141
154,141
155,141
156,141
157,141
158,141
159,141
160,141
161,144
162,144
163,144
164,144
165,144
166,144
167,144
168,144
169,144
170,144
171,144
172,144
173,144
174,144
175,144
176,144
177,144
178,144
179,144
180,144
181,144
182,144
183,144
184,144
185,144
186,144
187,144
188,144
189,144
190,144
191,144
192,144
193,144
194,144
195,145
196,145
197,145
198,145
199,145
200,145
201,148
202,148
203,148
204,148
205,148
206,148
207,148
208,148
209,148
210,148
211,148
212,148
213,148
214,148
215,148
216,148
217,148
218,148
219,148
220,148
221,148
222,148
223,148
224,148
225,148
226,148
227,148
228,148
229,148
230,148
231,148
232,148
233,148
234,148
235,148
236,150
237,150
238,150
239,150
240,150
241,150
242,150
243,150
244,150
245,150
246,150
247,150
248,150
249,150
250,150
251,154
252,154
253,154
254,156
255,156
256,156
257,156
258,158
259,158
260,158
261,158
262,158
263,158
264,158
265,158
266,158
267,158
268,158
269,160
270,160
271,160
272,160
273,160
274,160
275,160
276,160
277,160
278,160
279,160
280,160
281,160
282,160
283,160
284,160
285,160
286,160
287,160
288,160
289,160
290,160
291,161
292,161
293,161
294,161
295,161
296,161
297,161
298,161
299,161
300,161
301,161
302,161
303,161
304,161
305,161
306,161
307,161
308,161
309,161
310,161
311,161
312,161
313,161
314,162
315,162
316,162
317,162
318,162
319,162
320,162
321,162
322,162
323,162
324,162
325,162
326,162
327,162
328,162
329,162
330,162
331,162
332,162
333,162
334,162
335,162
336,162
337,162
338,162
339,162
340,162
341,162
342,162
343,162
344,167
345,167
346,167
347,167
348,167
349,167
350,167
351,167
352,167
353,167
354,167
355,167
356,167
357,167
358,167
359,167
360,167
361,167
362,167
363,167
364,167
365,167
366,167
367,167
368,167
369,167
370,167
371,167
372,167
373,167
374,167
375,167
376,167
377,167
378,167
379,167
380,167
381,167
382,167
