1,61
2,77
3,85
4,89
5,105
6,106
7,127
8,135
9,137
10,143
11,164
12,166
13,166
14,166
15,167
16,173
17,173
18,179
19,181
20,194
21,199
22,213
23,215
24,217
25,222
26,223
27,244
28,244
29,244
30,244
31,251
32,251
33,252
34,262
35,270
36,284
37,288
38,289
39,290
40,291
41,291
42,293
43,293
44,293
45,301
46,301
47,302
48,305
49,305
50,320
51,323
52,323
53,323
54,323
55,323
56,323
57,323
58,323
59,325
60,325
61,327
62,327
63,330
64,330
65,330
66,330
67,330
68,331
69,339
70,344
71,344
72,344
73,346
74,346
75,347
76,348
77,348
78,348
79,351
80,351
81,351
82,351
83,352
84,352
85,352
86,352
87,352
88,359
89,362
90,363
91,363
92,363
93,363
94,366
95,366
96,366
97,366
98,366
99,366
100,366
101,366
102,366
103,366
104,366
105,366
106,366
107,366
108,366
109,366
110,367
111,369
112,369
113,369
114,369
115,372
116,372
117,372
118,372
119,372
120,373
121,373
122,373
123,373
124,373
125,373
126,373
127,373
128,373
129,373
130,373
131,374
132,374
133,374
134,374
135,374
136,374
137,376
138,376
139,376
140,376
141,376
142,376
143,376
144,376
145,376
146,376
147,376
148,376
149,376
150,376
151,376
152,376
153,376
154,376
155,377
156,378
157,378
158,378
159,378
160,378
161,378
162,378
163,379
164,383
165,383
166,383
167,383
168,383
169,383
170,383
171,383
172,383
173,383
174,383
175,383
176,383
177,384
178,384
179,384
180,386
181,386
182,386
183,386
184,386
185,386
186,386
187,386
188,386
189,386
190,386
191,386
192,386
193,386
194,386
195,386
196,386
197,386
198,386
199,386
200,386
201,386
202,386
203,387
204,387
205,387
206,387
207,387
208,387
209,387
210,387
211,387
212,388
213,388
214,388
215,388
216,388
217,388
218,388
219,388
220,388
221,388
222,388
223,388
224,388
225,388
226,388
227,388
228,388
229,388
230,389
231,389
232,389
233,389
234,389
235,389
236,389
237,389
238,389
239,389
240,389
241,389
242,389
243,389
244,389
245,389
246,389
247,389
248,389
249,389
250,389
251,389
252,389
253,389
254,389
255,389
256,393
257,393
258,393
259,393
260,393
261,393
262,394
263,395
264,395
265,395
266,395
267,395
268,395
269,395
270,395
271,395
272,395
273,395
274,395
275,395
276,395
277,395
278,395
279,395
280,395
281,395
282,395
283,395
284,395
285,395
286,395
287,395
288,395
289,395
290,395
291,395
292,395
293,395
294,395
295,395
296,395
297,395
298,395
299,395
300,395
301,395
302,395
303,395
304,395
305,395
306,395
307,395
308,395
309,395
310,395
311,395
312,395
313,395
314,395
315,395
316,395
317,395
318,395
319,395
320,395
321,395
322,395
323,395
324,395
325,395
326,395
327,395
328,395
329,395
330,395
331,395
332,395
333,396
334,396
335,396
336,396
337,396
338,396
339,396
340,396
341,396
342,396
343,396
344,396
345,396
346,396
347,396
348,396
349,396
350,396
351,396
352,396
353,396
354,396
355,396
356,396
357,396
358,396
359,396
360,396
361,396
362,396
363,396
364,396
365,396
366,396
367,396
368,397
369,397
370,397
371,397
372,397
373,397
374,397
375,397
376,397
377,397
378,397
379,397
380,397
381,397
382,397
383,397
384,397
385,397
386,397
387,397
388,397
389,397
390,397
391,397
392,397
393,397
394,397
395,397
396,397
397,397
398,397
399,397
400,397
401,398
402,398
403,398
404,398
405,398
406,398
407,398
408,398
409,398
410,398
411,398
412,398
413,398
414,398
415,398
416,398
417,398
418,398
419,398
420,398
421,398
422,398
423,398
424,398
425,398
426,398
427,398
428,398
429,398
430,398
431,398
432,398
433,398
434,398
435,398
436,398
437,398
438,398
439,398
440,398
441,398
442,398
443,398
444,398
445,398
446,398
447,398
448,398
449,398
450,398
451,398
452,398
453,398
454,398
455,398
456,398
457,398
458,398
459,398
460,398
461,398
462,398
463,398
464,398
465,398
466,398
467,398
468,398
469,398
470,398
471,398
472,398
473,398
474,398
475,398
476,398
477,398
478,398
479,398
480,398
481,398
482,398
483,398
484,398
485,398
486,398
487,398
488,398
489,398
490,398
491,398
492,398
493,398
494,398
495,398
496,398
497,398
498,398
499,398
500,398
501,398
502,398
503,398
504,398
505,398
506,398
507,398
508,398
509,398
510,398
511,398
512,398
513,398
514,398
515,398
516,398
517,398
518,398
519,398
520,398
521,398
522,398
523,398
524,398
525,398
526,398
527,398
528,398
529,398
530,398
531,398
532,398
533,398
534,398
535,398
536,398
537,398
538,398
539,398
540,398
541,398
542,398
543,398
544,398
545,398
546,398
547,398
548,398
549,398
550,398
551,398
552,398
553,398
554,398
555,398
556,398
557,398
558,398
559,398
560,398
561,398
562,398
563,398
564,398
565,398
566,398
567,399
568,399
569,399
570,399
571,399
572,399
573,399
574,399
575,399
576,399
577,399
578,399
579,399
580,399
581,399
582,399
583,399
584,399
585,399
586,399
587,399
588,399
589,399
590,399
591,399
592,399
593,399
594,399
595,399
596,399
597,399
598,399
599,399
600,399
601,399
602,399
603,399
604,399
605,399
606,399
607,399
608,399
609,399
610,399
611,399
612,399
613,399
614,399
615,399
616,399
617,399
618,399
619,399
620,399
621,399
622,399
623,399
624,399
625,399
626,399
627,399
628,399
629,399
630,399
631,399
632,399
633,399
634,399
635,399
636,399
637,399
638,399
639,399
640,399
641,399
642,399
643,399
644,399
645,399
646,399
647,399
648,399
649,399
650,399
651,399
652,399
653,399
654,399
655,399
656,399
657,399
658,399
659,399
660,399
661,399
662,399
663,399
664,399
665,399
666,399
667,399
668,399
669,399
670,399
671,399
672,399
673,399
674,399
675,399
676,399
677,399
678,399
679,399
680,399
681,399
682,399
683,399
684,399
685,399
686,399
687,399
688,399
689,399
690,399
691,399
692,399
693,399
694,399
695,399
696,399
697,399
698,399
699,399
700,399
701,399
702,399
703,399
704,399
705,399
706,399
707,399
708,399
709,399
710,399
711,399
712,399
713,399
714,399
715,399
716,399
717,399
718,399
719,399
720,399
721,399
722,399
723,399
724,399
725,399
726,399
727,399
728,399
729,399
730,399
731,399
732,399
733,399
734,399
735,399
736,399
737,399
738,399
739,399
740,399
741,399
742,399
743,399
744,399
745,399
746,399
747,399
748,399
749,399
750,399
751,399
752,399
753,399
754,399
755,399
756,399
757,399
758,399
759,399
760,399
761,399
762,399
763,399
764,399
765,399
766,399
767,399
768,399
769,399
770,399
771,399
772,399
773,399
774,399
775,399
776,399
777,399
778,399
779,399
780,399
781,399
782,399
783,399
784,399
785,399
786,399
787,399
788,399
789,399
790,399
791,399
792,399
793,399
794,399
795,399
796,399
797,399
798,399
799,399
800,399
