1,40
2,50
3,100
4,117
5,123
6,143
7,167
8,167
9,167
10,179
11,185
12,185
13,199
14,214
15,216
16,237
17,241
18,241
19,248
20,248
21,248
22,255
23,255
24,256
25,256
26,256
27,256
28,261
29,265
30,267
31,274
32,281
33,282
34,282
35,298
36,299
37,299
38,299
39,302
40,303
41,304
42,306
43,306
44,306
45,309
46,309
47,309
48,309
49,310
50,310
51,310
52,310
53,310
54,312
55,312
56,312
57,312
58,318
59,318
60,318
61,318
62,318
63,318
64,318
65,318
66,319
67,319
68,319
69,321
70,321
71,321
72,321
73,321
74,321
75,324
76,324
77,329
78,329
79,333
80,333
81,338
82,338
83,340
84,340
85,341
86,341
87,347
88,347
89,347
90,347
91,351
92,351
93,351
94,351
95,353
96,353
97,353
98,353
99,353
100,353
101,354
102,354
103,354
104,356
105,356
106,358
107,358
108,358
109,358
110,358
111,358
112,360
113,360
114,360
115,360
116,361
117,361
118,361
119,361
120,361
121,361
122,361
123,361
124,361
125,361
126,361
127,361
128,361
129,362
130,363
131,363
132,363
133,363
134,363
135,363
136,363
137,363
138,364
139,364
140,364
141,364
142,364
143,364
144,364
145,364
146,364
147,364
148,365
149,365
150,365
151,365
152,365
153,365
154,365
155,365
156,365
157,365
158,365
159,365
160,365
161,365
162,365
163,365
164,365
165,367
166,367
167,367
168,367
169,368
170,368
171,368
172,370
173,371
174,371
175,371
176,371
177,371
178,371
179,371
180,371
181,372
182,372
183,372
184,372
185,372
186,372
187,372
188,372
189,372
190,374
191,374
192,374
193,374
194,374
195,374
196,374
197,374
198,374
199,374
200,374
201,374
202,375
203,375
204,375
205,381
206,381
207,381
208,381
209,382
210,382
211,382
212,382
213,382
214,382
215,382
216,383
217,383
218,383
219,383
220,383
221,384
222,384
223,384
224,384
225,384
226,384
227,384
228,384
229,384
230,384
231,384
232,384
233,384
234,384
235,384
236,384
237,384
238,384
239,384
240,384
241,384
242,384
243,384
244,384
245,384
246,385
247,385
248,385
249,385
250,385
251,385
252,385
253,386
254,386
255,386
256,386
257,392
258,392
259,392
260,392
261,392
262,392
263,392
264,392
265,392
266,392
267,392
268,392
269,392
270,392
271,392
272,392
273,392
274,392
275,392
276,392
277,392
278,392
279,392
280,392
281,392
282,392
283,392
284,393
285,393
286,393
287,393
288,393
289,394
290,394
291,394
292,394
293,394
294,394
295,394
296,396
297,396
298,396
299,396
300,396
301,396
302,396
303,396
304,396
305,396
306,396
307,396
308,396
309,396
310,396
311,396
312,396
313,396
314,396
315,396
316,396
317,396
318,396
319,396
320,396
321,396
322,396
323,396
324,396
325,396
326,396
327,396
328,396
329,396
330,396
331,396
332,396
333,396
334,396
335,396
336,396
337,396
338,396
339,396
340,396
341,396
342,396
343,396
344,396
345,396
346,396
347,396
348,396
349,396
350,396
351,396
352,396
353,396
354,396
355,396
356,396
357,396
358,396
359,396
360,396
361,396
362,396
363,396
364,396
365,396
366,396
367,396
368,396
369,396
370,396
371,396
372,396
373,396
374,396
375,396
376,396
377,396
378,396
379,396
380,396
381,396
382,396
383,396
384,396
385,396
386,396
387,396
388,396
389,396
390,396
391,396
392,396
393,396
394,396
395,396
396,396
397,396
398,396
399,396
400,396
401,396
402,396
403,396
404,396
405,396
406,396
407,396
408,396
409,396
410,396
411,396
412,396
413,396
414,396
415,396
416,396
417,396
418,396
419,396
420,396
421,396
422,396
423,396
424,396
425,396
426,396
427,396
428,396
429,396
430,396
431,397
432,397
433,397
434,397
435,397
436,397
437,397
438,397
439,397
440,397
441,397
442,397
443,397
444,397
445,397
446,397
447,397
448,397
449,397
450,397
451,397
452,397
453,397
454,397
455,397
456,397
457,397
458,397
459,397
460,397
461,397
462,397
463,398
464,398
465,398
466,398
467,398
468,398
469,398
470,398
471,398
472,398
473,398
474,398
475,398
476,398
477,398
478,398
479,398
480,398
481,398
482,398
483,398
484,398
485,398
486,398
487,398
488,398
489,398
490,398
491,398
492,398
493,398
494,398
495,398
496,398
497,398
498,398
499,398
500,398
501,398
502,398
503,399
504,399
505,399
506,399
507,399
508,399
509,399
510,399
511,399
512,399
513,399
514,399
515,399
516,399
517,399
518,399
519,399
520,399
521,399
522,399
523,399
524,399
525,399
526,399
527,399
528,399
529,399
530,399
531,399
532,399
533,399
534,399
535,399
536,399
537,399
538,399
539,399
540,399
541,399
542,399
543,399
544,399
545,399
546,399
547,399
548,399
549,399
550,399
551,399
552,399
553,399
554,399
555,399
556,399
557,399
558,399
559,399
560,399
561,399
562,399
563,399
564,399
565,399
566,399
567,399
568,399
569,399
570,399
571,399
572,399
573,399
574,399
575,399
576,399
577,399
578,399
579,399
580,399
581,399
582,399
583,399
584,399
585,399
586,399
587,399
588,399
589,399
590,399
591,399
592,399
593,399
594,399
595,399
596,399
597,399
598,399
599,399
600,399
601,399
602,399
603,399
604,399
605,399
606,399
607,399
608,399
609,399
610,399
611,399
612,399
613,399
614,399
615,399
616,399
617,399
618,399
619,399
620,399
621,399
622,399
623,400
