1,27
2,37
3,75
4,75
5,90
6,114
7,136
8,145
9,161
10,161
11,161
12,168
13,179
14,183
15,208
16,208
17,215
18,228
19,228
20,228
21,228
22,228
23,235
24,240
25,240
26,246
27,246
28,256
29,261
30,267
31,267
32,267
33,268
34,270
35,293
36,295
37,295
38,296
39,312
40,312
41,312
42,313
43,313
44,313
45,313
46,314
47,314
48,314
49,314
50,314
51,316
52,320
53,322
54,322
55,322
56,322
57,322
58,323
59,325
60,329
61,329
62,329
63,329
64,331
65,331
66,331
67,331
68,332
69,332
70,332
71,332
72,332
73,333
74,333
75,333
76,333
77,336
78,336
79,336
80,336
81,338
82,338
83,338
84,338
85,338
86,338
87,338
88,338
89,338
90,338
91,339
92,339
93,339
94,339
95,339
96,339
97,339
98,339
99,339
100,340
101,342
102,350
103,351
104,351
105,351
106,352
107,352
108,352
109,352
110,352
111,352
112,352
113,353
114,354
115,354
116,354
117,354
118,355
119,355
120,355
121,355
122,355
123,355
124,355
125,355
126,357
127,357
128,357
129,357
130,357
131,357
132,358
133,358
134,359
135,359
136,359
137,359
138,359
139,359
140,359
141,363
142,366
143,366
144,366
145,366
146,366
147,366
148,366
149,366
150,366
151,366
152,366
153,368
154,368
155,368
156,368
157,368
158,368
159,368
160,368
161,368
162,368
163,368
164,368
165,368
166,368
167,368
168,368
169,368
170,368
171,368
172,368
173,368
174,368
175,368
176,369
177,373
178,373
179,373
180,373
181,373
182,373
183,373
184,374
185,375
186,375
187,375
188,375
189,375
190,375
191,379
192,381
193,381
194,381
195,381
196,381
197,381
198,381
199,381
200,381
201,388
202,388
203,389
204,389
205,389
206,389
207,389
208,389
209,389
210,391
211,391
212,391
213,391
214,391
215,391
216,391
217,391
218,392
219,392
220,392
221,392
222,392
223,392
224,392
225,392
226,392
227,392
228,392
229,392
230,392
231,392
232,392
233,392
234,392
235,392
236,392
237,392
238,392
239,392
240,392
241,392
242,392
243,392
244,392
245,392
246,392
247,392
248,392
249,392
250,392
251,392
252,392
253,392
254,392
255,392
256,392
257,392
258,392
259,392
260,392
261,392
262,392
263,392
264,392
265,392
266,392
267,392
268,392
269,392
270,392
271,392
272,392
273,392
274,392
275,392
276,392
277,392
278,392
279,392
280,392
281,392
282,392
283,392
284,392
285,392
286,392
287,392
288,392
289,392
290,392
291,392
292,392
293,392
294,392
295,392
296,393
297,393
298,393
299,393
300,393
301,393
302,393
303,393
304,393
305,393
306,393
307,393
308,393
309,393
310,393
311,393
312,393
313,393
314,393
315,393
316,393
317,393
318,393
319,393
320,393
321,393
322,393
323,393
324,393
325,393
326,393
327,393
328,393
329,393
330,393
331,393
332,393
333,393
334,393
335,393
336,393
337,393
338,393
339,393
340,393
341,393
342,393
343,394
344,394
345,394
346,394
347,394
348,394
349,394
350,394
351,394
352,394
353,394
354,394
355,394
356,394
357,394
358,394
359,394
360,394
361,394
362,394
363,394
364,394
365,394
366,394
367,395
368,395
369,395
370,395
371,395
372,395
373,395
374,396
375,396
376,396
377,396
378,396
379,396
380,396
381,396
382,396
383,396
384,396
385,396
386,396
387,396
388,396
389,396
390,396
391,396
392,396
393,396
394,396
395,396
396,396
397,396
398,396
399,396
400,396
401,396
402,396
403,396
404,396
405,396
406,396
407,396
408,396
409,396
410,396
411,396
412,396
413,396
414,396
415,396
416,396
417,396
418,396
419,396
420,396
421,396
422,396
423,396
424,396
425,396
426,396
427,396
428,396
429,396
430,396
431,396
432,396
433,396
434,396
435,396
436,396
437,396
438,396
439,396
440,396
441,396
442,396
443,396
444,396
445,396
446,396
447,396
448,396
449,396
450,396
451,396
452,396
453,396
454,396
455,396
456,396
457,396
458,396
459,396
460,396
461,396
462,396
463,396
464,396
465,396
466,396
467,396
468,396
469,396
470,396
471,396
472,396
473,396
474,396
475,396
476,396
477,396
478,396
479,396
480,396
481,396
482,396
483,396
484,396
485,396
486,396
487,396
488,396
489,396
490,396
491,396
492,396
493,396
494,396
495,396
496,396
497,396
498,396
499,396
500,396
501,396
502,396
503,396
504,396
505,396
506,396
507,396
508,396
509,396
510,396
511,396
512,396
513,396
514,396
515,396
516,396
517,396
518,396
519,396
520,396
521,396
522,396
523,396
524,396
525,396
526,396
527,396
528,396
529,397
530,397
531,397
532,397
533,397
534,397
535,397
536,397
537,397
538,397
539,397
540,397
541,397
542,397
543,397
544,397
545,397
546,397
547,397
548,397
549,397
550,397
551,397
552,397
553,397
554,397
555,397
556,397
557,397
558,397
559,397
560,397
561,397
562,397
563,397
564,397
565,397
566,397
567,397
568,397
569,397
570,397
571,397
572,397
573,397
574,397
575,397
576,397
577,397
578,397
579,397
580,397
581,397
582,397
583,397
584,397
585,397
586,397
587,397
588,397
589,397
590,397
591,397
592,397
593,397
594,397
595,397
596,397
597,397
598,397
599,397
600,397
601,397
602,397
603,397
604,397
605,397
606,397
607,397
608,397
609,397
610,397
611,397
612,397
613,397
614,397
615,397
616,397
617,397
618,397
619,397
620,397
621,397
622,397
623,397
624,397
625,397
626,397
627,397
628,397
629,397
630,397
631,397
632,397
633,397
634,397
635,397
636,397
637,397
638,397
639,397
640,397
641,398
642,398
643,398
644,398
645,398
646,398
647,398
648,398
649,398
650,398
651,398
652,398
653,398
654,398
655,398
656,398
657,398
658,398
659,398
660,398
661,398
662,398
663,398
664,398
665,398
666,398
667,398
668,398
669,398
670,398
671,398
672,398
673,398
674,398
675,398
676,398
677,398
678,398
679,398
680,398
681,398
682,398
683,398
684,398
685,398
686,398
687,398
688,398
689,398
690,398
691,398
692,398
693,398
694,398
695,398
696,398
697,398
698,398
699,398
700,398
701,398
702,398
703,398
704,398
705,398
706,398
707,398
708,398
709,398
710,398
711,398
712,398
713,398
714,398
715,398
716,398
717,399
718,399
719,399
720,399
721,399
722,399
723,399
724,399
725,399
726,399
727,399
728,399
729,399
730,399
731,399
732,399
733,399
734,399
735,399
736,399
737,399
738,399
739,399
740,399
741,399
742,399
743,399
744,399
745,399
746,399
747,399
748,399
749,399
750,399
751,399
752,399
753,399
754,399
755,399
756,399
757,399
758,399
759,399
760,399
761,400
