1,0
2,0
3,0
4,1
5,9
6,9
7,9
8,9
9,9
10,9
11,9
12,9
13,9
14,9
15,9
16,9
17,9
18,9
19,9
20,9
21,9
22,9
23,9
24,9
25,9
26,9
27,9
28,9
29,9
30,9
31,9
32,9
33,9
34,9
35,21
36,21
37,21
38,21
39,21
40,21
41,21
42,21
43,21
44,21
45,21
46,21
47,21
48,21
49,21
50,21
51,21
52,21
53,21
54,21
55,21
56,21
57,21
58,21
59,21
60,21
61,21
62,21
63,21
64,21
65,21
66,21
67,21
68,21
69,21
70,21
71,21
72,21
73,21
74,21
75,21
76,21
77,21
78,21
79,21
80,21
81,21
82,21
83,21
84,21
85,21
86,21
87,21
88,21
89,21
90,21
91,21
92,21
93,21
94,21
95,21
96,21
97,21
98,21
99,21
100,21
101,21
102,21
103,21
104,21
105,21
106,21
107,21
108,21
109,21
110,21
111,21
112,21
113,21
114,21
115,21
116,21
117,21
118,21
119,21
120,21
121,21
122,21
123,21
124,21
125,21
126,21
127,21
128,21
129,21
130,21
131,21
132,21
133,21
134,21
135,21
136,21
137,21
138,21
139,21
140,21
141,21
142,21
143,21
144,21
145,21
146,21
147,21
148,21
149,21
150,21
151,21
152,21
153,21
154,21
155,21
156,21
157,21
158,21
159,21
160,21
161,21
162,21
163,21
164,25
165,25
166,25
167,25
168,25
169,25
170,25
171,25
172,25
173,25
174,25
175,25
176,25
177,25
178,25
179,25
180,25
181,25
182,25
183,25
184,25
185,25
186,25
187,25
188,25
189,25
190,25
191,25
192,25
193,25
194,25
195,25
196,25
197,25
198,25
199,25
200,25
201,25
202,25
203,25
204,25
205,25
206,25
207,25
208,25
209,25
210,25
211,25
212,25
213,25
214,25
215,25
216,25
217,25
218,25
219,25
220,25
221,25
222,25
223,25
224,25
225,25
226,25
227,25
228,25
229,25
230,25
231,25
232,81
233,81
234,81
235,81
236,81
237,81
238,81
239,81
240,81
241,81
242,81
243,81
244,81
245,81
246,81
247,81
248,81
249,81
250,81
251,81
252,81
253,81
254,81
255,81
256,81
257,81
258,81
259,81
260,81
261,81
262,81
263,81
264,81
265,81
266,81
267,81
268,81
269,81
270,81
271,81
272,81
273,81
274,81
275,81
276,81
277,81
278,81
279,81
280,81
281,81
282,81
283,81
284,81
285,81
286,81
287,81
288,81
289,81
290,81
291,81
292,81
293,81
294,81
295,81
296,83
297,83
298,83
299,83
300,83
301,83
302,83
303,83
304,83
305,83
306,83
307,83
308,83
309,83
310,83
311,83
312,83
313,83
314,83
315,83
316,83
317,83
318,83
319,83
320,83
321,83
322,83
323,83
324,83
325,83
326,83
327,83
328,83
329,83
330,83
331,83
332,83
333,83
334,83
335,83
336,83
337,83
338,83
339,83
340,83
341,83
342,83
343,83
344,83
345,83
346,83
347,83
348,83
349,83
350,83
351,83
352,83
353,83
354,83
355,83
356,83
357,83
358,83
359,91
360,91
361,91
362,91
363,91
364,91
365,100
366,100
367,100
368,100
369,100
370,100
371,100
372,100
373,100
374,100
375,100
376,100
377,100
378,100
379,100
380,100
381,100
382,100
383,100
384,100
385,100
386,100
387,100
388,100
389,100
390,100
391,100
392,100
393,100
394,100
395,100
396,100
397,100
398,100
399,100
400,100
401,100
402,100
403,100
404,100
405,100
406,100
407,100
408,100
409,100
410,100
411,100
412,100
413,100
414,100
415,100
416,100
417,100
418,106
419,106
420,106
421,106
422,106
423,106
424,106
425,106
426,106
427,106
428,106
429,106
430,106
431,106
432,106
433,106
434,106
435,106
436,106
437,106
438,106
439,106
440,106
441,106
442,106
443,106
444,106
445,106
446,106
447,106
448,106
449,106
450,106
451,106
452,106
453,106
454,106
455,106
456,106
457,106
458,106
459,106
460,106
461,106
462,106
463,106
464,106
465,106
466,106
467,109
468,109
469,109
470,109
471,109
472,109
473,109
474,109
475,109
476,109
477,109
478,109
479,109
480,109
481,109
482,109
483,109
484,109
485,109
486,109
487,109
488,109
489,109
490,109
491,109
492,109
493,109
494,109
495,109
496,109
497,109
498,109
499,109
500,109
501,109
502,109
503,109
504,109
505,109
506,109
507,109
508,109
509,109
510,109
511,109
512,109
513,109
514,109
515,109
516,109
517,109
518,109
519,109
520,109
521,109
522,109
523,109
524,109
525,109
526,109
527,109
528,109
529,109
530,109
531,109
532,109
533,109
534,109
535,109
536,109
537,109
538,109
539,109
540,109
541,109
542,109
543,109
544,109
545,109
546,109
547,109
548,109
549,109
550,109
551,109
552,109
553,109
554,109
555,109
556,109
557,109
558,109
559,109
560,109
561,109
562,109
563,109
564,109
565,109
566,109
567,109
568,109
569,109
570,109
571,109
572,109
573,109
574,109
575,109
576,109
577,109
578,109
579,109
580,109
581,109
582,109
583,109
584,109
585,109
586,109
587,109
588,109
589,109
590,109
591,109
592,109
593,109
594,109
595,109
596,109
597,109
598,109
599,109
600,109
601,121
602,121
603,121
604,121
605,121
606,121
607,121
608,121
609,121
610,121
611,121
612,121
613,121
614,121
615,121
616,121
617,121
618,121
619,121
620,121
621,121
622,121
623,121
624,121
625,121
626,121
627,121
628,121
629,121
630,121
631,121
632,121
633,121
634,121
635,121
636,121
637,121
638,121
639,121
640,121
641,121
642,121
643,121
644,121
645,121
646,121
647,121
648,121
649,121
650,121
651,121
652,121
653,121
654,121
655,121
656,121
657,121
658,121
659,121
660,121
661,121
662,121
663,121
664,121
665,121
666,121
667,121
668,121
669,121
670,121
671,121
672,121
673,121
674,121
675,121
676,121
677,121
678,121
679,121
680,121
681,121
682,121
683,121
684,121
685,121
686,121
687,121
688,121
689,121
690,121
691,121
692,121
693,121
694,121
695,121
696,121
697,121
698,121
699,121
700,121
701,121
702,121
703,121
704,121
705,121
706,121
707,121
708,121
709,121
710,121
711,121
712,121
713,121
714,121
715,121
716,121
717,121
718,121
719,121
720,121
721,121
722,121
723,121
724,121
725,121
726,121
727,121
728,121
729,121
730,121
731,121
732,121
733,121
734,121
735,121
736,121
737,121
738,121
739,121
740,121
741,121
742,121
743,121
744,121
745,121
746,121
747,121
748,121
749,121
750,121
751,121
752,121
753,121
754,121
755,121
756,121
757,121
758,121
759,121
760,121
761,121
762,133
763,133
764,133
765,133
766,133
767,133
768,133
769,133
770,133
771,133
772,133
773,133
774,133
775,133
776,133
777,133
778,133
779,133
780,133
781,133
782,133
783,133
784,133
785,133
786,133
787,133
788,133
789,133
790,133
791,133
792,133
793,133
794,133
795,133
796,133
797,133
798,133
799,133
800,133
801,133
802,133
803,133
804,133
805,133
806,133
807,133
808,133
809,133
810,133
811,133
812,133
813,133
814,133
815,133
816,133
817,133
818,133
819,133
820,133
821,133
822,133
823,133
824,133
825,133
826,133
827,133
828,133
829,133
830,133
831,133
832,133
833,133
834,133
835,133
836,136
837,136
838,136
839,136
840,136
841,136
842,136
843,136
844,136
845,136
846,136
847,136
848,136
849,136
850,136
851,136
852,136
853,136
854,136
855,136
856,136
857,136
858,136
859,136
860,136
861,136
862,136
863,136
864,136
865,136
866,136
867,136
868,136
869,136
870,136
871,136
872,136
873,136
874,136
875,136
876,136
877,136
878,136
879,136
880,136
881,136
882,136
883,136
884,136
885,136
886,136
887,136
888,136
889,136
890,136
891,136
892,136
893,136
894,136
895,136
896,136
897,136
898,136
899,136
900,136
901,136
902,136
903,136
904,136
905,136
906,136
907,136
908,136
909,136
910,136
911,136
912,136
913,136
914,136
915,136
916,136
917,136
918,136
919,136
920,136
921,136
922,136
923,136
924,136
925,136
926,136
927,136
928,136
929,136
930,136
931,136
932,136
933,136
934,136
935,136
936,136
937,136
938,136
939,136
940,136
941,136
942,136
943,136
944,136
945,136
946,136
947,136
948,136
949,136
950,136
951,136
952,136
953,136
954,136
955,136
956,136
957,136
958,136
959,136
960,136
961,136
962,136
963,136
964,136
965,136
966,136
967,136
968,136
969,136
970,136
971,136
972,136
973,136
974,136
975,136
976,136
977,136
978,136
979,136
980,136
981,136
982,136
983,136
984,136
985,136
986,136
987,136
988,136
989,136
990,136
991,136
992,136
993,136
994,136
995,136
996,136
997,136
998,136
999,136
1000,136
1001,136
1002,136
1003,136
1004,136
1005,136
1006,136
1007,136
1008,136
1009,136
1010,136
1011,136
1012,136
1013,136
1014,136
1015,136
1016,136
1017,136
1018,136
1019,136
1020,136
1021,136
1022,136
1023,136
1024,136
1025,136
1026,136
1027,136
1028,136
1029,136
1030,136
1031,136
1032,136
1033,136
1034,136
1035,136
1036,136
1037,136
1038,136
1039,136
1040,136
1041,136
1042,136
1043,136
1044,136
1045,136
1046,136
1047,136
1048,136
1049,136
1050,136
1051,136
1052,136
1053,136
1054,136
1055,136
1056,136
1057,136
1058,136
1059,136
1060,136
1061,136
1062,136
1063,136
1064,136
1065,136
1066,136
1067,136
1068,136
1069,136
1070,136
1071,136
1072,136
1073,136
1074,136
1075,136
1076,136
1077,136
1078,136
1079,136
1080,136
1081,136
1082,136
1083,136
1084,136
1085,136
1086,136
1087,136
1088,136
1089,136
1090,136
1091,136
1092,136
1093,136
1094,136
1095,136
1096,136
1097,136
1098,136
1099,136
1100,136
1101,136
1102,136
1103,136
1104,136
1105,136
1106,136
1107,136
1108,136
1109,136
1110,136
1111,136
1112,136
1113,136
1114,136
1115,136
1116,136
1117,136
1118,136
1119,136
1120,136
1121,136
1122,136
1123,136
1124,136
1125,136
1126,136
1127,136
1128,136
1129,136
1130,136
1131,136
1132,136
1133,136
1134,136
1135,136
1136,136
1137,136
1138,136
1139,136
1140,136
1141,136
1142,136
1143,136
1144,136
1145,136
1146,136
1147,136
1148,136
1149,136
1150,222
1151,222
1152,222
1153,222
1154,222
1155,222
1156,222
1157,222
1158,222
1159,222
1160,222
1161,222
1162,222
1163,222
1164,222
1165,222
1166,222
1167,222
1168,222
1169,222
1170,222
1171,222
1172,222
1173,222
1174,222
1175,222
1176,222
1177,222
1178,222
1179,222
1180,222
1181,222
1182,222
1183,222
1184,222
1185,222
1186,222
1187,222
1188,222
1189,222
1190,222
1191,222
1192,222
1193,222
1194,222
1195,222
1196,222
1197,222
1198,222
1199,222
1200,222
1201,222
1202,222
1203,222
1204,222
1205,222
1206,222
1207,222
1208,222
1209,222
1210,222
1211,222
1212,222
1213,222
1214,222
1215,222
1216,222
1217,222
1218,222
1219,222
1220,222
1221,222
1222,222
1223,222
1224,222
1225,222
1226,222
1227,222
1228,222
1229,222
1230,222
1231,222
1232,222
1233,222
1234,222
1235,222
1236,222
1237,222
1238,222
1239,222
1240,222
1241,222
1242,222
1243,222
1244,222
1245,222
1246,222
1247,222
1248,222
1249,222
1250,222
1251,222
1252,222
1253,222
1254,222
1255,222
1256,222
1257,222
1258,222
1259,222
1260,222
1261,222
1262,222
1263,222
1264,222
1265,222
1266,222
1267,222
1268,222
1269,222
1270,222
1271,222
1272,222
1273,222
1274,222
1275,222
1276,222
1277,222
1278,222
1279,222
1280,222
1281,225
1282,225
1283,225
1284,225
1285,225
1286,225
1287,225
1288,225
1289,225
1290,225
1291,225
1292,225
1293,225
1294,225
1295,225
1296,225
1297,225
1298,225
1299,225
1300,225
1301,225
1302,225
1303,225
1304,225
1305,225
1306,225
1307,225
1308,225
1309,225
1310,225
1311,225
1312,225
1313,225
1314,225
1315,225
1316,225
1317,225
1318,225
1319,225
1320,225
1321,225
1322,225
1323,225
1324,225
1325,225
1326,225
1327,225
1328,225
1329,225
1330,225
1331,225
1332,225
1333,225
1334,225
1335,225
1336,225
1337,225
1338,225
1339,225
1340,225
1341,225
1342,225
1343,225
1344,225
1345,225
1346,225
1347,225
1348,225
1349,225
1350,225
1351,225
1352,225
1353,225
1354,225
1355,225
1356,225
1357,225
1358,225
1359,225
1360,225
1361,225
1362,225
1363,225
1364,225
1365,225
1366,225
1367,225
1368,225
1369,225
1370,225
1371,225
1372,225
1373,225
1374,225
1375,225
1376,225
1377,225
1378,225
1379,225
1380,225
1381,225
1382,225
1383,225
1384,225
1385,225
1386,225
1387,225
1388,225
1389,225
1390,225
1391,225
1392,225
1393,225
1394,225
1395,225
1396,225
1397,225
1398,225
1399,225
1400,225
1401,225
1402,225
1403,225
1404,225
1405,225
1406,225
1407,225
1408,225
1409,225
1410,225
1411,225
1412,225
1413,225
1414,225
1415,225
1416,225
1417,225
1418,225
1419,225
1420,225
1421,225
1422,227
1423,227
1424,227
1425,227
1426,227
1427,227
1428,227
1429,227
1430,227
1431,227
1432,227
1433,227
1434,227
1435,227
1436,227
1437,227
1438,227
1439,227
1440,227
1441,227
1442,227
1443,227
1444,227
1445,227
1446,227
1447,227
1448,228
1449,228
1450,228
1451,228
1452,228
1453,228
1454,228
1455,228
1456,228
1457,228
1458,228
1459,228
1460,228
1461,228
1462,228
1463,228
1464,228
1465,228
1466,228
1467,228
1468,228
1469,228
1470,228
1471,228
1472,228
1473,228
1474,228
1475,228
1476,228
1477,228
1478,228
1479,228
1480,228
1481,228
1482,228
1483,228
1484,228
1485,228
1486,228
1487,228
1488,228
1489,228
1490,228
1491,228
1492,228
1493,228
1494,228
1495,228
1496,228
1497,228
1498,228
1499,228
1500,228
1501,228
1502,228
1503,228
1504,228
1505,228
1506,228
1507,228
1508,228
1509,228
1510,228
1511,228
1512,228
1513,228
1514,228
1515,228
1516,228
1517,228
1518,228
1519,228
1520,228
1521,228
1522,228
1523,228
1524,228
1525,228
1526,228
1527,228
1528,228
1529,228
1530,228
1531,228
1532,228
1533,228
1534,228
1535,228
1536,228
1537,228
1538,228
1539,228
1540,228
1541,228
1542,228
1543,228
1544,228
1545,228
1546,228
1547,228
1548,228
1549,228
1550,228
1551,228
1552,228
1553,228
1554,228
1555,228
1556,228
1557,228
1558,228
1559,228
1560,228
1561,228
1562,228
1563,228
1564,228
1565,228
1566,228
1567,228
1568,231
1569,231
1570,231
1571,231
1572,231
1573,231
1574,231
1575,231
1576,231
1577,231
1578,231
1579,231
1580,231
1581,231
1582,231
1583,231
1584,231
1585,231
1586,231
1587,231
1588,231
1589,231
1590,231
