1,0
2,45
3,57
4,57
5,72
6,72
7,72
8,81
9,83
10,83
11,83
12,95
13,108
14,108
15,108
16,108
17,108
18,108
19,116
20,133
21,133
22,133
23,134
24,136
25,136
26,136
27,139
28,140
29,140
30,140
31,143
32,144
33,147
34,148
35,151
36,152
37,152
38,152
39,159
40,159
41,165
42,165
43,166
44,173
45,173
46,173
47,177
48,177
49,182
50,185
51,187
52,187
53,187
54,187
55,193
56,193
57,193
58,193
59,195
60,195
61,195
62,195
63,195
64,195
65,196
66,196
67,199
68,200
69,200
70,204
71,206
72,206
73,206
74,206
75,207
76,207
77,207
78,207
79,207
80,211
81,257
82,257
83,259
84,259
85,259
86,259
87,259
88,259
89,259
90,260
91,273
92,273
93,285
94,286
95,286
96,286
97,296
98,297
99,297
100,297
101,297
102,297
103,297
104,298
105,298
106,298
107,298
108,298
109,298
110,298
111,298
112,300
113,300
114,300
115,300
116,300
117,300
118,300
119,300
120,304
121,305
122,305
123,305
124,305
125,305
126,305
127,305
128,305
129,305
130,305
131,305
132,305
133,306
134,306
135,306
136,306
137,306
138,306
139,308
140,308
141,308
142,308
143,308
144,311
145,311
146,311
147,311
148,311
149,311
150,311
151,311
152,311
153,311
154,316
155,316
156,316
157,316
158,316
159,316
160,316
161,316
162,316
163,316
164,316
165,322
166,322
167,322
168,322
169,322
170,322
171,322
172,322
173,322
174,322
175,322
176,325
177,325
178,325
179,325
180,325
181,325
182,325
183,325
184,328
185,328
186,328
187,328
188,328
189,328
190,328
191,329
192,329
193,329
194,329
195,329
196,330
197,330
198,330
199,330
200,337
201,337
202,337
203,337
204,337
205,337
206,337
207,339
208,339
209,339
210,339
211,339
212,339
213,339
214,339
215,339
216,339
217,339
218,339
219,339
220,339
221,339
222,339
223,339
224,339
225,339
226,339
227,339
228,339
229,339
230,339
231,339
232,339
233,339
234,339
235,339
236,340
237,340
238,340
239,340
240,352
241,352
242,352
243,352
244,352
245,352
246,352
247,352
248,352
249,352
250,352
251,352
252,352
253,352
254,352
255,352
256,352
257,352
258,352
259,352
260,352
261,352
262,352
263,352
264,352
265,352
266,353
267,353
268,353
269,353
270,353
271,353
272,353
273,353
274,353
275,353
276,353
277,353
278,353
279,353
280,353
281,353
282,353
283,353
284,353
285,353
286,353
287,353
288,353
289,353
290,353
291,354
292,354
293,354
294,354
295,354
296,354
297,354
298,354
299,354
300,354
301,354
302,354
303,354
304,354
305,354
306,354
307,354
308,354
309,354
310,354
311,354
312,354
313,354
314,354
315,354
316,354
317,354
318,354
319,354
320,356
321,356
322,356
323,356
324,356
325,356
326,356
327,356
328,356
329,356
330,356
331,356
332,356
333,356
334,356
335,356
336,356
337,356
338,356
339,356
340,356
341,356
342,356
343,356
344,356
345,356
346,356
347,356
348,356
349,356
350,356
351,356
352,356
353,357
354,357
355,357
356,357
357,357
358,357
359,357
360,357
361,357
362,357
363,357
364,357
365,357
366,357
367,357
368,357
369,357
370,357
371,357
372,357
373,357
374,357
375,357
376,357
377,357
378,357
379,357
380,357
381,357
382,357
383,357
384,357
385,357
386,357
387,357
388,357
389,357
390,357
391,357
392,357
393,357
394,357
395,357
396,357
397,357
398,357
399,357
400,357
401,357
402,357
403,357
404,357
405,357
406,357
407,357
408,357
409,357
410,357
411,357
412,357
413,357
414,357
415,357
416,357
417,357
418,357
419,357
420,357
421,357
422,358
423,358
424,358
425,358
426,358
427,358
428,358
429,358
430,358
431,358
432,358
433,358
434,358
435,359
436,359
437,359
438,359
439,359
440,359
441,359
442,359
443,359
444,359
445,359
446,361
447,361
448,361
449,361
450,361
451,361
452,361
453,361
454,361
455,361
456,361
457,361
458,361
459,361
460,361
461,361
462,361
463,361
464,361
465,361
466,361
467,361
468,361
469,361
470,361
471,361
472,361
473,361
474,361
475,361
476,361
477,361
478,361
479,361
480,361
481,361
482,361
483,361
484,361
485,361
486,361
487,361
488,361
489,361
490,363
491,363
492,363
493,363
494,363
495,363
496,363
497,363
498,363
499,363
500,363
501,363
502,363
503,363
504,363
505,363
506,363
507,363
508,363
509,363
510,363
511,363
512,363
513,363
514,363
515,363
516,363
517,363
518,363
519,363
520,363
521,363
522,363
523,363
524,363
525,363
526,363
527,363
528,363
529,363
530,363
531,363
532,363
533,363
534,363
535,363
536,363
537,363
538,363
539,363
540,363
541,363
542,363
543,363
544,363
545,363
546,363
547,364
548,364
549,364
550,364
551,364
552,364
553,364
554,365
555,365
556,365
557,365
558,365
559,365
560,365
561,365
562,365
563,365
564,365
565,365
566,365
567,365
568,365
569,365
570,365
571,365
572,365
573,365
574,365
575,365
576,365
577,365
578,365
579,365
580,365
581,365
582,365
583,365
584,365
585,365
586,365
587,365
588,365
589,365
590,365
591,365
592,365
593,365
594,365
595,365
596,365
597,365
598,365
599,365
600,365
601,365
602,365
603,365
604,365
605,365
606,365
607,365
608,365
609,365
610,365
611,365
612,365
613,365
614,365
615,365
616,365
617,365
618,365
619,365
620,365
621,365
622,365
623,365
624,365
625,365
626,365
627,365
628,365
629,365
630,365
631,365
632,365
633,365
634,365
635,365
636,365
637,365
638,365
639,365
640,365
641,365
642,365
643,365
644,365
645,365
646,365
647,365
648,365
649,365
650,365
651,365
652,365
653,365
654,365
655,365
656,365
657,365
658,365
659,365
660,365
661,365
662,365
663,365
664,365
665,365
666,365
667,365
668,365
669,365
670,365
671,365
672,365
673,365
674,365
675,365
676,365
677,365
678,365
679,365
680,365
681,365
682,365
683,365
684,365
685,365
686,365
687,365
688,365
689,365
690,365
691,365
692,365
693,365
694,365
695,365
696,365
697,365
698,365
699,365
700,365
701,365
702,365
703,365
704,365
705,365
706,365
707,365
708,365
709,365
710,365
711,365
712,365
713,365
714,365
715,365
716,365
717,365
718,365
719,365
720,366
721,366
722,366
723,366
724,366
725,366
726,366
727,366
728,366
729,366
730,366
731,366
732,366
733,366
734,366
735,366
736,366
737,366
738,366
739,366
740,366
741,366
742,366
743,366
744,366
745,366
746,366
747,366
748,366
749,366
750,366
751,366
752,366
753,366
754,366
755,366
756,366
757,366
758,366
759,366
760,366
761,366
762,366
763,366
764,366
765,366
766,368
767,368
768,368
769,368
770,368
771,368
772,368
773,368
774,368
775,368
776,368
777,368
778,368
779,368
780,368
781,368
782,368
783,368
784,368
