1,0
2,25
3,61
4,76
5,76
6,109
7,109
8,116
9,134
10,134
11,134
12,135
13,136
14,136
15,136
16,136
17,182
18,184
19,187
20,187
21,188
22,188
23,188
24,191
25,191
26,192
27,192
28,192
29,192
30,192
31,195
32,195
33,199
34,199
35,200
36,200
37,207
38,207
39,214
40,214
41,221
42,223
43,223
44,223
45,226
46,226
47,226
48,231
49,231
50,235
51,235
52,235
53,235
54,237
55,238
56,238
57,238
58,238
59,238
60,238
61,238
62,238
63,239
64,239
65,239
66,246
67,248
68,248
69,252
70,253
71,253
72,253
73,253
74,253
75,257
76,257
77,257
78,257
79,257
80,257
81,258
82,258
83,258
84,258
85,258
86,258
87,258
88,258
89,258
90,258
91,258
92,261
93,262
94,262
95,262
96,262
97,262
98,262
99,262
100,263
101,263
102,263
103,263
104,263
105,263
106,263
107,263
108,263
109,264
110,276
111,276
112,276
113,276
114,276
115,276
116,276
117,276
118,276
119,278
120,278
121,278
122,278
123,278
124,278
125,278
126,278
127,280
128,280
129,280
130,280
131,280
132,281
133,281
134,281
135,287
136,287
137,287
138,287
139,287
140,287
141,287
142,287
143,289
144,289
145,289
146,289
147,294
148,294
149,294
150,294
151,294
152,294
153,294
154,294
155,294
156,294
157,294
158,294
159,294
160,294
161,294
162,294
163,294
164,294
165,294
166,295
167,295
168,295
169,295
170,295
171,295
172,309
173,309
174,309
175,309
176,309
177,309
178,309
179,309
180,309
181,309
182,309
183,309
184,319
185,319
186,319
187,319
188,330
189,330
190,330
191,333
192,333
193,333
194,333
195,333
196,333
197,333
198,333
199,333
200,333
201,333
202,333
203,333
204,336
205,336
206,336
207,336
208,336
209,336
210,336
211,336
212,336
213,336
214,336
215,336
216,336
217,336
218,336
219,336
220,336
221,336
222,336
223,336
224,336
225,336
226,336
227,336
228,336
229,336
230,336
231,336
232,336
233,336
234,336
235,336
236,336
237,336
238,336
239,336
240,336
241,336
242,336
243,336
244,336
245,336
246,336
247,336
248,336
249,336
250,336
251,336
252,336
253,336
254,336
255,336
256,336
257,336
258,336
259,336
260,336
261,336
262,336
263,336
264,336
265,336
266,336
267,336
268,337
269,337
270,337
271,337
272,337
273,337
274,337
275,337
276,337
277,340
278,340
279,340
280,340
281,340
282,340
283,340
284,340
285,340
286,340
287,340
288,340
289,340
290,340
291,340
292,340
293,340
294,340
295,340
296,340
297,340
298,340
299,340
300,340
301,340
302,340
303,340
304,340
305,340
306,340
307,340
308,340
309,340
310,340
311,340
312,340
313,340
314,340
315,340
316,340
317,340
318,341
319,341
320,341
321,341
322,341
323,341
324,341
325,341
326,341
327,341
328,341
329,341
330,341
331,341
332,341
333,341
334,341
335,341
336,341
337,341
338,341
339,341
340,342
341,342
342,342
343,342
344,342
345,342
346,342
347,342
348,343
349,343
350,343
351,343
352,343
353,343
354,343
355,343
356,343
357,343
358,343
359,343
360,343
361,343
362,343
363,346
364,346
365,346
366,346
367,346
368,346
369,346
370,346
371,346
372,346
373,346
374,346
375,346
376,346
377,346
378,346
379,346
380,346
381,346
382,346
383,346
384,346
385,346
386,346
387,346
388,346
389,346
390,346
391,346
392,346
393,346
394,346
395,346
396,346
397,346
398,346
399,346
400,346
401,346
402,346
403,346
404,346
405,346
406,346
407,346
408,346
409,346
410,346
411,346
412,346
413,346
414,346
415,346
416,346
417,346
418,346
419,346
420,346
421,346
422,346
423,346
424,346
425,346
426,346
427,346
428,346
429,346
430,346
431,346
432,346
433,346
434,346
435,346
436,346
437,346
438,346
439,346
440,346
441,346
442,346
443,346
444,346
445,346
446,346
447,346
448,346
449,346
450,346
451,346
452,346
453,346
454,346
455,346
456,346
457,346
458,346
459,346
460,346
461,346
462,346
463,346
464,346
465,348
466,351
467,351
468,351
469,351
470,351
471,351
472,351
473,351
474,351
475,351
476,351
477,353
478,353
479,353
480,353
481,353
482,353
483,353
484,353
485,353
486,353
487,353
488,353
489,353
490,353
491,353
492,353
493,353
494,353
495,353
496,353
497,353
498,353
499,353
500,353
501,353
502,353
503,353
504,353
505,353
506,353
507,353
508,353
509,354
510,354
511,354
512,354
513,354
514,354
515,354
516,354
517,354
518,354
519,354
520,354
521,354
522,354
523,354
524,354
525,354
526,355
527,355
528,355
529,355
530,355
531,355
532,355
533,355
534,355
535,355
536,355
537,355
538,355
539,355
540,355
541,355
542,355
543,355
544,355
545,355
546,355
547,355
548,355
549,355
550,355
551,355
552,355
553,355
554,355
555,355
556,355
557,355
558,355
559,355
560,355
561,355
562,355
563,355
564,355
565,355
566,355
567,355
568,355
569,355
570,355
571,355
572,355
573,355
574,355
575,355
576,355
577,355
578,355
579,355
580,355
581,355
582,355
583,355
584,355
585,355
586,355
587,357
588,357
589,357
590,357
591,357
592,357
593,357
594,357
595,357
596,357
597,357
598,357
599,357
600,357
601,357
602,357
603,357
604,357
605,357
606,357
607,357
608,357
609,357
610,357
611,357
612,357
613,357
614,357
615,357
616,358
617,358
618,358
619,358
620,358
621,358
622,358
623,358
624,358
625,358
626,358
627,358
628,365
629,365
630,365
631,365
632,365
633,365
634,365
635,365
636,365
637,365
638,365
639,365
640,365
641,365
642,365
643,365
644,365
645,365
646,365
647,365
648,365
649,365
650,365
651,365
652,365
653,365
654,365
655,365
656,365
657,366
658,366
659,366
660,366
661,366
662,366
663,366
664,366
665,366
666,366
667,366
668,366
669,366
670,366
671,366
672,366
673,366
674,366
675,366
676,366
677,366
678,366
679,366
680,366
681,366
682,366
683,366
684,366
685,366
686,366
687,366
688,366
689,366
690,366
691,366
692,366
693,366
694,366
695,366
696,366
697,366
698,367
699,367
700,367
701,367
702,367
703,367
704,367
705,367
706,367
707,367
708,367
709,367
710,367
711,367
712,367
713,367
714,367
715,367
716,367
717,367
718,367
719,367
720,367
721,367
722,367
723,367
724,367
725,367
726,367
727,367
728,367
729,367
730,367
731,367
732,367
733,367
734,367
735,367
736,367
737,367
738,367
739,367
740,367
741,367
742,367
743,367
744,368
745,368
746,368
747,368
748,368
749,368
750,368
751,368
752,368
753,368
754,368
755,368
756,368
757,368
758,368
759,368
760,368
761,368
762,368
763,368
764,368
765,368
766,368
767,368
768,368
769,368
770,368
771,368
772,368
773,368
774,368
775,368
776,368
777,368
778,368
779,368
780,368
781,368
782,368
783,368
784,368
