w128=w0^w1
w129=w2|w3
w130=w4&w5
w131=w6^w7
w132=w8|w9
w133=w10|w11
w134=w12^w13
w135=w14&w15
w136=w16^w17
w137=w18^w19
w138=w20&w21
w139=w22|w23
w140=w24&w25
w141=w26|w27
w142=w28^w29
w143=w30^w31
w144=w32^w33
w145=w34&w35
w146=w36&w37
w147=w38&w39
w148=w40|w41
w149=w42&w43
w150=w44^w45
w151=w46^w47
w152=w48&w49
w153=w50&w51
w154=w52|w53
w155=w54&w55
w156=w56&w57
w157=w58&w59
w158=w60|w61
w159=w62^w63
w160=w64&w65
w161=w66|w67
w162=w68&w69
w163=w70&w71
w164=w72^w73
w165=w74^w75
w166=w76|w77
w167=w78|w79
w168=w80&w81
w169=w82&w83
w170=w84^w85
w171=w86|w87
w172=w88|w89
w173=w90&w91
w174=w92&w93
w175=w94|w95
w176=w96^w97
w177=w98&w99
w178=w100^w101
w179=w102|w103
w180=w104|w105
w181=w106^w107
w182=w108^w109
w183=w110^w111
w184=w112|w113
w185=w114&w115
w186=w116&w117
w187=w118|w119
w188=w120&w121
w189=w122&w123
w190=w124&w125
w191=w126&w127
w192=w128|w129
w193=w130|w131
w194=w132^w133
w195=w134&w135
w196=w136^w137
w197=w138^w139
w198=w140^w141
w199=w142^w143
w200=w144^w145
w201=w146&w147
w202=w148&w149
w203=w150&w151
w204=w152&w153
w205=w154|w155
w206=w156^w157
w207=w158|w159
w208=w160^w161
w209=w162|w163
w210=w164|w165
w211=w166^w167
w212=w168|w169
w213=w170^w171
w214=w172^w173
w215=w174|w175
w216=w176^w177
w217=w178&w179
w218=w180^w181
w219=w182|w183
w220=w184|w185
w221=w186|w187
w222=w188|w189
w223=w190|w191
w224=w192|w193
w225=w194|w195
w226=w196|w197
w227=w198|w199
w228=w200^w201
w229=w202&w203
w230=w204&w205
w231=w206^w207
w232=w208|w209
w233=w210&w211
w234=w212|w213
w235=w214|w215
w236=w216^w217
w237=w218|w219
w238=w220&w221
w239=w222&w223
w240=w224&w225
w241=w226^w227
w242=w228&w229
w243=w230|w231
w244=w232^w233
w245=w234|w235
w246=w236&w237
w247=w238&w239
w248=w240^w241
w249=w242|w243
w250=w244^w245
w251=w246^w247
w252=w248|w249
w253=w250&w251
w254=w252^w253
