1,49
2,81
3,112
4,113
5,127
6,143
7,143
8,144
9,148
10,158
11,160
12,169
13,173
14,178
15,183
16,189
17,190
18,190
19,198
20,202
21,202
22,202
23,202
24,205
25,210
26,213
27,218
28,218
29,218
30,218
31,218
32,218
33,222
34,222
35,223
36,227
37,228
38,235
39,236
40,236
41,249
42,250
43,255
44,255
45,259
46,282
47,282
48,282
49,282
50,283
51,284
52,285
53,285
54,298
55,298
56,300
57,302
58,305
59,307
60,307
61,307
62,308
63,308
64,308
65,309
66,309
67,309
68,310
69,310
70,310
71,310
72,310
73,310
74,310
75,311
76,311
77,311
78,311
79,311
80,311
81,311
82,311
83,317
84,317
85,317
86,317
87,317
88,318
89,318
90,318
91,318
92,321
93,321
94,321
95,323
96,323
97,323
98,323
99,323
100,323
101,323
102,324
103,324
104,324
105,324
106,324
107,324
108,325
109,325
110,325
111,325
112,325
113,325
114,325
115,325
116,325
117,325
118,326
119,326
120,326
121,326
122,326
123,326
124,326
125,336
126,337
127,337
128,337
129,338
130,338
131,339
132,341
133,342
134,342
135,342
136,343
137,343
138,343
139,343
140,343
141,343
142,343
143,345
144,345
145,345
146,345
147,346
148,346
149,346
150,346
151,346
152,346
153,346
154,346
155,346
156,346
157,346
158,346
159,346
160,346
161,346
162,346
163,346
164,346
165,346
166,348
167,348
168,348
169,350
170,350
171,351
172,351
173,351
174,351
175,351
176,351
177,351
178,351
179,351
180,351
181,351
182,351
183,351
184,351
185,351
186,351
187,351
188,351
189,351
190,351
191,351
192,351
193,351
194,351
195,352
196,352
197,352
198,352
199,352
200,352
201,352
202,352
203,352
204,359
205,359
206,360
207,360
208,360
209,360
210,360
211,360
212,360
213,360
214,360
215,360
216,360
217,360
218,360
219,360
220,360
221,361
222,361
223,361
224,361
225,361
226,361
227,361
228,361
229,361
230,361
231,361
232,363
233,363
234,363
235,363
236,363
237,363
238,363
239,363
240,363
241,363
242,363
243,363
244,363
245,363
246,363
247,363
248,363
249,363
250,363
251,363
252,363
253,363
254,363
255,363
256,363
257,363
258,363
259,363
260,363
261,363
262,363
263,363
264,363
265,363
266,363
267,363
268,364
269,364
270,364
271,364
272,364
273,364
274,364
275,364
276,364
277,364
278,364
279,364
280,364
281,364
282,364
283,364
284,364
285,364
286,364
287,364
288,364
289,364
290,364
291,364
292,364
293,364
294,364
295,364
296,364
297,364
298,364
299,364
300,364
301,364
302,364
303,364
304,364
305,364
306,364
307,364
308,364
309,364
310,364
311,364
312,364
313,364
314,364
315,364
316,364
317,364
318,364
319,364
320,364
321,364
322,364
323,364
324,364
325,364
326,364
327,364
328,364
329,364
330,364
331,364
332,364
333,364
334,364
335,364
336,364
337,364
338,364
339,364
340,364
341,364
342,364
343,364
344,364
345,364
346,364
347,364
348,364
349,364
350,364
351,364
352,364
353,364
354,364
355,364
356,364
357,364
358,364
359,364
360,364
361,364
362,364
363,364
364,364
365,364
366,364
367,364
368,364
369,365
370,365
371,365
372,365
373,365
374,365
375,365
376,365
377,365
378,365
379,365
380,365
381,365
382,365
383,365
384,365
385,365
386,365
387,365
388,365
389,365
390,365
391,365
392,365
393,365
394,365
395,365
396,365
397,365
398,365
399,365
400,365
401,365
402,365
403,365
404,365
405,365
406,365
407,365
408,365
409,365
410,365
411,365
412,365
413,365
414,365
415,365
416,365
417,365
418,365
419,365
420,365
421,365
422,365
423,365
424,365
425,365
426,365
427,365
428,365
429,365
430,365
431,365
432,365
433,365
434,365
435,365
436,365
437,365
438,365
439,365
440,365
441,365
442,365
443,365
444,365
445,365
446,365
447,365
448,365
449,365
450,365
451,365
452,365
453,365
454,365
455,365
456,365
457,365
458,365
459,365
460,365
461,365
462,365
463,365
464,365
465,365
466,365
467,365
468,365
469,365
470,365
471,365
472,365
473,365
474,365
475,365
476,365
477,365
478,365
479,365
480,365
481,365
482,365
483,365
484,366
485,366
486,366
487,366
488,366
489,366
490,366
491,367
492,367
493,367
494,367
495,367
496,367
497,367
498,367
499,367
500,367
501,367
502,367
503,367
504,367
505,367
506,367
507,367
508,367
509,367
510,367
511,367
512,367
513,367
514,367
515,367
516,367
517,367
518,367
519,367
520,367
521,367
522,367
523,367
524,367
525,367
526,367
527,367
528,367
529,367
530,367
531,367
532,367
533,367
534,367
535,367
536,367
537,367
538,367
539,367
540,367
541,367
542,367
543,367
544,367
545,367
546,367
547,367
548,367
549,367
550,367
551,367
552,367
553,367
554,367
555,367
556,367
557,367
558,367
559,367
560,367
561,367
562,367
563,367
564,367
565,367
566,367
567,367
568,367
569,367
570,367
571,367
572,367
573,367
574,367
575,367
576,367
577,367
578,367
579,367
580,367
581,367
582,367
583,367
584,367
585,367
586,367
587,367
588,367
589,367
590,367
591,367
592,367
593,367
594,367
595,367
596,367
597,367
598,367
599,367
600,367
601,367
602,367
603,367
604,367
605,367
606,367
607,367
608,367
609,367
610,367
611,367
612,367
613,367
614,373
615,373
616,373
617,373
618,373
619,373
620,373
621,373
622,373
623,373
624,373
625,373
626,373
627,373
628,373
629,373
630,373
631,373
632,373
633,373
634,373
635,373
636,373
637,373
638,373
639,373
640,373
641,373
642,373
643,373
644,373
645,373
646,374
647,374
648,374
649,374
650,374
651,374
652,374
653,374
654,374
655,374
656,374
657,374
658,374
659,374
660,374
661,374
662,374
663,374
664,374
665,374
666,374
667,374
668,374
669,374
670,376
671,376
672,376
673,376
674,376
675,376
676,376
677,376
678,376
679,376
680,376
681,376
682,376
683,376
684,376
685,376
686,376
687,376
688,376
689,376
690,376
691,376
692,376
693,376
694,376
695,376
696,376
697,376
698,376
699,376
700,376
701,376
702,376
703,376
704,376
705,376
706,376
707,376
708,376
709,376
710,376
711,376
712,376
713,376
714,376
715,376
716,376
717,376
718,376
719,376
720,376
721,376
722,376
723,376
724,376
725,376
726,376
727,376
728,376
729,376
730,376
731,376
732,376
733,376
734,376
735,376
736,376
737,376
738,376
739,376
740,376
741,376
742,376
743,376
744,376
745,376
746,376
747,376
748,376
749,376
750,376
751,379
752,379
753,379
754,379
755,379
756,379
757,379
758,379
759,379
760,379
761,379
762,379
763,379
764,379
765,379
766,379
767,379
768,379
769,379
770,379
771,379
772,379
773,379
774,379
775,379
776,379
777,379
778,379
779,379
780,379
781,379
782,379
783,379
784,379
785,379
786,379
