1,78
2,161
3,181
4,194
5,208
6,226
7,237
8,245
9,251
10,253
11,270
12,272
13,299
14,304
15,319
16,326
17,328
18,352
19,370
20,378
21,381
22,410
23,411
24,412
25,415
26,417
27,417
28,418
29,419
30,420
31,428
32,428
33,429
34,433
35,433
36,434
37,436
38,436
39,448
40,451
41,451
42,453
43,454
44,454
45,455
46,455
47,457
48,460
49,460
50,462
51,462
52,462
53,466
54,477
55,477
56,478
57,481
58,481
59,481
60,481
61,481
62,481
63,484
64,487
65,493
66,495
67,496
68,496
69,496
70,496
71,503
72,506
73,508
74,508
75,512
76,514
77,514
78,515
79,516
80,516
81,523
82,523
83,523
84,533
85,533
86,533
87,533
88,533
89,533
90,534
91,535
92,535
93,536
94,536
95,536
96,536
97,538
98,538
99,539
100,539
101,539
102,543
103,543
104,543
105,543
106,544
107,546
108,546
109,546
110,547
111,547
112,547
113,547
114,549
115,549
116,549
117,558
118,558
119,558
120,558
121,558
122,558
123,558
124,563
125,567
126,567
127,571
128,571
129,580
130,580
131,585
132,585
133,585
134,588
135,591
136,591
137,591
138,591
139,591
140,591
141,591
142,591
143,592
144,592
145,592
146,593
147,593
148,593
149,593
150,593
151,593
152,593
153,593
154,593
155,593
156,593
157,595
158,595
159,595
160,595
161,595
162,595
163,595
164,595
165,608
166,608
167,609
168,610
169,610
170,611
171,611
172,611
173,616
174,616
175,616
176,616
177,616
178,616
179,616
180,616
181,616
182,616
183,616
184,617
185,618
186,618
187,618
188,619
189,619
190,623
191,623
192,626
193,626
194,626
195,626
196,626
197,628
198,631
199,631
200,631
201,631
202,631
203,631
204,643
205,643
206,643
207,646
208,646
209,646
210,646
211,646
212,647
213,647
214,647
215,647
216,647
217,648
218,648
219,648
220,648
221,648
222,653
223,653
224,653
225,654
226,654
227,654
228,654
229,654
230,654
231,654
232,654
233,654
234,655
235,655
236,655
237,655
238,659
239,659
240,659
241,659
242,659
243,659
244,661
245,661
246,663
247,663
248,663
249,663
250,663
251,663
252,663
253,663
254,663
255,663
256,663
257,663
258,663
259,663
260,663
261,663
262,663
263,663
264,663
265,663
266,665
267,669
268,670
269,670
270,671
271,671
272,671
273,676
274,676
275,676
276,676
277,676
278,676
279,676
280,676
281,676
282,676
283,686
284,686
285,686
286,686
287,686
288,686
289,686
290,686
291,686
292,686
293,686
294,686
295,688
296,688
297,688
298,688
299,688
300,688
301,688
302,688
303,688
304,688
305,688
306,688
307,688
308,688
309,688
310,688
311,688
312,688
313,690
314,690
315,690
316,690
317,690
318,690
319,690
320,690
321,690
322,690
323,690
324,690
325,690
326,690
327,692
328,692
329,692
330,692
331,692
332,692
333,692
334,692
335,692
336,692
337,692
338,692
339,692
340,692
341,692
342,692
343,692
344,692
345,693
346,693
347,693
348,697
349,697
350,697
351,697
352,697
353,697
354,697
355,698
356,698
357,698
358,698
359,698
360,699
361,699
362,699
363,699
364,699
365,699
366,699
367,699
368,700
369,700
370,700
371,700
372,700
373,700
374,700
375,700
376,700
377,704
378,704
379,704
380,704
381,704
382,704
383,704
384,704
385,704
386,704
387,704
388,704
389,704
390,704
391,707
392,708
393,708
394,708
395,708
396,708
397,708
398,708
399,708
400,708
401,708
402,708
403,708
404,709
405,709
406,709
407,709
408,709
409,709
410,709
411,709
412,711
413,711
414,712
415,712
416,712
417,712
418,712
419,712
420,712
421,712
422,712
423,712
424,712
425,712
426,712
427,712
428,712
429,719
430,719
431,719
432,719
433,719
434,719
435,719
436,719
437,719
438,719
439,719
440,719
441,719
442,719
443,720
444,720
445,720
446,720
447,720
448,720
449,720
450,720
451,720
452,720
453,720
454,720
455,720
456,720
457,720
458,720
459,720
460,720
461,720
462,720
463,720
464,720
465,720
466,721
467,721
468,721
469,721
470,721
471,721
472,724
473,724
474,727
475,727
476,727
477,727
478,727
479,727
480,727
481,727
482,727
483,727
484,727
485,727
486,727
487,727
488,727
489,727
490,727
491,728
492,728
493,728
494,728
495,731
496,731
497,731
498,731
499,731
500,731
501,732
502,732
503,732
504,732
505,732
506,732
507,732
508,732
509,732
510,732
511,732
512,732
513,732
514,732
515,732
516,732
517,732
518,732
519,732
520,732
521,732
522,732
523,732
524,732
525,732
526,732
527,732
528,732
529,732
530,732
531,732
532,732
533,732
534,732
535,732
536,732
537,732
538,732
539,732
540,732
541,732
542,732
543,732
544,732
545,732
546,732
547,732
548,732
549,732
550,732
551,732
552,732
553,732
554,732
555,732
556,732
557,732
558,732
559,732
560,732
561,732
562,733
563,733
564,733
565,733
566,736
567,736
568,736
569,736
570,736
571,736
572,736
573,736
574,736
575,736
576,736
577,736
578,736
579,736
580,736
581,736
582,736
583,736
584,736
585,736
586,736
587,736
588,736
589,736
590,736
591,736
592,736
593,736
594,736
595,736
596,736
597,736
598,736
599,736
600,736
601,736
602,737
603,737
604,737
605,737
606,737
607,737
608,737
609,737
610,737
611,737
612,738
613,738
614,738
615,741
616,741
617,741
618,741
619,742
620,742
621,742
622,743
623,743
624,743
625,743
626,743
627,743
628,743
629,743
630,743
631,743
632,743
633,743
634,744
635,744
636,744
637,744
638,744
639,744
640,744
641,744
642,744
643,744
644,744
645,744
646,744
647,745
648,745
649,745
650,745
651,745
652,745
653,745
654,745
655,745
656,746
657,746
658,746
659,746
660,746
661,746
662,746
663,746
664,746
665,746
666,746
667,746
668,748
669,748
670,748
671,748
672,748
673,748
674,748
675,748
676,748
677,748
678,748
679,748
680,748
681,748
682,748
683,748
684,749
685,749
686,749
687,749
688,749
689,749
690,749
691,749
692,749
693,749
694,749
695,749
696,749
697,749
698,749
699,749
700,749
701,750
702,750
703,750
704,750
705,750
706,750
707,750
708,750
709,750
710,750
711,750
712,750
713,750
714,750
715,750
716,750
717,750
718,750
719,750
720,750
721,750
722,752
723,752
724,752
725,752
726,752
727,752
728,752
729,752
730,752
731,752
732,752
733,752
734,753
735,753
736,753
737,753
738,753
739,753
740,753
741,753
742,753
743,753
744,753
745,753
746,753
747,753
748,753
749,753
750,753
751,753
752,753
753,753
754,753
755,753
756,753
757,753
758,753
759,753
760,753
761,753
762,753
763,753
764,753
765,753
766,753
767,753
768,753
769,753
770,753
771,753
772,753
773,753
774,753
775,753
776,753
777,753
778,753
779,753
780,753
781,753
782,753
783,753
784,753
785,753
786,753
787,753
788,753
789,753
790,753
791,753
792,753
793,753
794,753
795,753
796,753
797,753
798,753
799,753
800,754
801,754
802,754
803,754
804,754
805,754
806,754
807,754
808,754
809,754
810,754
811,754
812,754
813,754
814,754
815,754
816,754
817,754
818,754
819,754
820,754
821,754
822,754
823,754
824,754
825,754
826,754
827,754
828,754
829,754
830,754
831,754
832,754
833,754
834,754
835,754
836,754
837,754
838,754
839,754
840,754
841,754
842,754
843,754
844,754
845,754
846,754
847,754
848,754
849,754
850,754
851,754
852,754
853,754
854,754
855,754
856,754
857,754
858,754
859,754
860,754
861,754
862,754
863,754
864,754
865,754
866,754
867,754
868,754
869,754
870,754
871,754
872,754
873,754
874,754
875,754
876,754
877,754
878,754
879,754
880,754
881,754
882,755
883,755
884,755
885,755
886,755
887,755
888,755
889,755
890,755
891,755
892,755
893,755
894,755
895,755
896,755
897,755
898,755
899,755
900,755
901,755
902,755
903,755
904,755
905,755
906,755
907,755
908,755
909,755
910,755
911,755
912,755
913,755
914,755
915,755
916,755
917,755
918,755
919,755
920,755
921,755
922,755
923,755
924,755
925,755
926,755
927,755
928,755
929,755
930,755
931,755
932,755
933,755
934,755
935,755
936,755
937,755
938,755
939,755
940,755
941,755
942,755
943,755
944,755
945,755
946,755
947,755
948,755
949,755
950,755
951,755
952,755
953,755
954,755
955,755
956,755
957,755
958,755
959,755
960,755
961,755
962,755
963,755
964,755
965,755
966,755
967,755
968,755
969,755
970,755
971,755
972,755
973,755
974,755
975,755
976,755
977,755
978,755
979,755
980,755
981,755
982,755
983,755
984,755
985,755
986,755
987,755
988,755
989,756
990,756
991,756
992,756
993,756
994,756
995,756
996,756
997,756
998,756
999,756
1000,756
1001,756
1002,756
1003,756
1004,756
1005,756
1006,756
1007,756
1008,756
1009,756
1010,756
1011,756
1012,756
1013,756
1014,756
1015,756
1016,756
1017,756
1018,756
1019,756
1020,756
1021,756
1022,756
1023,756
1024,756
1025,756
1026,756
1027,756
1028,756
1029,756
1030,756
1031,756
1032,756
1033,756
1034,756
1035,756
1036,756
1037,756
1038,756
1039,756
1040,756
1041,756
1042,756
1043,756
1044,756
1045,756
1046,756
1047,756
1048,756
1049,756
1050,756
1051,756
1052,756
1053,756
1054,756
1055,756
1056,756
1057,756
1058,756
1059,756
1060,756
1061,756
1062,756
1063,756
1064,756
1065,756
1066,756
1067,756
1068,756
1069,756
1070,756
1071,756
1072,756
1073,756
1074,756
1075,756
1076,756
1077,756
1078,756
1079,756
1080,756
1081,756
1082,756
1083,756
1084,756
1085,756
1086,756
1087,756
1088,756
1089,756
1090,756
1091,756
1092,756
1093,756
1094,756
1095,756
1096,756
1097,756
1098,756
1099,756
1100,756
1101,756
1102,756
1103,756
1104,756
1105,756
1106,756
1107,756
1108,756
1109,756
1110,756
1111,756
1112,756
1113,756
1114,756
1115,756
1116,756
1117,756
1118,756
1119,756
1120,756
1121,756
1122,756
1123,756
1124,756
1125,756
1126,756
1127,756
1128,756
1129,756
1130,756
1131,756
1132,756
1133,756
1134,756
1135,756
1136,756
1137,756
1138,756
1139,756
1140,756
1141,756
1142,756
1143,756
1144,756
1145,756
1146,756
1147,756
1148,756
1149,756
1150,756
1151,756
1152,756
1153,756
1154,756
1155,756
1156,756
1157,756
1158,756
1159,756
1160,756
1161,756
1162,756
1163,756
1164,756
1165,756
1166,756
1167,756
1168,756
1169,756
1170,756
1171,756
1172,756
1173,756
1174,756
1175,756
1176,756
1177,756
1178,756
1179,756
1180,756
1181,756
1182,756
1183,756
1184,756
1185,756
1186,756
1187,756
1188,756
1189,756
1190,756
1191,756
1192,756
1193,756
1194,756
1195,756
1196,756
1197,756
1198,756
1199,756
1200,756
1201,756
1202,756
1203,756
1204,756
1205,756
1206,756
1207,756
1208,756
1209,756
1210,756
1211,756
1212,756
1213,756
1214,756
1215,756
1216,756
1217,756
1218,756
1219,756
1220,756
1221,756
1222,757
1223,757
1224,757
1225,757
1226,757
1227,757
1228,757
1229,757
1230,757
1231,757
1232,757
1233,757
1234,757
1235,757
1236,757
1237,757
1238,757
1239,757
1240,757
1241,757
1242,757
1243,757
1244,757
1245,757
1246,757
1247,757
1248,757
1249,757
1250,757
1251,757
1252,757
1253,757
1254,757
1255,757
1256,757
1257,757
1258,757
1259,757
1260,757
1261,757
1262,757
1263,757
1264,757
1265,757
1266,757
1267,757
1268,757
1269,757
1270,757
1271,757
1272,757
1273,757
1274,757
1275,757
1276,757
1277,757
1278,757
1279,757
1280,757
1281,757
1282,757
1283,757
1284,757
1285,757
1286,757
1287,757
1288,757
1289,757
1290,757
1291,757
1292,757
1293,757
1294,757
1295,757
1296,757
1297,757
1298,757
1299,757
1300,757
1301,757
1302,757
1303,757
1304,757
1305,757
1306,757
1307,757
1308,757
1309,757
1310,757
1311,757
1312,757
1313,757
1314,757
1315,757
1316,757
1317,757
1318,757
1319,757
1320,757
1321,757
1322,757
1323,757
1324,757
1325,757
1326,757
1327,757
1328,757
1329,757
1330,757
1331,757
1332,757
1333,757
1334,757
1335,758
1336,758
1337,758
1338,758
1339,758
1340,758
1341,758
1342,758
1343,758
1344,758
1345,758
1346,758
1347,758
1348,758
1349,758
1350,758
1351,758
1352,758
1353,758
1354,758
1355,758
1356,758
1357,758
1358,758
1359,758
1360,758
1361,758
1362,758
1363,758
1364,758
1365,758
1366,758
1367,758
1368,758
1369,758
1370,758
1371,758
1372,758
1373,758
1374,758
1375,758
1376,758
1377,758
1378,758
1379,758
1380,758
1381,758
1382,758
1383,758
1384,758
1385,758
1386,758
1387,758
1388,758
1389,758
1390,758
1391,759
1392,759
1393,759
1394,759
1395,759
1396,759
1397,759
1398,759
1399,759
1400,759
1401,759
1402,759
1403,759
1404,759
1405,759
1406,759
1407,759
1408,759
1409,759
1410,759
1411,759
1412,759
1413,759
1414,759
1415,759
1416,759
1417,759
1418,759
1419,759
1420,759
1421,759
1422,759
1423,759
1424,759
1425,759
1426,759
1427,759
1428,759
1429,759
1430,759
1431,759
1432,759
1433,759
1434,759
1435,759
1436,759
1437,759
1438,759
1439,759
1440,759
1441,759
1442,759
1443,759
1444,759
1445,759
1446,759
1447,759
1448,759
1449,759
1450,759
1451,759
1452,759
1453,759
1454,759
1455,759
1456,759
1457,759
1458,759
1459,759
1460,759
1461,759
1462,759
1463,759
1464,759
1465,759
1466,759
1467,759
1468,759
1469,759
1470,759
1471,759
1472,759
1473,759
1474,759
1475,759
1476,759
1477,759
1478,759
1479,759
1480,759
1481,759
1482,759
1483,759
1484,759
1485,759
1486,759
1487,759
1488,759
1489,759
1490,759
1491,759
1492,759
1493,759
1494,760
1495,760
1496,760
1497,760
1498,760
1499,760
1500,760
1501,760
1502,760
1503,760
1504,760
1505,760
1506,760
1507,760
1508,760
1509,760
1510,760
1511,760
1512,760
1513,760
1514,760
1515,760
1516,761
1517,761
1518,761
1519,761
1520,762
1521,762
1522,762
1523,762
1524,762
1525,762
1526,762
1527,762
1528,762
1529,762
1530,762
1531,762
1532,762
1533,762
1534,762
1535,762
1536,762
1537,762
1538,762
1539,762
1540,762
1541,762
1542,762
1543,762
1544,762
1545,762
1546,762
1547,762
1548,762
1549,762
1550,762
1551,762
1552,762
1553,762
1554,762
1555,762
1556,762
1557,762
1558,762
1559,762
1560,762
1561,762
1562,762
1563,762
1564,762
1565,762
1566,762
1567,762
1568,762
1569,762
1570,762
1571,762
1572,762
1573,762
1574,762
1575,762
1576,762
1577,762
1578,762
1579,763
1580,763
1581,763
1582,763
1583,763
1584,763
1585,763
1586,763
1587,763
1588,763
1589,763
1590,763
1591,763
1592,763
