1,53
2,165
3,193
4,224
5,228
6,232
7,254
8,258
9,263
10,268
11,268
12,275
13,289
14,319
15,333
16,335
17,335
18,336
19,348
20,348
21,349
22,353
23,368
24,383
25,387
26,391
27,394
28,394
29,394
30,426
31,431
32,431
33,443
34,443
35,444
36,444
37,446
38,459
39,460
40,460
41,467
42,467
43,470
44,470
45,476
46,476
47,476
48,481
49,485
50,485
51,488
52,490
53,490
54,490
55,493
56,493
57,493
58,501
59,501
60,501
61,503
62,505
63,505
64,508
65,538
66,543
67,546
68,549
69,552
70,552
71,560
72,560
73,560
74,561
75,561
76,561
77,561
78,561
79,561
80,561
81,563
82,563
83,563
84,563
85,563
86,565
87,567
88,568
89,578
90,580
91,580
92,581
93,581
94,588
95,589
96,590
97,590
98,591
99,591
100,591
101,593
102,594
103,596
104,596
105,596
106,596
107,597
108,597
109,597
110,597
111,597
112,597
113,597
114,597
115,597
116,597
117,597
118,597
119,597
120,597
121,598
122,598
123,598
124,598
125,598
126,598
127,598
128,599
129,599
130,599
131,599
132,599
133,599
134,599
135,599
136,599
137,602
138,602
139,602
140,602
141,604
142,604
143,604
144,604
145,604
146,609
147,609
148,609
149,609
150,609
151,609
152,609
153,610
154,610
155,613
156,613
157,613
158,615
159,625
160,625
161,625
162,625
163,626
164,626
165,626
166,626
167,626
168,626
169,626
170,626
171,626
172,626
173,626
174,629
175,629
176,630
177,631
178,631
179,631
180,631
181,634
182,634
183,634
184,634
185,634
186,634
187,634
188,634
189,634
190,634
191,634
192,639
193,639
194,639
195,639
196,639
197,639
198,640
199,645
200,645
201,645
202,645
203,645
204,645
205,646
206,646
207,646
208,646
209,646
210,646
211,646
212,646
213,646
214,649
215,649
216,649
217,649
218,651
219,651
220,652
221,652
222,652
223,653
224,653
225,654
226,654
227,655
228,655
229,655
230,655
231,655
232,655
233,655
234,656
235,656
236,656
237,656
238,656
239,656
240,656
241,656
242,656
243,656
244,656
245,656
246,656
247,656
248,656
249,656
250,656
251,656
252,656
253,656
254,656
255,656
256,656
257,656
258,656
259,656
260,656
261,656
262,656
263,656
264,656
265,656
266,656
267,656
268,656
269,656
270,656
271,656
272,656
273,656
274,656
275,657
276,657
277,657
278,657
279,657
280,657
281,657
282,657
283,657
284,657
285,657
286,658
287,658
288,658
289,658
290,658
291,658
292,658
293,658
294,658
295,658
296,658
297,658
298,658
299,658
300,658
301,658
302,658
303,658
304,658
305,658
306,658
307,658
308,659
309,660
310,660
311,660
312,660
313,660
314,661
315,661
316,661
317,661
318,661
319,661
320,661
321,661
322,661
323,661
324,661
325,661
326,661
327,661
328,661
329,661
330,661
331,661
332,661
333,661
334,662
335,662
336,662
337,662
338,662
339,662
340,662
341,662
342,662
343,662
344,662
345,662
346,662
347,662
348,662
349,662
350,662
351,662
352,662
353,662
354,662
355,662
356,662
357,663
358,663
359,663
360,663
361,663
362,663
363,663
364,666
365,666
366,666
367,666
368,666
369,666
370,666
371,666
372,666
373,666
374,666
375,666
376,666
377,666
378,666
379,666
380,666
381,666
382,666
383,666
384,666
385,666
386,666
387,666
388,666
389,666
390,666
391,666
392,666
393,666
394,666
395,666
396,666
397,672
398,672
399,672
400,672
401,672
402,681
403,681
404,681
405,681
406,682
407,682
408,682
409,682
410,682
411,682
412,683
413,683
414,683
415,683
416,683
417,683
418,683
419,683
420,683
421,683
422,683
423,683
424,684
425,684
426,684
427,684
428,684
429,684
430,684
431,684
432,684
433,684
434,684
435,684
436,684
437,684
438,684
439,684
440,684
441,684
442,684
443,684
444,684
445,684
446,684
447,684
448,685
449,685
450,685
451,686
452,686
453,686
454,687
455,687
456,687
457,687
458,687
459,687
460,687
461,687
462,687
463,687
464,687
465,687
466,687
467,687
468,689
469,689
470,689
471,689
472,689
473,689
474,689
475,689
476,689
477,689
478,689
479,689
480,689
481,689
482,689
483,689
484,689
485,689
486,689
487,689
488,689
489,689
490,689
491,689
492,689
493,689
494,693
495,693
496,693
497,693
498,693
499,693
500,693
501,693
502,693
503,693
504,693
505,693
506,693
507,693
508,694
509,694
510,694
511,694
512,694
513,694
514,694
515,694
516,694
517,695
518,695
519,695
520,695
521,695
522,695
523,695
524,695
525,695
526,695
527,695
528,695
529,695
530,695
531,695
532,695
533,695
534,695
535,695
536,695
537,695
538,695
539,695
540,695
541,695
542,695
543,695
544,695
545,695
546,696
547,696
548,696
549,696
550,696
551,696
552,696
553,696
554,696
555,696
556,696
557,696
558,696
559,696
560,696
561,696
562,696
563,696
564,696
565,696
566,696
567,696
568,696
569,696
570,696
571,696
572,696
573,696
574,697
575,697
576,697
577,697
578,697
579,697
580,697
581,697
582,697
583,697
584,698
585,698
586,698
587,698
588,705
589,705
590,705
591,705
592,705
593,705
594,705
595,705
596,705
597,706
598,706
599,706
600,706
601,706
602,706
603,706
604,706
605,706
606,706
607,706
608,706
609,706
610,706
611,706
612,706
613,706
614,706
615,706
616,706
617,706
618,706
619,707
620,707
621,707
622,707
623,707
624,707
625,707
626,707
627,707
628,707
629,707
630,707
631,710
632,710
633,710
634,710
635,710
636,710
637,710
638,710
639,710
640,710
641,710
642,710
643,710
644,710
645,710
646,710
647,710
648,710
649,710
650,711
651,711
652,711
653,711
654,711
655,711
656,711
657,711
658,711
659,711
660,711
661,711
662,711
663,711
664,711
665,711
666,711
667,711
668,711
669,711
670,711
671,711
672,712
673,712
674,712
675,712
676,712
677,712
678,712
679,712
680,712
681,712
682,712
683,712
684,712
685,712
686,712
687,712
688,712
689,712
690,714
691,714
692,714
693,714
694,714
695,714
696,714
697,714
698,714
699,714
700,714
701,714
702,714
703,714
704,714
705,714
706,714
707,714
708,714
709,714
710,714
711,714
712,714
713,714
714,714
715,714
716,715
717,716
718,716
719,716
720,716
721,716
722,716
723,716
724,716
725,716
726,716
727,716
728,717
729,717
730,717
731,717
732,718
733,718
734,718
735,718
736,718
737,718
738,718
739,718
740,718
741,718
742,718
743,718
744,718
745,718
746,718
747,718
748,718
749,718
750,718
751,718
752,718
753,718
754,718
755,718
756,718
757,718
758,718
759,718
760,718
761,718
762,718
763,718
764,718
765,718
766,718
767,718
768,718
769,719
770,719
771,719
772,719
773,719
774,719
775,719
776,719
777,719
778,719
779,719
780,719
781,719
782,719
783,719
784,719
785,719
786,719
787,719
788,719
789,719
790,719
791,719
792,719
793,719
794,719
795,719
796,719
797,719
798,719
799,721
800,721
801,721
802,721
803,721
804,721
805,721
806,721
807,721
808,721
809,721
810,721
811,721
812,721
813,721
814,721
815,721
816,721
817,721
818,721
819,721
820,721
821,721
822,721
823,721
824,721
825,721
826,721
827,721
828,721
829,721
830,721
831,721
832,721
833,721
834,721
835,721
836,721
837,721
838,721
839,721
840,721
841,721
842,721
843,721
844,721
845,721
846,721
847,721
848,721
849,721
850,721
851,721
852,721
853,721
854,721
855,721
856,721
857,721
858,721
859,721
860,721
861,721
862,721
863,721
864,721
865,721
866,721
867,721
868,721
869,721
870,721
871,721
872,721
873,721
874,721
875,721
876,721
877,721
878,721
879,730
880,730
881,730
882,730
883,730
884,730
885,730
886,730
887,730
888,730
889,730
890,730
891,730
892,730
893,730
894,730
895,730
896,730
897,730
898,730
899,730
900,730
901,730
902,730
903,730
904,730
905,730
906,730
907,730
908,730
909,730
910,730
911,730
912,730
913,730
914,730
915,731
916,731
917,731
918,731
919,731
920,731
921,731
922,731
923,731
924,731
925,731
926,731
927,731
928,731
929,731
930,731
931,731
932,731
933,732
934,732
935,732
936,732
937,732
938,732
939,732
940,732
941,732
942,732
943,732
944,732
945,732
946,732
947,732
948,732
949,732
950,732
951,732
952,732
953,732
954,732
955,732
956,732
957,732
958,732
959,732
960,732
961,732
962,732
963,732
964,732
965,732
966,732
967,732
968,732
969,732
970,732
971,732
972,732
973,732
974,732
975,732
976,732
977,732
978,732
979,732
980,732
981,732
982,732
983,732
984,732
985,732
986,732
987,732
988,732
989,732
990,732
991,732
992,732
993,732
994,732
995,732
996,732
997,732
998,732
999,732
1000,732
1001,732
1002,732
1003,733
1004,733
1005,733
1006,733
1007,733
1008,735
1009,735
1010,735
1011,735
1012,735
1013,735
1014,735
1015,735
1016,735
1017,735
1018,735
1019,735
1020,735
1021,735
1022,735
1023,735
1024,735
1025,735
1026,735
1027,735
1028,735
1029,735
1030,735
1031,735
1032,735
1033,735
1034,735
1035,735
1036,735
1037,735
1038,735
1039,735
1040,735
1041,735
1042,735
1043,735
1044,735
1045,736
1046,736
1047,736
1048,736
1049,736
1050,736
1051,736
1052,736
1053,736
1054,736
1055,736
1056,736
1057,736
1058,736
1059,736
1060,736
1061,736
1062,736
1063,736
1064,736
1065,736
1066,736
1067,736
1068,736
1069,736
1070,736
1071,736
1072,736
1073,736
1074,736
1075,736
1076,736
1077,736
1078,736
1079,736
1080,736
1081,736
1082,745
1083,745
1084,745
1085,745
1086,745
1087,745
1088,745
1089,745
1090,745
1091,745
1092,745
1093,745
1094,745
1095,745
1096,745
1097,745
1098,745
1099,745
1100,745
1101,745
1102,745
1103,745
1104,745
1105,745
1106,745
1107,745
1108,745
1109,745
1110,745
1111,745
1112,745
1113,745
1114,745
1115,745
1116,745
1117,745
1118,745
1119,745
1120,745
1121,745
1122,745
1123,745
1124,745
1125,745
1126,745
1127,745
1128,745
1129,745
1130,745
1131,745
1132,745
1133,745
1134,745
1135,745
1136,745
1137,745
1138,745
1139,745
1140,745
1141,745
1142,745
1143,745
1144,745
1145,745
1146,745
1147,745
1148,745
1149,745
1150,745
1151,745
1152,745
1153,745
1154,745
1155,745
1156,745
1157,745
1158,745
1159,745
1160,745
1161,745
1162,745
1163,745
1164,745
1165,745
1166,745
1167,745
1168,745
1169,745
1170,745
1171,745
1172,745
1173,745
1174,745
1175,745
1176,745
1177,745
1178,745
1179,745
1180,745
1181,745
1182,745
1183,745
1184,745
1185,745
1186,745
1187,745
1188,745
1189,745
1190,745
1191,745
1192,745
1193,745
1194,745
1195,745
1196,745
1197,745
1198,745
1199,745
1200,745
1201,745
1202,745
1203,745
1204,745
1205,745
1206,745
1207,745
1208,745
1209,745
1210,745
1211,745
1212,745
1213,745
1214,745
1215,745
1216,745
1217,745
1218,745
1219,745
1220,745
1221,745
1222,745
1223,745
1224,745
1225,745
1226,745
1227,745
1228,745
1229,745
1230,745
1231,745
1232,745
1233,745
1234,745
1235,745
1236,745
1237,745
1238,745
1239,745
1240,745
1241,745
1242,745
1243,745
1244,745
1245,745
1246,746
1247,746
1248,746
1249,746
1250,746
1251,746
1252,746
1253,746
1254,746
1255,746
1256,746
1257,746
1258,746
1259,746
1260,746
1261,746
1262,746
1263,746
1264,746
1265,746
1266,746
1267,746
1268,746
1269,746
1270,746
1271,746
1272,746
1273,746
1274,746
1275,746
1276,746
1277,747
1278,747
1279,747
1280,747
1281,747
1282,747
1283,747
1284,747
1285,747
1286,747
1287,747
1288,747
1289,747
1290,747
1291,747
1292,747
1293,747
1294,747
1295,747
1296,747
1297,747
1298,747
1299,747
1300,747
1301,747
1302,747
1303,747
1304,747
1305,747
1306,747
1307,747
1308,747
1309,747
1310,747
1311,747
1312,747
1313,747
1314,747
1315,747
1316,747
1317,747
1318,747
1319,747
1320,747
1321,747
1322,747
1323,747
1324,747
1325,747
1326,747
1327,747
1328,747
1329,747
1330,747
1331,747
1332,747
1333,747
1334,747
1335,747
1336,747
1337,747
1338,747
1339,747
1340,747
1341,747
1342,747
1343,747
1344,747
1345,747
1346,747
1347,747
1348,747
1349,747
1350,747
1351,747
1352,747
1353,747
1354,747
1355,747
1356,747
1357,747
1358,747
1359,747
1360,747
1361,747
1362,747
1363,747
1364,747
1365,747
1366,747
1367,747
1368,747
1369,747
1370,749
1371,749
1372,749
1373,749
1374,749
1375,749
1376,749
1377,749
1378,749
1379,749
1380,749
1381,749
1382,749
1383,749
1384,749
1385,749
1386,749
1387,749
1388,749
1389,749
1390,749
1391,749
1392,749
1393,749
1394,749
1395,749
1396,749
1397,749
1398,749
1399,749
1400,749
1401,749
1402,749
1403,749
1404,749
1405,749
1406,749
1407,749
1408,749
1409,749
1410,749
1411,749
1412,749
1413,749
1414,749
1415,749
1416,749
1417,749
1418,749
1419,749
1420,749
1421,749
1422,749
1423,749
1424,749
1425,749
1426,749
1427,749
1428,749
1429,749
1430,749
1431,749
1432,749
1433,749
1434,749
1435,749
1436,749
1437,749
1438,749
1439,749
1440,749
1441,749
1442,749
1443,749
1444,749
1445,749
1446,750
1447,750
1448,750
1449,750
1450,750
1451,750
1452,750
1453,750
1454,750
1455,750
1456,750
1457,750
1458,750
1459,750
1460,750
1461,750
1462,750
1463,750
1464,750
1465,750
1466,750
1467,750
1468,750
1469,750
1470,750
1471,750
1472,750
1473,750
1474,750
1475,750
1476,750
1477,750
1478,750
1479,750
1480,750
1481,750
1482,750
1483,750
1484,750
1485,750
1486,750
1487,750
1488,750
1489,750
1490,750
1491,750
1492,750
1493,750
1494,750
1495,750
1496,750
1497,750
1498,750
1499,750
1500,750
1501,750
1502,750
1503,750
1504,750
1505,750
1506,750
1507,750
1508,750
1509,750
1510,750
1511,750
1512,750
1513,750
1514,750
1515,750
1516,750
1517,750
1518,750
1519,750
1520,750
1521,750
1522,750
1523,750
1524,750
1525,750
1526,750
1527,750
1528,750
1529,750
1530,750
1531,750
1532,750
1533,750
1534,750
1535,750
1536,750
1537,750
1538,750
1539,750
1540,750
1541,750
1542,750
1543,750
1544,750
1545,750
1546,750
1547,750
1548,750
1549,750
1550,750
1551,750
1552,750
1553,750
1554,750
1555,750
1556,750
1557,750
1558,750
1559,750
1560,750
1561,750
1562,750
1563,750
1564,750
1565,750
1566,750
1567,750
1568,750
1569,750
1570,750
1571,750
1572,750
1573,750
1574,750
1575,750
1576,750
1577,750
1578,750
1579,750
1580,750
1581,750
1582,750
1583,750
1584,750
1585,750
1586,750
1587,750
1588,752
1589,752
1590,752
1591,752
1592,752
