1,17
2,39
3,53
4,56
5,57
6,59
7,61
8,64
9,66
10,73
11,85
12,97
13,107
14,111
15,121
16,127
17,128
18,130
19,130
20,130
21,133
22,133
23,135
24,143
25,143
26,143
27,143
28,143
29,143
30,143
31,143
32,143
33,143
34,143
35,143
36,144
37,144
38,145
39,147
40,147
41,147
42,148
43,148
44,148
45,148
46,148
47,148
48,148
49,148
50,148
51,148
52,148
53,148
54,148
55,148
56,148
57,148
58,148
59,148
60,148
61,148
62,148
63,148
64,148
65,150
66,151
67,151
68,151
69,151
70,152
71,152
72,152
73,152
74,152
75,152
76,152
77,152
78,152
79,152
80,152
81,152
82,152
83,152
84,162
85,162
86,162
87,162
88,162
89,162
90,162
91,162
92,162
93,162
94,162
95,162
96,162
97,162
98,162
99,162
100,163
101,163
102,163
103,171
104,171
105,171
106,171
107,171
108,171
109,171
110,171
111,171
112,171
113,171
114,171
115,171
116,171
117,171
118,171
119,171
120,173
121,173
122,173
123,173
124,173
125,173
126,173
127,173
128,173
129,173
130,173
131,173
132,173
133,173
134,173
135,173
136,173
137,173
138,173
139,173
140,173
141,173
142,173
143,173
144,173
145,173
146,173
147,176
148,176
149,180
150,180
151,180
152,180
153,180
154,180
155,181
156,181
157,181
158,181
159,181
160,181
161,181
162,181
163,181
164,181
165,181
166,181
167,181
168,181
169,181
170,181
171,181
172,181
173,181
174,181
175,181
176,181
177,181
178,181
179,181
180,181
181,181
182,181
183,181
184,181
185,182
186,182
187,182
188,182
189,182
190,182
191,183
192,183
193,183
194,183
195,183
196,183
197,183
198,183
199,183
200,183
201,183
202,183
203,183
204,183
205,183
206,183
207,183
208,183
209,183
210,183
211,183
212,183
213,183
214,183
215,183
216,183
217,183
218,183
219,191
220,191
221,191
222,191
223,191
224,191
225,191
226,191
227,191
228,191
229,191
230,191
231,191
232,191
233,191
234,191
235,191
236,191
237,191
238,191
239,191
240,191
241,191
242,191
243,191
244,191
245,191
246,191
247,191
248,191
249,191
250,191
251,191
252,191
253,191
254,191
255,191
256,191
257,191
258,191
259,191
260,191
261,191
262,191
263,191
264,191
265,191
266,191
267,191
268,191
269,191
270,191
271,191
272,191
273,191
274,191
275,191
276,191
277,191
278,191
279,191
280,191
281,191
282,191
283,191
284,191
285,191
286,191
287,191
288,191
289,191
290,191
291,193
292,193
293,193
294,193
295,193
296,193
297,193
298,194
299,194
300,194
301,194
302,194
303,194
304,194
305,194
306,194
307,194
308,194
309,194
310,194
311,194
312,194
313,194
314,194
315,194
316,194
317,194
318,194
319,194
320,194
321,194
322,194
323,194
324,194
325,194
326,194
327,194
328,194
329,194
330,194
331,195
332,195
333,195
334,195
335,195
336,195
337,195
338,195
339,195
340,195
341,195
342,195
343,195
344,195
345,195
346,195
347,195
348,195
349,195
350,195
351,195
352,195
353,195
354,195
355,195
356,195
357,195
358,195
359,195
360,195
361,195
362,195
363,195
364,195
365,195
366,195
367,195
368,195
369,195
370,195
371,195
372,195
373,195
374,195
375,195
376,195
377,195
378,195
379,195
380,195
381,195
382,195
383,195
384,195
385,195
386,195
387,195
388,195
389,195
390,195
391,196
392,196
393,197
394,197
395,197
396,197
