1,14
2,33
3,34
4,34
5,38
6,46
7,46
8,60
9,60
10,60
11,69
12,70
13,76
14,76
15,91
16,91
17,91
18,92
19,92
20,92
21,93
22,95
23,97
24,98
25,98
26,98
27,98
28,104
29,104
30,110
31,112
32,113
33,115
34,125
35,125
36,125
37,126
38,126
39,129
40,129
41,129
42,129
43,129
44,130
45,130
46,130
47,130
48,130
49,130
50,130
51,131
52,131
53,136
54,136
55,136
56,136
57,136
58,136
59,136
60,136
61,136
62,136
63,136
64,137
65,137
66,137
67,137
68,137
69,138
70,138
71,138
72,138
73,138
74,140
75,140
76,140
77,140
78,140
79,140
80,140
81,140
82,140
83,140
84,140
85,140
86,140
87,140
88,140
89,140
90,140
91,146
92,146
93,147
94,147
95,147
96,147
97,147
98,147
99,151
100,151
101,151
102,151
103,151
104,152
105,152
106,152
107,152
108,152
109,152
110,152
111,152
112,152
113,152
114,152
115,152
116,152
117,152
118,152
119,152
120,152
121,152
122,152
123,152
124,154
125,154
126,154
127,154
128,154
129,155
130,155
131,155
132,155
133,155
134,155
135,155
136,155
137,155
138,155
139,155
140,155
141,165
142,165
143,165
144,165
145,165
146,165
147,165
148,165
149,165
150,165
151,165
152,165
153,165
154,166
155,166
156,166
157,166
158,166
159,166
160,166
161,166
162,166
163,166
164,166
165,166
166,166
167,166
168,167
169,167
170,167
171,169
172,169
173,169
174,169
175,169
176,169
177,169
178,169
179,169
180,169
181,169
182,169
183,169
184,169
185,169
186,169
187,169
188,169
189,169
190,169
191,169
192,169
193,169
194,169
195,169
196,169
197,169
198,169
199,171
200,171
201,171
202,171
203,171
204,171
205,171
206,171
207,171
208,171
209,171
210,171
211,171
212,173
213,173
214,173
215,173
216,173
217,173
218,173
219,173
220,173
221,173
222,173
223,173
224,173
225,173
226,173
227,173
228,173
229,173
230,173
231,173
232,173
233,173
234,173
235,173
236,173
237,173
238,173
239,173
240,173
241,173
242,173
243,173
244,173
245,173
246,173
247,173
248,173
249,173
250,173
251,173
252,173
253,173
254,173
255,173
256,173
257,173
258,173
259,173
260,173
261,173
262,173
263,173
264,173
265,173
266,173
267,173
268,173
269,173
270,173
271,173
272,173
273,173
274,173
275,173
276,173
277,173
278,173
279,176
280,176
281,176
282,176
283,176
284,176
285,176
286,176
287,176
288,176
289,176
290,176
291,176
292,176
293,176
294,176
295,176
296,176
297,176
298,176
299,176
300,176
301,176
302,176
303,176
304,176
305,176
306,176
307,176
308,176
309,176
310,176
311,176
312,176
313,176
314,176
315,176
316,176
317,176
318,176
319,176
320,176
321,176
322,176
323,176
324,176
325,176
326,176
327,176
328,176
329,176
330,176
331,176
332,176
333,176
334,176
335,176
336,176
337,176
338,176
339,176
340,176
341,176
342,176
343,176
344,176
345,176
346,176
347,176
348,176
349,176
350,176
351,176
352,176
353,176
354,176
355,176
356,176
357,176
358,176
359,176
360,176
361,176
362,176
363,176
364,176
365,176
366,176
367,176
368,176
369,176
370,176
371,176
372,176
373,176
374,176
375,176
376,176
377,176
378,176
