1,24
2,27
3,31
4,33
5,44
6,44
7,53
8,53
9,57
10,60
11,60
12,64
13,66
14,78
15,80
16,80
17,82
18,83
19,83
20,88
21,88
22,91
23,91
24,91
25,91
26,91
27,91
28,91
29,93
30,95
31,99
32,99
33,99
34,99
35,99
36,110
37,124
38,124
39,125
40,125
41,125
42,125
43,125
44,125
45,127
46,127
47,128
48,128
49,128
50,128
51,128
52,128
53,128
54,128
55,128
56,128
57,132
58,132
59,132
60,132
61,132
62,132
63,132
64,133
65,133
66,133
67,133
68,133
69,134
70,135
71,135
72,135
73,135
74,135
75,135
76,136
77,136
78,136
79,136
80,136
81,139
82,139
83,139
84,140
85,140
86,140
87,140
88,140
89,140
90,140
91,140
92,148
93,148
94,148
95,148
96,148
97,148
98,148
99,148
100,148
101,148
102,148
103,148
104,148
105,148
106,148
107,148
108,148
109,148
110,149
111,150
112,150
113,150
114,150
115,150
116,150
117,151
118,151
119,151
120,151
121,151
122,151
123,151
124,151
125,151
126,151
127,151
128,151
129,151
130,151
131,152
132,152
133,152
134,152
135,152
136,154
137,154
138,154
139,154
140,154
141,154
142,154
143,157
144,157
145,158
146,158
147,158
148,158
149,159
150,159
151,159
152,159
153,160
154,160
155,160
156,160
157,160
158,161
159,161
160,162
161,162
162,162
163,162
164,162
165,162
166,162
167,162
168,162
169,162
170,162
171,162
172,162
173,162
174,162
175,162
176,162
177,162
178,162
179,163
180,163
181,163
182,163
183,163
184,163
185,163
186,163
187,163
188,163
189,163
190,163
191,163
192,163
193,163
194,163
195,163
196,163
197,163
198,164
199,164
200,164
201,164
202,164
203,164
204,164
205,164
206,164
207,164
208,164
209,164
210,164
211,164
212,164
213,164
214,164
215,164
216,164
217,164
218,164
219,164
220,164
221,164
222,164
223,164
224,164
225,164
226,164
227,164
228,164
229,164
230,164
231,164
232,164
233,164
234,164
235,167
236,167
237,168
238,168
239,168
240,168
241,168
242,168
243,168
244,168
245,168
246,168
247,168
248,168
249,168
250,168
251,168
252,168
253,168
254,168
255,168
256,168
257,168
258,168
259,168
260,177
261,177
262,177
263,177
264,177
265,177
266,177
267,177
268,177
269,177
270,177
271,177
272,177
273,179
274,179
275,179
276,179
277,179
278,179
279,179
280,179
281,179
282,179
283,179
284,179
285,179
286,179
287,179
288,179
289,179
290,179
291,179
292,179
293,180
294,180
295,180
296,180
297,180
298,180
299,180
300,180
301,180
302,180
303,180
304,180
305,180
306,180
307,180
308,180
309,180
310,180
311,180
312,181
313,182
314,182
315,182
316,182
317,182
318,182
319,182
320,182
321,182
322,182
323,182
324,182
325,182
326,182
327,182
328,182
329,182
330,182
331,182
332,182
333,182
334,182
335,182
336,182
337,182
338,182
339,182
340,182
341,182
342,182
343,182
344,182
345,182
346,182
347,182
348,182
349,182
350,182
351,182
352,182
353,182
354,182
355,182
356,182
357,182
358,182
359,182
360,182
361,182
362,182
363,182
364,182
365,182
366,182
367,182
368,182
369,182
370,182
371,182
372,182
373,182
374,182
375,182
376,182
377,182
378,182
