1,14
2,40
3,40
4,45
5,51
6,51
7,51
8,67
9,69
10,69
11,72
12,73
13,73
14,77
15,78
16,81
17,82
18,83
19,83
20,84
21,93
22,94
23,94
24,94
25,96
26,96
27,96
28,96
29,100
30,100
31,100
32,103
33,103
34,104
35,104
36,105
37,108
38,109
39,109
40,109
41,109
42,111
43,111
44,112
45,116
46,116
47,116
48,116
49,116
50,116
51,116
52,116
53,116
54,116
55,116
56,116
57,118
58,118
59,118
60,119
61,119
62,122
63,122
64,122
65,123
66,123
67,123
68,123
69,123
70,123
71,133
72,133
73,133
74,133
75,133
76,133
77,133
78,137
79,137
80,137
81,137
82,137
83,137
84,138
85,138
86,138
87,138
88,138
89,138
90,139
91,150
92,150
93,150
94,150
95,150
96,150
97,156
98,156
99,158
100,159
101,159
102,159
103,159
104,159
105,159
106,159
107,159
108,159
109,159
110,159
111,160
112,160
113,160
114,160
115,160
116,160
117,160
118,160
119,160
120,160
121,160
122,160
123,160
124,160
125,160
126,163
127,163
128,163
129,163
130,163
131,163
132,163
133,163
134,163
135,163
136,163
137,163
138,163
139,163
140,163
141,163
142,163
143,163
144,163
145,163
146,163
147,163
148,163
149,163
150,164
151,164
152,164
153,164
154,164
155,166
156,166
157,166
158,166
159,166
160,166
161,166
162,166
163,166
164,166
165,166
166,166
167,166
168,169
169,169
170,169
171,169
172,169
173,169
174,169
175,169
176,169
177,169
178,169
179,169
180,169
181,169
182,169
183,169
184,169
185,169
186,169
187,169
188,169
189,169
190,169
191,169
192,169
193,169
194,169
195,169
196,169
197,169
198,169
199,169
200,169
201,169
202,169
203,169
204,169
205,169
206,169
207,169
208,169
209,169
210,169
211,169
212,169
213,169
214,169
215,169
216,169
217,169
218,169
219,169
220,169
221,169
222,169
223,169
224,169
225,169
226,169
227,169
228,169
229,169
230,169
231,169
232,169
233,169
234,169
235,169
236,169
237,169
238,169
239,169
240,177
241,177
242,177
243,177
244,177
245,177
246,177
247,177
248,177
249,177
250,177
251,177
252,177
253,177
254,177
255,177
256,177
257,177
258,178
259,178
260,178
261,179
262,179
263,179
264,179
265,179
266,179
267,179
268,179
269,179
270,179
271,179
272,179
273,179
274,179
275,179
276,179
277,179
278,179
279,179
280,179
281,179
282,179
283,179
284,179
285,179
286,179
287,179
288,179
289,179
290,179
291,179
292,179
293,179
294,179
295,179
296,179
297,179
298,180
299,180
300,181
301,181
302,181
303,181
304,181
305,181
306,181
307,181
308,181
309,181
310,181
311,181
312,181
313,181
314,181
315,181
316,181
317,181
318,181
319,181
320,181
321,181
322,181
323,181
324,181
325,181
326,181
327,181
328,181
329,181
330,181
331,181
332,181
333,181
334,181
335,181
336,181
337,181
338,181
339,181
340,181
341,181
342,181
343,181
344,181
345,181
346,181
347,181
348,181
349,181
350,181
351,181
352,181
353,181
354,181
355,181
356,181
357,181
358,181
359,181
360,182
361,182
362,182
363,182
364,182
365,182
366,182
367,182
368,182
369,182
370,182
371,182
372,182
373,182
374,182
375,182
376,182
377,182
378,182
