1,47
2,72
3,94
4,96
5,102
6,113
7,126
8,134
9,138
10,139
11,139
12,139
13,141
14,141
15,142
16,144
17,145
18,145
19,146
20,151
21,152
22,152
23,159
24,160
25,160
26,161
27,163
28,167
29,167
30,168
31,168
32,171
33,171
34,171
35,171
36,172
37,172
38,172
39,172
40,172
41,172
42,172
43,172
44,173
45,175
46,175
47,178
48,178
49,178
50,178
51,178
52,179
53,179
54,179
55,179
56,179
57,179
58,179
59,179
60,179
61,179
62,179
63,179
64,179
65,179
66,184
67,184
68,187
69,187
70,187
71,188
72,188
73,188
74,188
75,188
76,188
77,188
78,189
79,189
80,189
81,189
82,189
83,189
84,189
85,189
86,189
87,190
88,190
89,190
90,190
91,190
92,190
93,190
94,190
95,190
96,190
97,190
98,190
99,190
100,190
101,190
102,190
103,190
104,190
105,190
106,190
107,192
108,192
109,192
110,193
111,194
112,194
113,194
114,194
115,194
116,194
117,194
118,194
119,194
120,194
121,194
122,194
123,194
124,194
125,194
126,194
127,194
128,194
129,194
130,194
131,194
132,194
133,194
134,194
135,194
136,194
137,194
138,194
139,194
140,194
141,194
142,194
143,194
144,194
145,194
146,194
147,194
148,194
149,194
150,194
151,194
152,194
153,194
154,194
155,194
156,194
157,194
158,194
159,194
160,195
161,195
162,195
163,195
164,195
165,195
166,195
167,195
168,195
169,195
170,195
171,195
172,195
173,195
174,195
175,195
176,195
177,195
178,195
179,195
180,195
181,195
182,195
183,195
184,195
185,195
186,195
187,195
188,195
189,195
190,195
191,195
192,195
193,195
194,195
195,195
196,195
197,195
198,195
199,195
200,196
201,196
202,196
203,196
204,196
205,196
206,196
207,196
208,196
209,196
210,196
211,196
212,196
213,196
214,196
215,196
216,196
217,196
218,196
219,196
220,196
221,196
222,196
223,196
224,196
225,196
226,196
227,196
228,196
229,196
230,196
231,196
232,196
233,196
234,196
235,196
236,196
237,196
238,196
239,196
240,196
241,196
242,196
243,196
244,196
245,196
246,196
247,196
248,196
249,196
250,196
251,196
252,196
253,196
254,196
255,196
256,196
257,196
258,196
259,196
260,196
261,196
262,196
263,196
264,196
265,196
266,196
267,197
