1,40
2,63
3,70
4,82
5,82
6,97
7,99
8,109
9,113
10,114
11,123
12,124
13,128
14,129
15,130
16,139
17,146
18,152
19,157
20,157
21,159
22,160
23,161
24,167
25,167
26,167
27,168
28,168
29,168
30,168
31,169
32,170
33,170
34,170
35,173
36,173
37,173
38,174
39,174
40,174
41,179
42,179
43,179
44,179
45,179
46,179
47,179
48,180
49,180
50,180
51,180
52,180
53,180
54,180
55,181
56,181
57,181
58,181
59,181
60,181
61,181
62,183
63,183
64,183
65,183
66,185
67,185
68,185
69,185
70,185
71,185
72,185
73,185
74,185
75,185
76,185
77,185
78,185
79,185
80,185
81,185
82,185
83,188
84,188
85,188
86,188
87,188
88,188
89,188
90,188
91,188
92,188
93,189
94,189
95,189
96,189
97,190
98,190
99,191
100,191
101,191
102,191
103,191
104,191
105,191
106,192
107,193
108,193
109,193
110,193
111,193
112,193
113,193
114,193
115,193
116,193
117,193
118,193
119,193
120,193
121,193
122,193
123,193
124,193
125,193
126,194
127,194
128,194
129,194
130,194
131,194
132,195
133,195
134,195
135,195
136,195
137,195
138,195
139,195
140,195
141,195
142,195
143,195
144,195
145,195
146,195
147,195
148,196
149,196
150,196
151,196
152,196
153,196
154,196
155,196
156,196
157,196
158,196
159,196
160,196
161,196
162,196
163,196
164,196
165,196
166,196
167,196
168,196
169,196
170,196
171,196
172,196
173,196
174,196
175,196
176,196
177,196
178,196
179,196
180,196
181,196
182,196
183,196
184,196
185,196
186,196
187,196
188,196
189,196
190,196
191,196
192,196
193,196
194,196
195,196
196,196
197,196
198,196
199,196
200,196
201,196
202,196
203,196
204,196
205,196
206,196
207,196
208,196
209,196
210,196
211,196
212,196
213,196
214,196
215,196
216,197
