1,17
2,49
3,73
4,86
5,93
6,98
7,103
8,119
9,119
10,121
11,133
12,142
13,153
14,158
15,162
16,162
17,167
18,171
19,171
20,173
21,176
22,176
23,176
24,176
25,179
26,183
27,183
28,184
29,197
30,202
31,203
32,205
33,205
34,205
35,210
36,210
37,210
38,213
39,218
40,220
41,220
42,220
43,220
44,222
45,223
46,223
47,223
48,226
49,226
50,226
51,226
52,226
53,226
54,226
55,226
56,227
57,228
58,230
59,230
60,230
61,230
62,251
63,251
64,253
65,253
66,254
67,256
68,262
69,265
70,265
71,266
72,266
73,266
74,267
75,267
76,267
77,267
78,267
79,267
80,267
81,269
82,271
83,275
84,275
85,275
86,275
87,275
88,276
89,276
90,276
91,276
92,277
93,277
94,277
95,277
96,277
97,277
98,277
99,286
100,286
101,286
102,286
103,286
104,286
105,292
106,293
107,293
108,294
109,294
110,294
111,294
112,309
113,309
114,309
115,309
116,310
117,311
118,311
119,312
120,312
121,312
122,316
123,316
124,316
125,316
126,316
127,318
128,318
129,318
130,326
131,326
132,328
133,334
134,334
135,334
136,334
137,342
138,342
139,343
140,343
141,343
142,343
143,344
144,344
145,344
146,344
147,344
148,344
149,344
150,344
151,344
152,344
153,344
154,344
155,344
156,344
157,344
158,344
159,344
160,344
161,344
162,344
163,344
164,346
165,346
166,346
167,347
168,347
169,347
170,348
171,348
172,348
173,348
174,348
175,348
176,348
177,348
178,348
179,348
180,348
181,348
182,348
183,348
184,349
185,349
186,349
187,349
188,349
189,349
190,349
191,349
192,349
193,349
194,349
195,351
196,351
197,351
198,351
199,351
200,351
201,351
202,351
203,351
204,351
205,351
206,351
207,351
208,351
209,351
210,351
211,351
212,351
213,351
214,351
215,351
216,351
217,351
218,351
219,351
220,351
221,351
222,351
223,351
224,351
225,351
226,351
227,353
228,353
229,353
230,353
231,360
232,360
233,361
234,361
235,361
236,361
237,361
238,361
239,361
240,361
241,361
242,361
243,361
244,361
245,361
246,361
247,362
248,362
249,362
250,362
251,362
252,362
253,362
254,362
255,362
256,364
257,364
258,364
259,364
260,364
261,364
262,364
263,364
264,364
265,364
266,364
267,364
268,364
269,364
270,364
271,365
272,365
273,365
274,365
275,365
276,365
277,365
278,365
279,365
280,365
281,365
282,365
283,365
284,365
285,365
286,365
287,365
288,365
289,365
290,365
291,365
292,365
293,365
294,365
295,365
296,365
297,365
298,365
299,365
300,365
301,365
302,365
303,365
304,365
305,365
306,366
307,366
308,366
309,366
310,366
311,366
312,366
313,366
314,366
315,366
316,366
317,366
318,366
319,366
320,366
321,366
322,366
323,366
324,366
325,366
326,366
327,366
328,366
329,366
330,366
331,366
332,366
333,366
334,366
335,366
336,366
337,366
338,366
339,366
340,366
341,366
342,366
343,366
344,366
345,366
346,366
347,366
348,366
349,366
350,366
351,366
352,366
353,366
354,366
355,366
356,366
357,366
358,366
359,366
360,366
361,366
362,366
363,366
364,366
365,366
366,366
367,366
368,366
369,366
370,367
371,367
372,368
373,368
374,369
375,369
376,369
377,370
378,370
379,370
380,370
381,370
382,370
383,370
384,370
385,370
386,370
387,370
388,370
389,370
390,370
391,370
392,370
393,370
394,370
395,370
396,370
397,370
398,370
399,370
400,370
401,370
402,370
403,370
404,370
405,370
406,370
407,371
408,371
409,371
410,371
411,371
412,371
413,371
414,371
415,371
416,373
417,376
418,376
419,376
420,376
421,376
422,376
423,376
424,376
425,376
426,376
427,376
428,376
429,376
430,376
431,376
432,376
433,376
434,376
435,376
436,376
437,376
438,379
439,379
440,379
441,379
442,379
443,379
444,379
445,379
446,379
447,380
448,380
449,380
450,380
451,380
452,380
453,380
454,380
455,380
456,380
457,380
458,380
459,380
460,380
461,380
462,380
463,380
464,380
465,380
466,380
467,380
468,380
469,380
470,380
471,380
472,380
473,380
474,380
475,380
476,380
477,380
478,380
479,380
480,380
481,380
482,380
483,380
484,380
485,380
486,381
487,381
488,381
489,381
490,381
491,381
492,381
493,381
494,381
495,381
496,381
497,381
498,381
499,381
500,381
501,381
502,381
503,381
504,381
505,381
506,381
507,381
508,381
509,381
510,381
511,381
512,382
513,382
514,382
515,382
516,382
517,382
518,382
519,382
520,382
521,382
522,382
523,382
524,382
525,382
526,382
527,382
528,382
529,382
530,382
531,384
532,384
533,384
534,384
535,384
536,384
537,384
538,384
539,384
540,384
541,384
542,384
543,385
544,385
545,385
546,385
547,385
548,386
549,386
550,386
551,386
552,386
553,386
554,386
555,386
556,386
557,386
558,386
559,386
560,386
561,386
562,386
563,386
564,386
565,386
566,386
567,386
568,386
569,386
570,386
571,386
572,386
573,386
574,386
575,386
576,386
577,386
578,386
579,386
580,386
581,386
582,386
583,386
584,386
585,386
586,386
587,386
588,386
589,386
590,386
591,386
592,386
593,386
594,386
595,386
596,386
597,386
598,386
599,386
600,386
601,386
602,386
603,386
604,386
605,386
606,386
607,386
608,386
609,386
610,386
611,386
612,386
613,386
614,386
615,386
616,386
617,386
618,386
619,386
620,386
621,386
622,386
623,386
624,386
625,386
626,386
627,386
628,386
629,386
630,386
631,386
632,386
633,386
634,386
635,386
636,386
637,386
638,386
639,386
640,386
641,386
642,386
643,386
644,386
645,386
646,386
647,386
648,386
649,386
650,386
651,386
652,386
653,386
654,386
655,386
656,386
657,386
658,386
659,386
660,386
661,386
662,386
663,386
664,386
665,386
666,386
667,386
668,386
669,386
670,386
671,386
672,387
673,387
674,387
675,387
676,387
677,387
678,387
679,387
680,387
681,387
682,387
683,387
684,387
685,387
686,387
687,387
688,387
689,387
690,387
691,387
692,387
693,387
694,387
695,387
696,387
697,387
698,387
699,387
700,387
701,387
702,387
703,387
704,387
705,387
706,387
707,387
708,387
709,387
710,387
711,387
712,387
713,387
714,387
715,387
716,387
717,387
718,387
719,387
720,387
721,387
722,387
723,387
724,387
725,387
726,387
727,387
728,387
729,387
730,387
731,387
732,387
733,387
734,387
735,387
736,387
737,387
738,387
739,387
740,387
741,387
742,387
743,387
744,387
745,387
746,387
747,387
748,387
749,387
750,387
751,387
752,387
753,387
754,387
755,387
756,387
757,387
758,387
759,387
760,387
761,387
762,387
763,387
764,387
765,387
766,387
767,387
768,387
769,387
770,387
771,387
772,387
773,387
774,387
775,387
776,387
777,387
778,387
779,387
780,387
781,387
782,387
783,387
784,387
785,387
786,387
787,387
788,387
