1,5
2,23
3,29
4,52
5,70
6,83
7,86
8,87
9,91
10,94
11,109
12,124
13,131
14,138
15,153
16,165
17,172
18,176
19,187
20,192
21,192
22,192
23,194
24,197
25,197
26,197
27,197
28,201
29,201
30,203
31,203
32,204
33,204
34,204
35,207
36,210
37,210
38,214
39,217
40,217
41,218
42,218
43,220
44,229
45,234
46,235
47,235
48,238
49,238
50,238
51,241
52,241
53,254
54,254
55,254
56,255
57,255
58,255
59,255
60,255
61,255
62,255
63,255
64,255
65,255
66,255
67,256
68,258
69,258
70,258
71,258
72,258
73,258
74,258
75,258
76,258
77,258
78,259
79,259
80,259
81,274
82,276
83,284
84,284
85,285
86,285
87,285
88,285
89,285
90,285
91,285
92,286
93,286
94,286
95,286
96,306
97,306
98,309
99,309
100,309
101,309
102,309
103,309
104,309
105,309
106,309
107,309
108,311
109,313
110,314
111,316
112,316
113,316
114,316
115,316
116,316
117,317
118,317
119,317
120,317
121,317
122,317
123,317
124,318
125,318
126,318
127,318
128,318
129,319
130,319
131,319
132,319
133,319
134,319
135,319
136,319
137,319
138,319
139,319
140,319
141,319
142,319
143,319
144,319
145,319
146,319
147,319
148,319
149,319
150,319
151,319
152,319
153,320
154,320
155,320
156,320
157,320
158,320
159,320
160,321
161,321
162,321
163,321
164,321
165,321
166,321
167,321
168,321
169,321
170,321
171,321
172,321
173,321
174,321
175,322
176,322
177,322
178,323
179,323
180,325
181,325
182,326
183,326
184,326
185,326
186,326
187,327
188,327
189,335
190,335
191,335
192,335
193,335
194,335
195,335
196,335
197,335
198,335
199,335
200,335
201,335
202,335
203,335
204,335
205,335
206,340
207,340
208,340
209,340
210,340
211,340
212,340
213,340
214,340
215,343
216,343
217,343
218,343
219,343
220,344
221,344
222,347
223,347
224,348
225,348
226,348
227,348
228,348
229,348
230,348
231,348
232,348
233,348
234,348
235,348
236,348
237,348
238,350
239,351
240,352
241,352
242,352
243,352
244,352
245,352
246,352
247,352
248,352
249,352
250,355
251,355
252,355
253,355
254,355
255,355
256,355
257,355
258,355
259,355
260,355
261,355
262,355
263,355
264,355
265,355
266,356
267,356
268,356
269,356
270,356
271,356
272,356
273,356
274,356
275,356
276,356
277,356
278,356
279,356
280,356
281,356
282,356
283,356
284,356
285,356
286,356
287,356
288,356
289,356
290,356
291,356
292,356
293,356
294,356
295,356
296,356
297,356
298,356
299,356
300,356
301,356
302,356
303,356
304,356
305,359
306,359
307,359
308,359
309,359
310,359
311,359
312,359
313,359
314,359
315,359
316,359
317,359
318,359
319,359
320,359
321,359
322,359
323,359
324,359
325,359
326,359
327,359
328,359
329,359
330,359
331,359
332,359
333,359
334,359
335,359
336,359
337,359
338,359
339,359
340,359
341,359
342,359
343,359
344,365
345,365
346,365
347,365
348,365
349,365
350,368
351,368
352,368
353,368
354,368
355,368
356,368
357,368
358,368
359,368
360,368
361,368
362,368
363,368
364,368
365,368
366,368
367,368
368,368
369,368
370,368
371,368
372,368
373,368
374,369
375,369
376,369
377,369
378,369
379,369
380,369
381,369
382,369
383,369
384,369
385,369
386,369
387,369
388,369
389,369
390,369
391,369
392,369
393,369
394,369
395,369
396,369
397,369
398,371
399,372
400,375
401,375
402,375
403,375
404,375
405,375
406,375
407,375
408,375
409,375
410,375
411,375
412,375
413,375
414,376
415,376
416,376
417,376
418,376
419,377
420,377
421,377
422,377
423,377
424,378
425,378
426,378
427,378
428,378
429,378
430,378
431,378
432,378
433,378
434,378
435,378
436,378
437,378
438,378
439,378
440,378
441,379
442,379
443,379
444,379
445,379
446,379
447,379
448,379
449,379
450,379
451,379
452,379
453,379
454,379
455,379
456,379
457,379
458,379
459,379
460,379
461,379
462,379
463,379
464,379
465,379
466,379
467,379
468,379
469,379
470,379
471,379
472,379
473,379
474,379
475,379
476,379
477,379
478,379
479,379
480,379
481,379
482,379
483,379
484,380
485,380
486,380
487,380
488,380
489,380
490,380
491,380
492,380
493,380
494,380
495,380
496,380
497,380
498,380
499,380
500,380
501,380
502,380
503,380
504,380
505,380
506,380
507,380
508,380
509,380
510,380
511,380
512,380
513,380
514,380
515,380
516,380
517,380
518,386
519,386
520,386
521,386
522,386
523,386
524,386
525,386
526,386
527,386
528,386
529,386
530,386
531,386
532,386
533,386
534,386
535,386
536,386
537,386
538,386
539,386
540,386
541,386
542,386
543,387
544,387
545,387
546,387
547,387
548,387
549,387
550,387
551,387
552,387
553,387
554,387
555,387
556,387
557,387
558,387
559,387
560,387
561,387
562,387
563,387
564,387
565,387
566,387
567,387
568,387
569,387
570,387
571,387
572,387
573,387
574,387
575,387
576,387
577,387
578,387
579,387
580,387
581,387
582,387
583,387
584,387
585,387
586,387
587,387
588,387
589,387
590,387
591,387
592,387
593,387
594,387
595,387
596,387
597,387
598,387
599,387
600,387
601,387
602,387
603,387
604,387
605,387
606,387
607,387
608,387
609,387
610,387
611,387
612,387
613,387
614,387
615,387
616,387
617,387
618,387
619,387
620,387
621,387
622,387
623,387
624,387
625,387
626,387
627,387
628,387
629,387
630,387
631,387
632,387
633,387
634,387
635,387
636,387
637,387
638,387
639,387
640,387
641,387
642,387
643,387
644,387
645,387
646,387
647,387
648,387
649,387
650,387
651,387
652,387
653,387
654,387
655,387
656,387
657,387
658,387
659,387
660,387
661,387
662,387
663,387
664,387
665,387
666,387
667,387
668,387
669,387
670,387
671,387
672,387
673,387
674,387
675,387
676,387
677,387
678,387
679,387
680,387
681,387
682,387
683,387
684,387
685,387
686,387
687,387
688,387
689,387
690,387
691,387
692,387
693,387
694,387
695,387
696,387
697,387
698,387
699,387
700,387
701,387
702,387
703,387
704,387
705,387
706,387
707,387
708,387
709,387
710,387
711,387
712,387
713,387
714,387
715,387
716,387
717,387
718,387
719,387
720,387
721,387
722,388
723,388
724,388
725,388
726,388
727,388
728,388
729,388
730,388
731,388
732,388
733,388
734,388
735,388
736,388
737,388
738,388
739,388
740,388
741,388
742,388
743,388
744,388
745,388
746,390
747,390
748,390
749,390
750,390
751,390
752,390
753,390
754,390
755,390
756,390
757,390
758,390
759,390
760,390
761,390
762,390
763,390
764,390
765,390
766,390
767,390
768,390
769,390
770,390
771,390
772,390
773,390
774,390
775,390
776,390
777,390
778,390
779,390
780,390
781,390
782,390
783,390
784,390
785,390
786,390
787,390
788,390
