1,9
2,36
3,48
4,48
5,57
6,69
7,71
8,83
9,87
10,91
11,100
12,120
13,120
14,126
15,126
16,126
17,136
18,138
19,140
20,145
21,146
22,151
23,156
24,157
25,158
26,160
27,166
28,167
29,167
30,168
31,171
32,175
33,177
34,183
35,183
36,184
37,184
38,184
39,206
40,206
41,206
42,206
43,206
44,207
45,207
46,207
47,214
48,215
49,215
50,215
51,216
52,216
53,219
54,219
55,219
56,219
57,219
58,220
59,226
60,233
61,234
62,236
63,236
64,237
65,237
66,238
67,239
68,242
69,242
70,247
71,247
72,247
73,247
74,247
75,247
76,247
77,247
78,253
79,253
80,253
81,254
82,254
83,255
84,257
85,257
86,265
87,265
88,265
89,265
90,265
91,265
92,266
93,266
94,268
95,268
96,268
97,268
98,268
99,268
100,268
101,268
102,268
103,268
104,268
105,268
106,268
107,268
108,268
109,278
110,278
111,278
112,278
113,282
114,282
115,282
116,283
117,283
118,283
119,284
120,284
121,284
122,285
123,286
124,286
125,286
126,288
127,288
128,289
129,289
130,290
131,290
132,290
133,290
134,290
135,291
136,291
137,291
138,291
139,292
140,292
141,292
142,292
143,292
144,293
145,293
146,293
147,293
148,293
149,293
150,293
151,293
152,293
153,293
154,293
155,293
156,294
157,294
158,294
159,305
160,308
161,315
162,315
163,316
164,316
165,318
166,321
167,321
168,321
169,321
170,323
171,323
172,323
173,323
174,323
175,323
176,324
177,324
178,324
179,325
180,325
181,325
182,325
183,325
184,326
185,326
186,326
187,328
188,328
189,328
190,328
191,328
192,328
193,329
194,330
195,330
196,330
197,330
198,330
199,330
200,330
201,330
202,331
203,331
204,331
205,331
206,331
207,331
208,331
209,331
210,331
211,331
212,331
213,331
214,331
215,331
216,331
217,331
218,331
219,331
220,332
221,332
222,332
223,332
224,332
225,332
226,332
227,332
228,332
229,332
230,332
231,333
232,333
233,333
234,333
235,333
236,333
237,333
238,333
239,333
240,333
241,333
242,334
243,334
244,334
245,334
246,334
247,334
248,334
249,334
250,334
251,334
252,334
253,335
254,335
255,335
256,335
257,335
258,335
259,335
260,335
261,335
262,335
263,335
264,335
265,335
266,335
267,335
268,335
269,335
270,344
271,344
272,344
273,344
274,344
275,344
276,344
277,344
278,346
279,346
280,346
281,347
282,347
283,347
284,347
285,347
286,347
287,347
288,347
289,347
290,347
291,347
292,347
293,347
294,347
295,347
296,347
297,347
298,347
299,347
300,347
301,347
302,347
303,347
304,347
305,347
306,347
307,347
308,348
309,348
310,348
311,348
312,348
313,349
314,349
315,350
316,350
317,350
318,350
319,350
320,350
321,350
322,351
323,351
324,351
325,351
326,351
327,351
328,351
329,351
330,351
331,351
332,351
333,351
334,351
335,351
336,351
337,351
338,351
339,351
340,351
341,351
342,351
343,351
344,351
345,351
346,351
347,351
348,351
349,351
350,354
351,354
352,354
353,354
354,354
355,354
356,354
357,354
358,354
359,354
360,354
361,354
362,354
363,354
364,354
365,354
366,354
367,354
368,354
369,354
370,354
371,354
372,354
373,354
374,354
375,354
376,354
377,354
378,354
379,354
380,354
381,354
382,354
383,354
384,354
385,354
386,354
387,354
388,354
389,355
390,355
391,355
392,355
393,355
394,355
395,355
396,355
397,355
398,355
399,355
400,355
401,355
402,355
403,355
404,355
405,355
406,355
407,356
408,356
409,356
410,356
411,356
412,356
413,356
414,356
415,356
416,356
417,356
418,356
419,356
420,356
421,356
422,356
423,356
424,356
425,356
426,356
427,356
428,356
429,356
430,356
431,356
432,356
433,356
434,356
435,356
436,356
437,357
438,357
439,357
440,357
441,357
442,357
443,357
444,357
445,357
446,357
447,357
448,357
449,357
450,357
451,357
452,357
453,357
454,357
455,357
456,357
457,357
458,357
459,357
460,357
461,357
462,357
463,357
464,357
465,357
466,357
467,357
468,357
469,357
470,357
471,357
472,357
473,357
474,357
475,357
476,357
477,357
478,357
479,357
480,357
481,357
482,357
483,357
484,357
485,357
486,357
487,357
488,357
489,357
490,357
491,357
492,357
493,360
494,360
495,360
496,360
497,360
498,360
499,360
500,360
501,360
502,360
503,360
504,360
505,360
506,360
507,360
508,360
509,361
510,361
511,361
512,361
513,361
514,361
515,361
516,361
517,361
518,361
519,361
520,361
521,361
522,361
523,361
524,361
525,361
526,361
527,361
528,361
529,361
530,361
531,361
532,361
533,361
534,361
535,361
536,361
537,361
538,361
539,361
540,361
541,361
542,361
543,361
544,361
545,361
546,361
547,361
548,361
549,361
550,361
551,361
552,361
553,361
554,361
555,361
556,361
557,361
558,361
559,361
560,361
561,361
562,361
563,361
564,361
565,361
566,361
567,361
568,361
569,361
570,361
571,361
572,361
573,361
574,361
575,361
576,361
577,361
578,361
579,361
580,361
581,361
582,361
583,361
584,361
585,361
586,361
587,361
588,361
589,361
590,361
591,361
592,361
593,361
594,361
595,361
596,361
597,361
598,361
599,361
600,361
601,361
602,362
603,362
604,362
605,362
606,362
607,362
608,362
609,362
610,362
611,362
612,362
613,363
614,363
615,363
616,363
617,363
618,363
619,363
620,363
621,363
622,363
623,363
624,363
625,363
626,363
627,363
628,363
629,363
630,363
631,363
632,363
633,363
634,363
635,363
636,363
637,363
638,363
639,363
640,363
641,363
642,363
643,363
644,363
645,363
646,363
647,363
648,363
649,363
650,363
651,363
652,363
653,363
654,363
655,363
656,363
657,363
658,363
659,363
660,363
661,363
662,363
663,363
664,363
665,363
666,363
667,363
668,363
669,363
670,363
671,363
672,363
673,363
674,363
675,363
676,363
677,363
678,363
679,363
680,363
681,363
682,363
683,363
684,363
685,363
686,363
687,363
688,363
689,363
690,363
691,363
692,363
693,363
694,363
695,363
696,363
697,363
698,363
699,363
700,363
701,363
702,363
703,363
704,363
705,363
706,363
707,363
708,363
709,363
710,363
711,363
712,363
713,363
714,363
715,363
716,363
717,363
718,363
719,363
720,363
721,363
722,363
723,363
724,363
725,363
726,363
727,363
728,363
729,363
730,363
731,363
732,363
733,363
734,363
735,363
736,363
737,363
738,363
739,363
740,363
741,363
742,363
743,363
744,363
745,363
746,363
747,363
748,363
749,363
750,363
751,363
752,363
753,363
754,363
755,364
756,364
757,364
758,364
759,364
760,364
761,365
762,365
763,365
764,365
765,365
766,365
767,365
768,365
769,365
770,365
771,365
772,365
773,365
774,365
775,365
776,365
777,365
778,365
779,365
780,365
781,365
782,365
783,365
784,365
785,365
786,365
787,365
788,365
