w256=w0^w1
w257=w2^w3
w258=w4^w5
w259=w6^w7
w260=w8&w9
w261=w10&w11
w262=w12&w13
w263=w14&w15
w264=w16^w17
w265=w18|w19
w266=w20|w21
w267=w22|w23
w268=w24|w25
w269=w26&w27
w270=w28^w29
w271=w30&w31
w272=w32&w33
w273=w34|w35
w274=w36&w37
w275=w38&w39
w276=w40^w41
w277=w42^w43
w278=w44^w45
w279=w46^w47
w280=w48&w49
w281=w50^w51
w282=w52^w53
w283=w54&w55
w284=w56&w57
w285=w58&w59
w286=w60|w61
w287=w62|w63
w288=w64|w65
w289=w66^w67
w290=w68&w69
w291=w70|w71
w292=w72^w73
w293=w74&w75
w294=w76|w77
w295=w78|w79
w296=w80&w81
w297=w82&w83
w298=w84|w85
w299=w86&w87
w300=w88&w89
w301=w90^w91
w302=w92|w93
w303=w94&w95
w304=w96|w97
w305=w98&w99
w306=w100&w101
w307=w102^w103
w308=w104^w105
w309=w106|w107
w310=w108^w109
w311=w110^w111
w312=w112|w113
w313=w114&w115
w314=w116&w117
w315=w118|w119
w316=w120&w121
w317=w122^w123
w318=w124|w125
w319=w126^w127
w320=w128&w129
w321=w130|w131
w322=w132^w133
w323=w134^w135
w324=w136|w137
w325=w138|w139
w326=w140^w141
w327=w142^w143
w328=w144^w145
w329=w146^w147
w330=w148^w149
w331=w150^w151
w332=w152^w153
w333=w154|w155
w334=w156&w157
w335=w158^w159
w336=w160^w161
w337=w162&w163
w338=w164|w165
w339=w166^w167
w340=w168&w169
w341=w170&w171
w342=w172&w173
w343=w174|w175
w344=w176^w177
w345=w178&w179
w346=w180|w181
w347=w182^w183
w348=w184&w185
w349=w186|w187
w350=w188|w189
w351=w190&w191
w352=w192|w193
w353=w194|w195
w354=w196^w197
w355=w198&w199
w356=w200^w201
w357=w202^w203
w358=w204^w205
w359=w206^w207
w360=w208|w209
w361=w210^w211
w362=w212|w213
w363=w214&w215
w364=w216|w217
w365=w218^w219
w366=w220^w221
w367=w222&w223
w368=w224&w225
w369=w226|w227
w370=w228|w229
w371=w230|w231
w372=w232|w233
w373=w234|w235
w374=w236|w237
w375=w238&w239
w376=w240^w241
w377=w242|w243
w378=w244&w245
w379=w246&w247
w380=w248|w249
w381=w250|w251
w382=w252|w253
w383=w254&w255
w384=w256^w257
w385=w258^w259
w386=w260^w261
w387=w262&w263
w388=w264^w265
w389=w266^w267
w390=w268^w269
w391=w270&w271
w392=w272|w273
w393=w274|w275
w394=w276|w277
w395=w278|w279
w396=w280&w281
w397=w282&w283
w398=w284|w285
w399=w286|w287
w400=w288|w289
w401=w290&w291
w402=w292&w293
w403=w294&w295
w404=w296&w297
w405=w298|w299
w406=w300^w301
w407=w302|w303
w408=w304&w305
w409=w306|w307
w410=w308|w309
w411=w310^w311
w412=w312^w313
w413=w314^w315
w414=w316^w317
w415=w318|w319
w416=w320^w321
w417=w322&w323
w418=w324|w325
w419=w326^w327
w420=w328|w329
w421=w330^w331
w422=w332&w333
w423=w334&w335
w424=w336&w337
w425=w338^w339
w426=w340^w341
w427=w342^w343
w428=w344&w345
w429=w346^w347
w430=w348&w349
w431=w350|w351
w432=w352^w353
w433=w354|w355
w434=w356&w357
w435=w358&w359
w436=w360|w361
w437=w362|w363
w438=w364|w365
w439=w366^w367
w440=w368^w369
w441=w370|w371
w442=w372^w373
w443=w374^w375
w444=w376&w377
w445=w378^w379
w446=w380&w381
w447=w382|w383
w448=w384^w385
w449=w386|w387
w450=w388|w389
w451=w390|w391
w452=w392&w393
w453=w394^w395
w454=w396|w397
w455=w398&w399
w456=w400^w401
w457=w402|w403
w458=w404&w405
w459=w406^w407
w460=w408^w409
w461=w410&w411
w462=w412&w413
w463=w414&w415
w464=w416^w417
w465=w418^w419
w466=w420|w421
w467=w422^w423
w468=w424^w425
w469=w426|w427
w470=w428&w429
w471=w430&w431
w472=w432&w433
w473=w434^w435
w474=w436^w437
w475=w438^w439
w476=w440^w441
w477=w442&w443
w478=w444&w445
w479=w446&w447
w480=w448^w449
w481=w450|w451
w482=w452|w453
w483=w454|w455
w484=w456&w457
w485=w458^w459
w486=w460&w461
w487=w462&w463
w488=w464^w465
w489=w466|w467
w490=w468^w469
w491=w470^w471
w492=w472^w473
w493=w474^w475
w494=w476^w477
w495=w478&w479
w496=w480&w481
w497=w482|w483
w498=w484|w485
w499=w486^w487
w500=w488&w489
w501=w490&w491
w502=w492|w493
w503=w494&w495
w504=w496&w497
w505=w498&w499
w506=w500&w501
w507=w502|w503
w508=w504^w505
w509=w506&w507
w510=w508&w509
