1,12
2,18
3,27
4,39
5,39
6,47
7,52
8,52
9,52
10,52
11,52
12,55
13,55
14,56
15,56
16,56
17,57
18,57
19,60
20,63
21,63
22,63
23,63
24,63
25,66
26,69
27,69
28,69
29,69
30,72
31,72
32,72
33,72
34,74
35,76
36,76
37,76
38,76
39,76
40,76
41,77
42,77
43,77
44,81
45,81
46,82
47,82
48,83
49,83
50,83
51,83
52,83
53,85
54,85
55,85
56,85
57,85
58,85
59,85
60,85
61,85
62,85
63,85
64,85
65,85
66,85
67,85
68,85
69,85
70,85
71,85
72,85
73,90
74,90
75,90
76,90
77,90
78,90
79,90
80,90
81,90
82,91
83,91
84,91
85,91
86,91
87,91
88,91
89,91
90,91
91,91
92,91
93,91
94,91
95,91
96,91
97,91
98,92
99,92
100,92
101,92
102,92
103,92
104,92
105,92
106,92
107,92
108,92
109,92
110,92
111,92
112,92
113,92
114,92
115,92
116,94
117,94
118,94
119,94
120,94
121,94
122,94
123,94
124,94
125,94
126,94
127,94
128,94
129,94
130,94
131,94
132,94
133,94
134,94
135,94
136,94
137,94
138,94
139,94
140,94
141,94
142,94
143,94
144,94
145,94
146,94
147,94
148,94
149,94
150,94
151,94
152,94
153,94
154,94
155,94
156,94
157,94
158,94
159,94
160,94
161,94
162,94
163,94
164,94
165,94
166,94
167,94
168,94
169,94
170,94
171,94
172,94
173,94
174,94
175,94
176,94
177,94
178,94
179,94
180,94
181,94
182,94
183,94
184,94
185,94
186,94
187,94
188,94
189,94
190,94
