1,7
2,26
3,37
4,42
5,42
6,48
7,53
8,53
9,60
10,60
11,60
12,60
13,62
14,63
15,63
16,64
17,67
18,68
19,70
20,70
21,77
22,77
23,78
24,79
25,79
26,79
27,81
28,82
29,82
30,82
31,82
32,82
33,82
34,82
35,82
36,82
37,82
38,82
39,82
40,83
41,83
42,83
43,83
44,83
45,83
46,83
47,83
48,84
49,84
50,84
51,84
52,84
53,84
54,84
55,84
56,84
57,84
58,84
59,84
60,84
61,84
62,84
63,84
64,84
65,84
66,85
67,85
68,85
69,85
70,85
71,85
72,85
73,85
74,85
75,85
76,85
77,85
78,85
79,85
80,85
81,85
82,85
83,85
84,85
85,85
86,85
87,85
88,85
89,85
90,85
91,90
92,90
93,90
94,90
95,90
96,91
97,91
98,91
99,91
100,91
101,91
102,91
103,91
104,91
105,91
106,91
107,91
108,91
109,91
110,91
111,91
112,91
113,91
114,91
115,91
116,91
117,91
118,91
119,91
120,91
121,91
122,91
123,91
124,91
125,91
126,91
127,91
128,91
129,91
130,91
131,91
132,91
133,91
134,91
135,91
136,91
137,92
138,92
139,92
140,92
141,92
142,92
143,92
144,92
145,92
146,92
147,94
148,94
149,94
150,94
151,94
152,94
153,94
154,94
155,94
156,94
157,94
158,94
159,94
160,94
161,94
162,94
163,94
164,94
165,94
166,94
167,94
168,94
169,94
170,94
171,94
172,94
173,94
174,94
175,94
176,94
177,95
