1,20
2,27
3,35
4,42
5,43
6,51
7,57
8,57
9,57
10,62
11,62
12,63
13,71
14,71
15,73
16,73
17,74
18,75
19,76
20,76
21,76
22,76
23,76
24,76
25,78
26,79
27,79
28,79
29,81
30,81
31,82
32,82
33,83
34,83
35,83
36,83
37,83
38,83
39,84
40,84
41,84
42,84
43,84
44,84
45,84
46,84
47,84
48,84
49,84
50,84
51,84
52,84
53,84
54,84
55,84
56,84
57,85
58,85
59,85
60,85
61,85
62,85
63,85
64,85
65,85
66,85
67,85
68,85
69,85
70,85
71,85
72,85
73,85
74,85
75,85
76,85
77,85
78,85
79,85
80,85
81,88
82,88
83,88
84,88
85,88
86,88
87,88
88,88
89,89
90,89
91,89
92,89
93,89
94,89
95,89
96,89
97,89
98,89
99,89
100,89
101,89
102,89
103,89
104,89
105,89
106,89
107,89
108,89
109,89
110,89
111,89
112,89
113,89
114,89
115,89
116,89
117,89
118,89
119,89
120,89
121,89
122,89
123,89
124,89
125,89
126,89
127,89
128,89
129,89
130,89
131,89
132,89
133,89
134,89
135,89
136,89
137,89
138,89
139,89
140,89
141,89
142,89
143,89
144,89
145,89
146,89
147,89
148,89
149,89
150,89
151,89
152,89
153,89
154,89
155,89
156,89
157,89
158,89
159,89
160,89
161,89
162,89
163,89
164,89
165,89
166,89
167,89
168,89
169,89
170,89
171,89
172,89
173,89
174,89
175,89
176,89
177,89
178,89
179,89
180,89
181,89
182,89
183,89
184,89
185,89
186,89
187,89
188,89
189,89
190,89
