1,57
2,64
3,78
4,83
5,97
6,100
7,104
8,107
9,114
10,117
11,120
12,123
13,126
14,129
15,133
16,136
17,138
18,140
19,141
20,142
21,143
22,144
23,145
24,146
25,147
26,148
27,149
28,150
29,151
30,152
31,153
32,154
33,155
34,156
35,157
36,159
37,160
38,161
39,163
40,164
41,165
42,167
43,168
44,169
45,170
46,171
47,172
48,173
49,174
50,175
51,176
52,177
53,178
54,180
55,181
56,182
57,184
58,185
59,186
60,188
61,189
62,190
63,192
64,193
65,194
