1,15
2,15
3,33
4,44
5,57
6,74
7,75
8,83
9,83
10,84
11,94
12,94
13,108
14,108
15,115
16,115
17,116
18,120
19,120
20,120
21,124
22,125
23,127
24,127
25,128
26,129
27,130
28,131
29,131
30,134
31,141
32,141
33,150
34,154
35,154
36,155
37,156
38,160
39,161
40,161
41,161
42,161
43,161
44,161
45,161
46,161
47,161
48,161
49,161
50,161
51,161
52,161
53,162
54,162
55,163
56,163
57,163
58,163
59,163
60,163
61,164
62,164
63,164
64,165
65,165
66,167
67,169
68,169
69,169
70,173
71,173
72,173
73,174
74,175
75,175
76,175
77,175
78,177
79,182
80,182
81,182
82,182
83,182
84,182
85,182
86,182
87,182
88,182
89,182
90,182
91,182
92,182
93,182
94,182
95,182
96,182
97,183
98,183
99,183
100,183
101,183
102,183
103,184
104,184
105,184
106,184
107,184
108,184
109,184
110,184
111,184
112,184
113,185
114,185
115,185
116,185
117,185
118,185
119,185
120,185
121,185
122,185
123,185
124,185
125,185
126,187
127,187
128,187
129,187
130,187
131,187
132,187
133,187
134,187
135,187
136,187
137,187
138,187
139,187
140,187
141,187
142,187
143,187
144,188
145,188
146,188
147,188
148,188
149,188
150,188
151,188
152,188
153,188
154,188
155,188
156,188
157,188
158,188
159,188
160,188
161,188
162,188
163,188
164,188
165,188
166,188
167,188
168,188
169,188
170,188
171,188
172,188
173,188
174,188
175,188
176,188
177,188
178,188
179,189
180,189
181,189
182,189
183,189
184,189
185,189
186,189
187,189
188,189
189,189
190,190
191,190
192,190
193,190
194,190
195,190
196,190
197,190
198,190
199,190
200,190
201,190
202,190
203,190
204,190
205,190
206,190
207,190
208,190
209,190
210,190
211,190
212,190
213,190
214,190
215,190
216,190
217,190
218,190
219,190
220,190
221,190
222,190
223,190
224,190
225,190
226,190
227,190
228,190
229,190
230,190
231,190
232,190
233,190
234,190
235,190
236,190
237,190
238,190
239,190
240,190
241,190
242,190
243,190
244,190
245,190
246,190
247,190
248,190
249,190
250,190
251,190
252,190
253,190
254,190
255,190
256,190
257,190
258,190
259,190
260,190
261,190
262,190
263,190
264,190
265,190
266,190
267,190
268,190
269,190
270,190
271,190
272,190
273,190
274,190
275,190
276,190
277,190
278,190
279,190
280,190
281,190
282,190
283,190
284,191
285,191
286,191
287,191
288,191
289,191
290,191
291,191
292,191
293,191
294,191
295,191
296,191
297,191
298,191
299,191
300,191
301,191
302,191
303,191
304,191
305,191
306,191
307,191
308,191
309,191
310,191
311,191
312,191
313,192
314,192
315,192
316,192
317,192
318,192
319,192
320,192
321,192
322,192
323,192
324,192
325,192
326,192
327,192
328,192
329,192
330,192
331,192
332,192
333,192
334,192
335,192
336,192
337,192
338,192
339,192
340,192
341,192
342,192
343,192
344,192
345,192
346,192
347,192
348,192
349,192
350,192
351,192
352,192
353,192
354,192
355,192
356,192
357,192
358,192
359,192
360,192
361,192
362,192
363,192
364,192
365,192
366,192
367,192
368,192
369,192
370,192
371,192
372,192
373,192
374,192
375,192
376,192
377,192
378,192
379,192
380,192
381,192
382,192
383,192
384,192
385,192
386,192
387,192
388,192
