1,24
2,41
3,45
4,71
5,76
6,79
7,88
8,93
9,96
10,96
11,96
12,109
13,111
14,113
15,117
16,120
17,128
18,130
19,131
20,132
21,132
22,134
23,134
24,137
25,140
26,142
27,148
28,148
29,149
30,150
31,151
32,155
33,155
34,156
35,156
36,156
37,157
38,159
39,159
40,159
41,159
42,159
43,159
44,159
45,160
46,160
47,160
48,160
49,162
50,162
51,164
52,171
53,172
54,172
55,172
56,172
57,172
58,172
59,172
60,172
61,173
62,173
63,173
64,175
65,175
66,175
67,175
68,176
69,176
70,176
71,176
72,176
73,176
74,176
75,181
76,181
77,181
78,181
79,181
80,181
81,181
82,181
83,181
84,181
85,181
86,187
87,187
88,187
89,187
90,188
91,188
92,188
93,188
94,188
95,188
96,189
97,189
98,189
99,189
100,189
101,189
102,189
103,189
104,189
105,189
106,189
107,189
108,189
109,189
110,189
111,189
112,189
113,189
114,189
115,189
116,189
117,189
118,189
119,189
120,189
121,189
122,189
123,189
124,189
125,189
126,189
127,189
128,189
129,189
130,190
131,190
132,190
133,190
134,190
135,190
136,190
137,190
138,190
139,191
140,191
141,191
142,191
143,191
144,191
145,191
146,191
147,191
148,191
149,191
150,191
151,191
152,191
153,191
154,191
155,191
156,191
157,191
158,191
159,191
160,191
161,191
162,191
163,191
164,191
165,191
166,191
167,191
168,191
169,191
170,191
171,191
172,191
173,191
174,191
175,191
176,191
177,191
178,191
179,191
180,191
181,191
182,191
183,191
184,191
185,191
186,191
187,191
188,191
189,191
190,191
191,191
192,191
193,191
194,191
195,191
196,191
197,191
198,191
199,191
200,191
201,191
202,191
203,191
204,191
205,191
206,191
207,191
208,191
209,191
210,191
211,191
212,191
213,191
214,191
215,191
216,191
217,191
218,191
219,191
220,191
221,191
222,191
223,191
224,191
225,191
226,191
227,191
228,191
229,191
230,191
231,191
232,191
233,191
234,191
235,191
236,191
237,191
238,191
239,191
240,191
241,191
242,191
243,192
244,192
245,192
246,192
247,192
248,192
249,192
250,192
251,192
252,192
253,193
254,193
255,193
256,193
257,193
258,193
259,193
260,193
261,193
262,193
263,193
264,193
265,193
266,193
267,193
268,193
269,193
270,193
271,193
272,193
273,193
274,193
275,193
276,193
277,193
278,193
279,193
280,193
281,193
282,193
283,193
284,193
285,193
286,193
287,193
288,193
289,193
290,193
291,194
