1,11
2,14
3,16
4,22
5,28
6,28
7,28
8,28
9,29
10,29
11,29
12,30
13,34
14,35
15,51
16,54
17,54
18,54
19,54
20,55
21,56
22,56
23,56
24,56
25,56
26,56
27,63
28,67
29,67
30,67
31,68
32,77
33,77
34,77
35,77
36,77
37,77
38,77
39,77
40,77
41,82
42,82
43,84
44,84
45,84
46,84
47,84
48,84
49,84
50,84
51,86
52,87
53,87
54,87
55,87
56,87
57,87
58,87
59,87
60,87
61,87
62,87
63,87
64,89
65,89
66,89
67,89
68,89
69,89
70,89
71,89
72,89
73,89
74,89
75,89
76,89
77,89
78,89
79,89
80,89
81,89
82,89
83,89
84,89
85,89
86,89
87,89
88,89
89,89
90,89
91,89
92,89
93,89
94,89
95,89
96,89
97,89
98,89
99,89
100,89
101,89
102,89
103,89
104,89
105,89
106,89
107,89
108,89
109,89
110,89
111,89
112,89
113,89
114,89
115,89
116,89
117,89
118,89
119,89
120,89
121,89
122,90
123,91
124,91
125,91
126,91
127,91
128,91
129,91
130,91
131,91
132,91
133,91
134,91
135,91
136,91
137,91
138,91
139,91
140,91
141,91
142,91
143,91
144,91
145,91
146,91
147,91
148,91
149,91
150,91
151,91
152,91
153,91
154,91
155,91
156,91
157,91
158,91
159,91
160,91
161,91
162,91
163,91
164,91
165,91
166,91
167,91
168,91
169,91
170,91
171,91
172,91
173,91
174,91
175,91
176,91
177,91
178,91
179,91
180,91
181,91
182,91
183,91
184,91
185,91
186,91
