1,5
2,6
3,6
4,12
5,12
6,16
7,17
8,20
9,35
10,38
11,39
12,39
13,39
14,39
15,39
16,42
17,42
18,46
19,47
20,47
21,47
22,47
23,49
24,50
25,61
26,62
27,62
28,62
29,63
30,63
31,63
32,63
33,63
34,63
35,64
36,64
37,70
38,70
39,73
40,73
41,73
42,73
43,73
44,73
45,73
46,73
47,73
48,73
49,75
50,75
51,78
52,78
53,78
54,78
55,80
56,80
57,81
58,81
59,81
60,87
61,87
62,87
63,88
64,89
65,89
66,89
67,89
68,89
69,89
70,89
71,89
72,89
73,89
74,89
75,89
76,89
77,89
78,89
79,89
80,89
81,89
82,89
83,89
84,89
85,89
86,89
87,89
88,89
89,89
90,90
91,90
92,90
93,90
94,90
95,90
96,90
97,90
98,90
99,90
100,90
101,90
102,90
103,90
104,90
105,90
106,90
107,90
108,90
109,90
110,90
111,90
112,90
113,91
114,91
115,91
116,91
117,91
118,91
119,91
120,91
121,93
