1,4
2,9
3,9
4,13
5,13
6,15
7,15
8,16
9,18
10,21
11,21
12,29
13,29
14,34
15,34
16,35
17,36
18,36
19,38
20,38
21,40
22,40
23,40
24,40
25,41
26,41
27,41
28,41
29,42
30,42
31,42
32,42
33,42
34,42
35,47
36,47
37,47
38,47
39,47
40,47
41,47
42,52
43,52
44,52
45,52
46,52
47,58
48,58
49,66
50,66
51,66
52,66
53,66
54,66
55,66
56,66
57,66
58,66
59,66
60,78
61,78
62,78
63,78
64,78
65,78
66,78
67,78
68,78
69,78
70,78
71,78
72,78
73,78
74,78
75,78
76,78
77,78
78,79
79,79
80,79
81,79
82,79
83,79
84,79
85,79
86,80
87,80
88,80
89,80
90,84
91,86
92,86
93,86
94,86
95,86
96,87
97,87
98,87
99,87
100,87
101,87
102,87
103,87
104,87
105,87
106,87
107,87
108,87
109,87
110,87
111,88
112,88
113,88
114,88
115,88
116,88
117,88
118,88
119,88
120,88
121,88
122,88
123,89
124,89
125,89
126,89
127,89
128,89
129,90
130,90
131,90
132,90
133,90
134,90
135,90
136,90
137,90
138,90
139,90
140,90
141,90
142,90
143,90
144,91
145,91
146,91
147,91
148,91
149,91
150,91
151,91
152,91
153,91
154,91
155,91
156,91
157,91
158,91
159,91
160,91
161,92
162,92
163,92
164,92
165,92
166,92
167,92
168,92
169,92
170,92
171,92
172,92
173,92
174,92
175,92
176,92
177,92
178,92
179,92
180,92
181,92
182,92
183,92
184,92
185,92
186,92
