1,10
2,10
3,50
4,50
5,65
6,65
7,65
8,65
9,80
10,80
11,84
12,84
13,84
14,84
15,85
16,86
17,86
18,91
19,91
20,111
21,111
22,111
23,111
24,111
25,111
26,111
27,111
28,111
29,111
30,111
31,111
32,112
33,112
34,112
35,112
36,126
37,127
38,127
39,127
40,135
41,135
42,137
43,137
44,137
45,137
46,137
47,137
48,137
49,137
50,137
51,137
52,139
53,139
54,139
55,140
56,140
57,140
58,140
59,143
60,143
61,143
62,143
63,144
64,144
65,144
66,144
67,144
68,144
69,144
70,144
71,144
72,144
73,145
74,145
75,145
76,145
77,145
78,145
79,145
80,145
81,145
82,147
83,147
84,148
85,148
86,148
87,148
88,148
89,148
90,148
91,148
92,148
93,148
94,148
95,151
96,151
97,151
98,151
99,151
100,151
101,151
102,151
103,151
104,151
105,151
106,151
107,151
108,151
109,151
110,151
111,151
112,151
113,151
114,151
115,154
116,154
117,154
118,154
119,154
120,156
121,156
122,156
123,156
124,156
125,156
126,156
127,163
128,163
129,163
130,163
131,163
132,163
133,163
134,163
135,163
136,164
137,164
138,164
139,166
140,166
141,166
142,166
143,166
144,167
145,167
146,167
147,167
148,167
149,167
150,167
151,167
152,167
153,167
154,167
155,167
156,167
157,167
158,167
159,167
160,167
161,167
162,168
163,168
164,168
165,168
166,168
167,168
168,168
169,168
170,168
171,168
172,168
173,168
174,168
175,168
176,168
177,168
178,168
179,168
180,168
181,168
182,168
183,168
184,168
185,168
186,168
187,168
188,168
189,168
190,168
191,168
192,171
193,178
194,178
195,178
196,178
197,178
198,178
199,178
200,178
201,178
202,178
203,178
204,178
205,178
206,178
207,178
208,178
209,178
210,178
211,180
212,180
213,180
214,180
215,180
216,180
217,180
218,181
219,181
220,182
221,182
222,182
223,182
224,182
225,182
226,182
227,182
228,182
229,182
230,182
231,182
232,182
233,182
234,182
235,182
236,182
237,182
238,182
239,182
240,182
241,182
242,182
243,182
244,182
245,182
246,182
247,182
248,182
249,182
250,185
251,185
252,185
253,185
254,185
255,185
256,185
257,185
258,185
259,185
260,185
261,185
262,185
263,185
264,185
265,185
266,185
267,185
268,185
269,185
270,185
271,185
272,185
273,185
274,185
275,185
276,185
277,185
278,185
279,185
280,185
281,185
282,185
283,185
284,185
285,185
286,185
287,185
288,185
289,185
290,185
291,185
292,185
293,185
294,185
295,185
296,185
297,185
298,185
299,185
300,185
301,186
302,186
303,186
304,186
305,186
306,186
307,186
308,186
309,186
310,186
311,186
312,186
313,186
314,186
315,186
316,186
317,186
318,186
319,186
320,186
321,186
322,186
323,186
324,186
325,186
326,186
327,186
328,187
329,187
330,187
331,187
332,187
333,187
334,187
335,187
336,187
337,187
338,187
339,187
340,187
341,187
342,187
343,187
344,187
345,187
346,187
347,187
348,187
349,187
350,187
351,187
352,187
353,187
354,187
355,187
356,187
357,187
358,187
359,187
360,187
361,187
362,187
363,187
364,187
365,187
366,187
367,187
368,187
369,188
370,188
371,188
372,188
373,188
374,188
375,188
376,188
377,188
378,188
379,188
380,188
381,188
382,189
383,189
384,189
385,189
386,189
387,189
388,189
389,189
390,189
