1,28
2,36
3,44
4,44
5,44
6,44
7,44
8,44
9,44
10,46
11,46
12,66
13,66
14,66
15,80
16,80
17,80
18,80
19,92
20,92
21,92
22,92
23,92
24,92
25,92
26,92
27,92
28,92
29,99
30,107
31,110
32,110
33,110
34,110
35,110
36,110
37,110
38,110
39,110
40,110
41,110
42,112
43,117
44,117
45,118
46,118
47,118
48,118
49,122
50,122
51,122
52,126
53,127
54,127
55,127
56,127
57,127
58,127
59,127
60,127
61,127
62,127
63,127
64,127
65,127
66,127
67,129
68,131
69,131
70,131
71,131
72,131
73,131
74,137
75,137
76,137
77,137
78,137
79,140
80,140
81,145
82,145
83,145
84,145
85,145
86,146
87,146
88,146
89,146
90,146
91,146
92,151
93,151
94,151
95,151
96,151
97,151
98,151
99,151
100,151
101,152
102,152
103,152
104,152
105,152
106,152
107,152
108,152
109,152
110,152
111,152
112,152
113,152
114,154
115,154
116,154
117,154
118,154
119,154
120,154
121,154
122,154
123,154
124,154
125,154
126,154
127,154
128,154
129,154
130,155
131,155
132,155
133,158
134,158
135,158
136,158
137,158
138,158
139,158
140,158
141,158
142,158
143,158
144,158
145,159
146,159
147,159
148,159
149,159
150,159
151,159
152,159
153,163
154,163
155,163
156,163
157,163
158,163
159,163
160,163
161,163
162,163
163,163
164,163
165,163
166,163
167,163
168,163
169,163
170,163
171,163
172,163
173,163
174,163
175,163
176,168
177,168
178,168
179,168
180,168
181,168
182,168
183,168
184,168
185,168
186,168
187,170
188,170
189,170
190,170
191,170
192,170
193,170
194,170
195,170
196,170
197,170
198,170
199,170
200,171
201,171
202,171
203,171
204,171
205,171
206,171
207,171
208,171
209,171
210,171
211,171
212,171
213,171
214,171
215,171
216,171
217,171
218,171
219,171
220,171
221,171
222,175
223,175
224,176
225,176
226,176
227,176
228,176
229,176
230,176
231,176
232,176
233,176
234,177
235,177
236,177
237,177
238,177
239,177
240,177
241,177
242,177
243,177
244,179
245,179
246,179
247,179
248,182
249,182
250,182
251,182
252,182
253,182
254,184
255,184
256,184
257,184
258,184
259,184
260,184
261,184
262,184
263,184
264,184
265,184
266,184
267,184
268,184
269,184
270,184
271,184
272,184
273,184
274,184
275,184
276,184
277,184
278,184
279,184
280,184
281,184
282,184
283,184
284,184
285,184
286,184
287,184
288,184
289,184
290,184
291,184
292,184
293,184
294,184
295,184
296,184
297,184
298,184
299,184
300,184
301,184
302,184
303,184
304,184
305,184
306,184
307,184
308,184
309,184
310,184
311,184
312,184
313,184
314,184
315,184
316,184
317,184
318,184
319,184
320,184
321,184
322,184
323,184
324,184
325,184
326,184
327,184
328,184
329,184
330,184
331,184
332,184
333,184
334,184
335,184
336,184
337,184
338,184
339,184
340,184
341,184
342,184
343,184
344,184
345,184
346,184
347,184
348,184
349,184
350,184
351,184
352,184
353,184
354,184
355,184
356,184
357,184
358,184
359,184
360,184
361,184
362,184
363,184
364,184
365,184
366,184
367,184
368,184
369,184
370,184
371,184
372,184
373,184
374,184
375,184
376,184
377,184
378,184
379,184
380,184
381,184
382,184
383,184
384,184
385,184
386,185
387,185
388,185
389,185
390,185
