1,22
2,38
3,45
4,51
5,57
6,60
7,66
8,71
9,74
10,74
11,79
12,84
13,86
14,87
15,91
16,91
17,94
18,94
19,95
20,97
21,98
22,98
23,98
24,98
25,99
26,99
27,99
28,99
29,99
30,100
31,100
32,100
33,100
34,100
35,100
36,100
37,100
38,100
39,100
40,100
41,100
42,100
43,100
44,100
45,100
46,100
47,100
48,100
49,100
50,101
51,101
52,101
53,101
54,101
55,102
