1,16
2,16
3,26
4,30
5,32
6,33
7,33
8,37
9,37
10,38
11,38
12,38
13,38
14,38
15,38
16,38
17,38
18,45
19,45
20,45
21,45
22,45
23,45
24,45
25,45
26,45
27,45
28,45
29,45
30,45
31,45
32,45
33,46
34,46
35,47
36,49
37,50
38,50
39,50
40,50
41,50
42,50
43,50
44,50
45,50
46,51
