1,18
2,32
3,35
4,35
5,37
6,42
7,43
8,43
9,43
10,43
11,43
12,46
13,46
14,46
15,46
16,47
17,47
18,47
19,47
20,47
21,47
22,47
23,47
24,47
25,47
26,47
27,47
28,47
29,47
30,47
31,47
32,47
33,47
34,47
35,47
36,47
37,47
38,47
39,47
40,47
41,47
42,47
43,47
44,47
45,48
46,48
47,48
48,48
49,48
50,48
51,48
52,48
53,48
54,48
55,48
56,49
57,49
58,49
59,49
60,50
61,50
62,50
63,50
64,50
65,50
66,50
67,50
68,50
69,50
70,50
71,50
72,50
73,50
74,50
75,50
76,50
77,50
78,50
79,50
80,50
81,50
82,50
83,50
84,50
85,50
86,50
87,50
88,50
89,50
90,50
91,50
92,50
93,50
94,50
95,50
96,50
97,50
98,50
99,50
100,50
101,50
102,50
