1,35
2,48
3,57
4,83
5,91
6,129
7,156
8,156
9,163
10,180
11,185
12,188
13,229
14,229
15,246
16,252
17,252
18,255
19,256
20,256
21,264
22,264
23,264
24,282
25,282
26,282
27,285
28,285
29,285
30,297
31,300
32,309
33,309
34,309
35,313
36,315
37,316
38,325
39,325
40,326
41,326
42,327
43,327
44,327
45,327
46,328
47,329
48,331
49,333
50,333
51,333
52,333
53,334
54,334
55,334
56,334
57,334
58,334
59,334
60,335
61,335
62,335
63,335
64,335
65,338
66,338
67,340
68,341
69,342
70,342
71,344
72,344
73,344
74,344
75,344
76,346
77,346
78,347
79,347
80,347
81,347
82,348
83,348
84,348
85,348
86,348
87,348
88,349
89,349
90,349
91,349
92,349
93,351
94,351
95,355
96,355
97,357
98,357
99,357
100,357
101,357
102,357
103,360
104,360
105,361
106,361
107,361
108,361
109,361
110,362
111,362
112,362
113,365
114,366
115,367
116,367
117,367
118,367
119,367
120,367
121,368
122,368
123,368
124,369
125,370
126,370
127,370
128,370
129,370
130,371
131,371
132,371
133,371
134,371
135,371
136,371
137,371
138,371
139,371
140,371
141,371
142,371
143,371
144,371
145,371
146,371
147,373
148,373
149,373
150,373
151,374
152,374
153,374
154,374
155,374
156,374
157,374
158,375
159,375
160,375
161,375
162,375
163,375
164,375
165,375
166,375
167,375
168,375
169,375
170,375
171,375
172,375
173,375
174,375
175,375
176,375
177,375
178,375
179,375
180,375
181,375
182,375
183,375
184,375
185,375
186,375
187,375
188,375
189,375
190,375
191,375
192,375
193,375
194,375
195,375
196,375
197,375
198,375
199,375
200,375
201,375
202,375
203,375
204,375
205,375
206,375
207,375
208,375
209,376
210,376
211,376
212,376
213,376
214,376
215,376
216,376
217,376
218,376
219,377
220,377
221,377
222,377
223,377
224,377
225,377
226,377
227,377
228,377
229,377
230,377
231,377
232,377
233,377
234,378
235,378
236,378
237,378
238,378
239,378
240,378
241,378
242,378
243,378
244,378
245,378
246,378
247,378
248,378
249,378
250,378
251,378
252,378
253,378
254,378
255,378
256,378
257,378
258,378
259,378
260,378
261,378
262,378
263,378
264,378
265,378
266,378
267,378
268,378
269,378
270,378
271,378
272,378
273,381
274,381
275,381
276,381
277,381
278,381
279,381
280,381
281,381
282,381
283,381
284,381
285,381
286,381
287,381
288,381
289,381
290,381
291,381
292,381
293,381
294,381
295,381
296,381
297,381
298,381
299,381
300,381
301,381
302,381
303,381
304,381
305,381
306,381
307,381
308,381
309,384
310,384
311,384
312,384
313,384
314,384
315,384
316,384
317,384
318,384
319,384
320,384
321,384
322,384
323,384
324,384
325,384
326,384
327,384
328,384
329,384
330,384
331,384
332,384
333,384
334,384
335,384
336,384
337,384
338,384
339,384
340,384
341,384
342,384
343,385
344,385
345,385
346,385
347,385
348,385
349,385
350,385
351,385
352,385
353,385
354,385
355,385
356,385
357,385
358,385
359,385
360,385
361,385
362,385
363,385
364,386
365,386
366,386
367,386
368,386
369,386
370,386
371,386
372,386
373,386
374,386
375,386
376,386
377,386
378,386
379,386
380,386
381,386
382,386
383,386
384,386
385,386
386,386
387,386
388,386
389,386
390,386
391,386
392,386
393,386
394,386
395,386
396,386
397,386
398,386
399,386
400,386
401,386
402,386
403,386
404,386
405,386
406,386
407,386
408,386
409,386
410,386
411,386
412,386
413,386
414,386
415,386
416,386
417,386
418,386
419,386
420,386
421,386
422,386
423,386
424,386
425,386
426,386
427,386
428,386
429,386
430,386
431,386
432,386
433,386
434,386
435,386
436,386
437,386
438,386
439,386
440,386
441,386
442,386
443,386
444,386
445,386
446,386
447,386
448,386
449,386
450,386
451,386
452,386
453,386
454,386
455,386
456,386
457,386
458,386
459,386
460,386
461,386
462,386
463,386
464,386
465,386
466,386
467,386
468,386
469,386
470,386
471,386
472,386
473,386
474,386
475,386
476,386
477,386
478,386
479,386
480,386
481,386
482,386
483,386
484,386
485,386
486,386
487,386
488,386
489,386
490,386
491,386
492,386
493,386
494,386
495,386
496,386
497,386
498,386
499,386
500,386
501,386
502,386
503,386
504,386
505,386
506,386
507,386
508,386
509,386
510,386
511,386
512,386
513,386
514,386
515,386
516,386
517,386
518,386
519,386
520,386
521,386
522,387
523,387
524,387
525,387
526,387
527,387
528,387
529,387
530,387
531,387
532,387
533,387
534,387
535,387
536,387
537,387
538,387
539,387
540,387
541,387
542,387
543,387
544,387
545,387
546,387
547,387
548,387
549,387
550,387
551,387
552,387
553,387
554,387
555,387
556,387
557,387
558,387
559,387
560,387
561,387
562,387
563,387
564,387
565,387
566,387
567,387
568,387
569,387
570,387
571,387
572,387
573,387
574,387
575,387
576,387
577,387
578,387
579,387
580,387
581,387
582,387
583,387
584,387
585,387
586,387
587,387
588,387
589,387
590,387
591,387
592,387
593,387
594,387
595,387
596,387
597,387
598,387
599,387
600,387
601,387
602,387
603,387
604,387
605,387
606,387
607,387
608,387
609,387
610,387
611,387
612,387
613,387
614,387
615,387
616,387
617,387
618,387
619,387
620,387
621,387
622,387
623,387
624,387
625,387
626,387
627,387
628,387
629,387
630,387
631,387
632,387
633,387
634,387
635,387
636,387
637,387
638,387
639,387
640,387
641,387
642,387
643,387
644,387
645,387
646,387
647,387
648,387
649,387
650,387
651,387
652,387
653,387
654,387
655,387
656,387
657,387
658,387
659,387
660,387
661,387
662,387
663,387
664,387
665,387
666,387
667,387
668,387
669,387
670,387
671,387
672,387
673,387
674,387
675,387
676,387
677,387
678,387
679,387
680,387
681,387
682,387
683,387
684,387
685,387
686,387
687,387
688,387
689,387
690,387
691,387
692,387
693,387
694,387
695,387
696,387
697,387
698,387
699,387
700,387
701,387
702,387
703,387
704,387
705,387
706,387
707,387
708,387
709,387
710,387
711,387
712,387
713,387
714,387
715,387
716,387
717,387
718,387
719,387
720,387
721,387
722,387
723,387
724,387
725,387
726,387
727,387
728,387
729,387
730,387
731,387
732,387
733,387
734,387
735,387
736,387
737,387
738,387
739,388
