1,0
2,6
3,7
4,8
5,8
6,8
7,9
8,9
9,10
10,20
11,20
12,22
13,22
14,28
15,28
16,30
17,32
18,33
19,34
20,34
21,34
22,34
23,34
24,34
25,34
26,34
27,35
28,35
29,35
30,35
31,35
32,35
33,35
34,36
35,36
36,36
37,38
38,38
39,38
40,38
41,38
42,39
43,39
44,40
45,40
46,40
47,40
48,40
49,41
50,42
