1,23
2,82
3,95
4,95
5,95
6,171
7,195
8,205
9,205
10,205
11,228
12,228
13,232
14,233
15,233
16,244
17,256
18,299
19,299
20,346
21,363
22,363
23,368
24,368
25,373
26,375
27,378
28,386
29,388
30,390
31,390
32,407
33,417
34,423
35,423
36,431
37,431
38,459
39,467
40,473
41,473
42,473
43,477
44,479
45,479
46,479
47,484
48,488
49,501
50,508
51,509
52,513
53,518
54,521
55,524
56,525
57,525
58,525
59,525
60,527
61,527
62,527
63,528
64,528
65,528
66,536
67,538
68,538
69,538
70,538
71,541
72,541
73,545
74,546
75,546
76,546
77,546
78,546
79,554
80,554
81,554
82,564
83,564
84,564
85,566
86,568
87,571
88,573
89,573
90,573
91,573
92,573
93,577
94,577
95,578
96,579
97,579
98,579
99,579
100,579
101,579
102,580
103,588
104,588
105,588
106,588
107,588
108,588
109,596
110,597
111,599
112,599
113,599
114,599
115,599
116,599
117,599
118,599
119,599
120,600
121,600
122,600
123,600
124,600
125,600
126,603
127,603
128,616
129,616
130,616
131,616
132,616
133,619
134,619
135,619
136,620
137,620
138,621
139,626
140,626
141,626
142,628
143,628
144,628
145,628
146,628
147,628
148,628
149,628
150,628
151,628
152,628
153,628
154,630
155,630
156,631
157,631
158,636
159,636
160,636
161,636
162,636
163,636
164,636
165,636
166,636
167,637
168,637
169,637
170,637
171,637
172,637
173,638
174,638
175,638
176,639
177,639
178,639
179,639
180,639
181,639
182,639
183,640
184,640
185,640
186,641
187,641
188,642
189,643
190,643
191,643
192,643
193,644
194,644
195,644
196,644
197,644
198,644
199,645
200,645
201,645
202,645
203,645
204,645
205,645
206,645
207,645
208,645
209,645
210,645
211,645
212,645
213,645
214,645
215,645
216,657
217,657
218,667
219,667
220,667
221,667
222,667
223,667
224,667
225,667
226,667
227,668
228,668
229,668
230,668
231,668
232,668
233,668
234,668
235,668
236,668
237,668
238,668
239,668
240,668
241,670
242,670
243,670
244,670
245,672
246,672
247,672
248,672
249,672
250,672
251,672
252,672
253,672
254,672
255,673
256,673
257,673
258,673
259,673
260,673
261,673
262,673
263,673
264,673
265,673
266,673
267,676
268,677
269,677
270,677
271,677
272,677
273,677
274,677
275,677
276,677
277,677
278,677
279,677
280,678
281,678
282,678
283,678
284,678
285,678
286,678
287,678
288,678
289,678
290,678
291,678
292,678
293,678
294,678
295,679
296,679
297,679
298,679
299,681
300,681
301,681
302,681
303,681
304,681
305,681
306,681
307,681
308,681
309,681
310,681
311,681
312,681
313,681
314,681
315,681
316,688
317,688
318,688
319,688
320,688
321,688
322,688
323,690
324,698
325,698
326,698
327,698
328,698
329,698
330,698
331,698
332,700
333,700
334,700
335,700
336,700
337,700
338,700
339,700
340,700
341,701
342,701
343,701
344,701
345,701
346,701
347,701
348,702
349,702
350,702
351,702
352,702
353,702
354,702
355,702
356,702
357,702
358,702
359,702
360,702
361,702
362,702
363,702
364,702
365,702
366,702
367,702
368,702
369,702
370,702
371,702
372,702
373,702
374,702
375,703
376,703
377,703
378,703
379,705
380,705
381,705
382,705
383,705
384,705
385,705
386,705
387,705
388,705
389,705
390,708
391,708
392,708
393,708
394,708
395,708
396,708
397,708
398,708
399,708
400,708
401,708
402,708
403,708
404,708
405,708
406,708
407,708
408,708
409,708
410,708
411,708
412,708
413,708
414,708
415,708
416,708
417,708
418,709
419,709
420,709
421,709
422,709
423,709
424,709
425,709
426,709
427,709
428,709
429,709
430,709
431,709
432,709
433,709
434,709
435,709
436,709
437,709
438,709
439,709
440,709
441,709
442,709
443,709
444,709
445,709
446,709
447,709
448,709
449,709
450,709
451,709
452,709
453,709
454,709
455,709
456,709
457,709
458,709
459,709
460,712
461,712
462,712
463,712
464,712
465,712
466,712
467,713
468,713
469,713
470,713
471,713
472,713
473,713
474,713
475,713
476,713
477,713
478,713
479,713
480,713
481,713
482,713
483,713
484,714
485,714
486,714
487,714
488,714
489,714
490,714
491,714
492,714
493,714
494,714
495,714
496,714
497,714
498,714
499,714
500,714
501,714
502,714
503,714
504,714
505,714
506,714
507,714
508,715
509,716
510,716
511,716
512,716
513,716
514,716
515,716
516,716
517,716
518,716
519,716
520,716
521,716
522,716
523,716
524,721
525,721
526,721
527,721
528,721
529,721
530,722
531,722
532,722
533,726
534,726
535,726
536,726
537,726
538,726
539,726
540,726
541,726
542,726
543,726
544,726
545,726
546,726
547,726
548,726
549,726
550,726
551,726
552,726
553,726
554,726
555,726
556,726
557,726
558,726
559,726
560,726
561,726
562,726
563,726
564,726
565,726
566,726
567,726
568,726
569,726
570,726
571,726
572,728
573,728
574,728
575,728
576,728
577,729
578,729
579,729
580,729
581,729
582,729
583,729
584,729
585,729
586,729
587,729
588,731
589,731
590,731
591,731
592,731
593,731
594,731
595,731
596,731
597,731
598,731
599,731
600,731
601,731
602,731
603,731
604,731
605,731
606,731
607,732
608,732
609,732
610,732
611,732
612,732
613,732
614,732
615,732
616,732
617,732
618,732
619,732
620,732
621,732
622,732
623,732
624,732
625,732
626,732
627,732
628,732
629,732
630,732
631,740
632,740
633,740
634,740
635,740
636,740
637,740
638,740
639,740
640,740
641,740
642,740
643,740
644,740
645,740
646,740
647,740
648,740
649,740
650,740
651,740
652,741
653,741
654,741
655,741
656,741
657,741
658,741
659,741
660,741
661,741
662,741
663,741
664,741
665,741
666,741
667,741
668,741
669,741
670,741
671,741
672,741
673,741
674,742
675,742
676,742
677,742
678,742
679,742
680,742
681,742
682,742
683,742
684,742
685,742
686,742
687,742
688,742
689,742
690,742
691,742
692,742
693,742
694,742
695,742
696,742
697,742
698,742
699,742
700,742
701,742
702,742
703,742
704,742
705,742
706,742
707,742
708,742
709,742
710,742
711,742
712,742
713,742
714,742
715,742
716,742
717,742
718,742
719,742
720,745
721,745
722,745
723,745
724,745
725,745
726,745
727,745
728,745
729,745
730,745
731,745
732,745
733,745
734,745
735,745
736,745
737,745
738,745
739,745
740,745
741,745
742,745
743,745
744,745
745,746
746,746
747,746
748,746
749,746
750,746
751,746
752,746
753,746
754,746
755,746
756,746
757,746
758,746
759,746
760,746
761,746
762,746
763,746
764,746
765,746
766,746
767,746
768,746
769,746
770,746
771,746
772,747
773,747
774,747
775,747
776,747
777,747
778,747
779,747
780,747
781,747
782,747
783,747
784,747
785,747
786,747
787,747
788,747
789,747
790,747
791,747
792,747
793,747
794,747
795,747
796,747
797,747
798,747
799,747
800,747
801,747
802,747
803,747
804,747
805,747
806,747
807,747
808,747
809,747
810,747
811,747
812,747
813,747
814,747
815,747
816,747
817,747
818,747
819,747
820,747
821,747
822,747
823,747
824,747
825,747
826,747
827,747
828,747
829,747
830,747
831,747
832,747
833,747
834,747
835,747
836,747
837,747
838,748
839,748
840,748
841,748
842,748
843,748
844,748
845,748
846,748
847,748
848,748
849,748
850,748
851,748
852,748
853,748
854,748
855,748
856,748
857,748
858,748
859,748
860,748
861,748
862,748
863,748
864,748
865,748
866,748
867,748
868,748
869,748
870,748
871,748
872,748
873,748
874,748
875,748
876,748
877,748
878,748
879,748
880,748
881,748
882,748
883,748
884,748
885,749
886,749
887,749
888,749
889,749
890,749
891,749
892,749
893,749
894,749
895,749
896,749
897,749
898,749
899,749
900,749
901,749
902,749
903,749
904,750
905,750
906,750
907,750
908,750
909,750
910,750
911,750
912,750
913,750
914,750
915,750
916,750
917,750
918,750
919,750
920,750
921,750
922,750
923,750
924,750
925,750
926,750
927,750
928,750
929,750
930,750
931,750
932,750
933,750
934,753
935,753
936,753
937,753
938,753
939,753
940,753
941,754
942,754
943,754
944,754
945,754
946,754
947,754
948,754
949,754
950,754
951,754
952,754
953,754
954,754
955,754
956,755
957,755
958,755
959,755
960,755
961,755
962,755
963,755
964,755
965,755
966,755
967,755
968,755
969,755
970,755
971,755
972,755
973,755
974,755
975,755
976,755
977,755
978,755
979,755
980,755
981,755
982,755
983,755
984,755
985,755
986,755
987,755
988,755
989,755
990,755
991,755
992,755
993,755
994,755
995,755
996,755
997,755
998,755
999,755
1000,755
1001,755
1002,755
1003,755
1004,755
1005,755
1006,755
1007,755
1008,758
1009,758
1010,758
1011,758
1012,758
1013,758
1014,758
1015,758
1016,758
1017,758
1018,758
1019,758
1020,758
1021,758
1022,758
1023,758
1024,758
1025,758
1026,758
1027,759
1028,759
1029,759
1030,759
1031,759
1032,759
1033,759
1034,759
1035,759
1036,759
1037,759
1038,759
1039,759
1040,759
1041,759
1042,759
1043,759
1044,759
1045,759
1046,759
1047,759
1048,759
1049,759
1050,759
1051,759
1052,759
1053,759
1054,759
1055,759
1056,759
1057,759
1058,759
1059,759
1060,759
1061,759
1062,759
1063,759
1064,759
1065,759
1066,759
1067,759
1068,759
1069,759
1070,759
1071,759
1072,759
1073,759
1074,759
1075,759
1076,759
1077,759
1078,759
1079,759
1080,759
1081,759
1082,759
1083,759
1084,759
1085,759
1086,759
1087,759
1088,759
1089,759
1090,759
1091,759
1092,759
1093,759
1094,759
1095,759
1096,759
1097,759
1098,759
1099,759
1100,759
1101,759
1102,759
1103,759
1104,759
1105,759
1106,759
1107,759
1108,759
1109,759
1110,759
1111,759
1112,759
1113,759
1114,759
1115,759
1116,759
1117,760
1118,760
1119,760
1120,760
1121,760
1122,760
1123,760
1124,760
1125,760
1126,760
1127,760
1128,761
1129,761
1130,761
1131,761
1132,761
1133,761
1134,761
1135,761
1136,761
1137,761
1138,761
1139,761
1140,761
1141,761
1142,761
1143,761
1144,761
1145,761
1146,761
1147,761
1148,761
1149,762
1150,762
1151,762
1152,762
1153,762
1154,762
1155,762
1156,762
1157,762
1158,762
1159,762
1160,762
1161,762
1162,762
1163,762
1164,762
1165,762
1166,762
1167,762
1168,762
1169,762
1170,762
1171,762
1172,762
1173,762
1174,762
1175,762
1176,762
1177,762
1178,762
1179,762
1180,762
1181,762
1182,762
1183,762
1184,762
1185,762
1186,762
1187,762
1188,762
1189,762
1190,762
1191,762
1192,762
1193,762
1194,762
1195,762
1196,762
1197,762
1198,762
1199,762
1200,762
1201,762
1202,762
1203,762
1204,762
1205,762
1206,762
1207,762
1208,762
1209,762
1210,762
1211,762
1212,762
1213,762
1214,762
1215,762
1216,762
1217,762
1218,762
1219,762
1220,762
1221,762
1222,762
1223,762
1224,762
1225,762
1226,762
1227,762
1228,762
1229,762
1230,762
1231,762
1232,762
1233,762
1234,762
1235,762
1236,762
1237,762
1238,762
1239,762
1240,762
1241,762
1242,762
1243,762
1244,762
1245,762
1246,762
1247,762
1248,762
1249,762
1250,762
1251,762
1252,762
1253,762
1254,762
1255,762
1256,763
1257,763
1258,763
1259,763
1260,763
1261,763
1262,763
1263,763
1264,763
1265,763
1266,763
1267,763
1268,763
1269,763
1270,763
1271,763
1272,763
1273,763
1274,763
1275,763
1276,763
1277,763
1278,763
1279,763
1280,763
1281,763
1282,763
1283,763
1284,763
1285,763
1286,763
1287,763
1288,763
1289,763
1290,763
1291,763
1292,763
1293,763
1294,763
1295,763
1296,763
1297,763
1298,763
1299,763
1300,763
1301,763
1302,763
1303,763
1304,763
1305,763
1306,763
1307,763
1308,763
1309,763
1310,763
1311,763
1312,763
1313,763
1314,763
1315,763
1316,763
1317,763
1318,763
1319,763
1320,763
1321,763
1322,763
1323,763
1324,763
1325,763
1326,763
1327,763
1328,763
1329,763
1330,764
1331,764
1332,764
1333,764
1334,764
1335,764
1336,764
1337,764
1338,764
1339,764
1340,764
1341,764
1342,764
1343,764
1344,764
1345,764
1346,764
1347,764
1348,764
1349,764
1350,764
1351,764
1352,764
1353,764
1354,764
1355,764
1356,764
1357,764
1358,764
1359,764
1360,764
1361,764
1362,764
1363,764
1364,764
1365,764
1366,764
1367,764
1368,764
1369,764
1370,764
1371,764
1372,764
1373,764
1374,764
1375,764
1376,764
1377,764
1378,764
1379,764
1380,764
1381,764
1382,764
1383,764
1384,764
1385,764
1386,764
1387,764
1388,764
1389,764
1390,764
1391,764
1392,764
1393,764
1394,764
1395,764
1396,765
1397,765
1398,765
1399,765
1400,765
1401,765
1402,765
1403,765
1404,765
1405,765
1406,765
1407,765
1408,765
1409,765
1410,765
1411,765
1412,765
1413,765
1414,776
1415,776
1416,776
1417,776
1418,776
1419,776
1420,776
1421,776
1422,776
1423,776
1424,776
1425,776
1426,776
1427,776
1428,776
1429,776
1430,776
1431,776
1432,776
1433,776
1434,776
1435,776
1436,776
1437,776
1438,776
1439,776
1440,776
1441,776
1442,776
1443,776
1444,776
1445,776
1446,776
1447,776
1448,776
1449,776
1450,776
1451,776
1452,776
1453,776
1454,776
1455,776
1456,776
1457,776
1458,776
1459,776
1460,776
1461,776
1462,777
1463,777
1464,777
1465,777
1466,777
1467,777
1468,777
1469,777
1470,777
1471,777
1472,777
1473,777
1474,777
1475,777
1476,777
1477,777
1478,777
1479,777
1480,777
1481,777
1482,777
1483,777
1484,777
1485,777
1486,777
1487,777
1488,777
1489,777
1490,777
1491,777
1492,777
1493,777
1494,777
1495,777
1496,777
1497,777
1498,777
1499,777
1500,777
1501,777
1502,777
1503,777
1504,777
1505,777
1506,777
1507,777
1508,777
1509,777
1510,777
1511,777
1512,777
1513,777
1514,777
1515,777
1516,777
1517,777
1518,777
1519,777
1520,777
1521,777
1522,777
1523,777
1524,777
1525,777
1526,777
1527,777
1528,777
1529,777
1530,777
1531,777
1532,777
1533,777
1534,777
1535,777
1536,777
1537,777
1538,777
1539,782
1540,782
1541,782
1542,782
1543,782
1544,782
1545,782
1546,782
1547,782
1548,782
1549,782
1550,782
1551,782
1552,782
1553,782
1554,782
1555,782
1556,782
1557,782
1558,782
1559,782
1560,782
1561,782
1562,782
1563,782
1564,782
1565,782
1566,782
1567,782
1568,782
1569,782
1570,782
1571,782
1572,782
1573,782
1574,782
1575,782
1576,782
1577,782
1578,782
1579,782
1580,782
1581,782
1582,782
1583,782
1584,782
1585,782
1586,782
1587,782
1588,782
1589,782
1590,782
1591,782
1592,782
1593,782
1594,782
1595,782
1596,782
1597,782
1598,782
1599,782
1600,782
1601,782
1602,782
1603,782
1604,782
1605,782
1606,782
1607,782
1608,782
1609,782
1610,782
1611,782
1612,782
1613,782
1614,782
1615,782
1616,782
1617,782
1618,782
1619,782
1620,782
1621,782
1622,782
1623,782
1624,782
1625,782
1626,782
1627,782
1628,782
1629,782
1630,782
