1,3
2,41
3,133
4,168
5,172
6,188
7,209
8,227
9,236
10,250
11,250
12,250
13,250
14,250
15,253
16,259
17,262
18,268
19,278
20,288
21,288
22,288
23,292
24,292
25,297
26,320
27,329
28,329
29,343
30,367
31,374
32,374
33,374
34,387
35,388
36,396
37,406
38,406
39,406
40,407
41,407
42,407
43,407
44,407
45,408
46,408
47,408
48,408
49,408
50,408
51,416
52,417
53,419
54,419
55,425
56,433
57,436
58,437
59,461
60,461
61,462
62,462
63,462
64,462
65,463
66,463
67,463
68,469
69,470
70,479
71,479
72,491
73,494
74,494
75,494
76,508
77,508
78,508
79,508
80,508
81,508
82,509
83,513
84,516
85,516
86,520
87,520
88,523
89,523
90,523
91,523
92,523
93,528
94,529
95,533
96,533
97,533
98,534
99,534
100,546
101,546
102,546
103,546
104,546
105,546
106,547
107,547
108,547
109,547
110,547
111,547
112,552
113,555
114,555
115,555
116,555
117,555
118,556
119,556
120,557
121,557
122,557
123,557
124,557
125,558
126,558
127,558
128,558
129,558
130,558
131,570
132,570
133,570
134,573
135,574
136,574
137,575
138,592
139,592
140,592
141,592
142,598
143,598
144,598
145,598
146,598
147,598
148,598
149,598
150,598
151,598
152,599
153,599
154,600
155,600
156,605
157,605
158,605
159,605
160,605
161,609
162,609
163,609
164,610
165,610
166,610
167,610
168,610
169,610
170,611
171,617
172,617
173,620
174,628
175,641
176,641
177,641
178,641
179,641
180,641
181,642
182,642
183,642
184,643
185,645
186,645
187,645
188,645
189,645
190,645
191,645
192,645
193,645
194,645
195,645
196,646
197,647
198,647
199,648
200,648
201,649
202,649
203,649
204,649
205,649
206,649
207,649
208,649
209,649
210,649
211,649
212,649
213,650
214,650
215,652
216,652
217,652
218,652
219,652
220,652
221,652
222,652
223,652
224,652
225,653
226,653
227,653
228,653
229,653
230,653
231,653
232,653
233,653
234,653
235,653
236,655
237,655
238,655
239,656
240,656
241,656
242,656
243,673
244,673
245,674
246,675
247,675
248,676
249,676
250,676
251,676
252,676
253,676
254,676
255,676
256,676
257,676
258,676
259,677
260,677
261,677
262,677
263,677
264,677
265,678
266,678
267,678
268,678
269,678
270,678
271,678
272,678
273,678
274,679
275,681
276,681
277,681
278,681
279,681
280,682
281,682
282,682
283,682
284,682
285,682
286,682
287,682
288,682
289,682
290,682
291,682
292,682
293,682
294,682
295,682
296,682
297,682
298,682
299,682
300,682
301,683
302,683
303,683
304,683
305,683
306,683
307,683
308,691
309,691
310,691
311,691
312,691
313,691
314,691
315,691
316,691
317,691
318,691
319,691
320,691
321,691
322,691
323,691
324,691
325,691
326,691
327,691
328,691
329,692
330,692
331,692
332,692
333,692
334,692
335,692
336,692
337,692
338,692
339,692
340,692
341,692
342,694
343,694
344,694
345,694
346,694
347,694
348,694
349,694
350,694
351,694
352,694
353,695
354,695
355,695
356,695
357,696
358,696
359,696
360,696
361,696
362,698
363,698
364,698
365,698
366,698
367,698
368,698
369,700
370,700
371,700
372,700
373,700
374,700
375,700
376,700
377,700
378,700
379,700
380,700
381,700
382,700
383,700
384,700
385,700
386,700
387,700
388,700
389,700
390,700
391,700
392,700
393,700
394,700
395,700
396,700
397,700
398,700
399,700
400,700
401,700
402,700
403,700
404,700
405,700
406,700
407,700
408,700
409,700
410,701
411,701
412,701
413,701
414,701
415,701
416,701
417,701
418,701
419,701
420,701
421,701
422,701
423,701
424,701
425,701
426,703
427,703
428,703
429,703
430,703
431,703
432,703
433,703
434,703
435,703
436,703
437,703
438,704
439,704
440,704
441,704
442,704
443,704
444,704
445,704
446,704
447,704
448,704
449,704
450,704
451,704
452,704
453,704
454,704
455,704
456,704
457,704
458,704
459,704
460,704
461,704
462,708
463,708
464,708
465,708
466,708
467,708
468,708
469,708
470,708
471,708
472,716
473,716
474,716
475,716
476,716
477,716
478,716
479,716
480,717
481,717
482,717
483,717
484,717
485,717
486,717
487,717
488,717
489,717
490,717
491,717
492,717
493,717
494,717
495,717
496,717
497,717
498,717
499,717
500,717
501,717
502,717
503,717
504,717
505,717
506,717
507,717
508,717
509,717
510,717
511,717
512,717
513,717
514,717
515,717
516,717
517,717
518,717
519,717
520,717
521,717
522,717
523,717
524,717
525,717
526,717
527,717
528,717
529,717
530,717
531,717
532,717
533,717
534,717
535,717
536,717
537,717
538,717
539,717
540,717
541,717
542,717
543,717
544,717
545,717
546,717
547,717
548,717
549,717
550,717
551,717
552,717
553,717
554,717
555,717
556,717
557,717
558,717
559,718
560,718
561,718
562,718
563,718
564,718
565,718
566,718
567,718
568,720
569,720
570,720
571,720
572,720
573,720
574,720
575,720
576,720
577,720
578,720
579,720
580,720
581,720
582,720
583,720
584,720
585,720
586,720
587,720
588,720
589,721
590,721
591,721
592,721
593,721
594,721
595,721
596,721
597,721
598,721
599,721
600,721
601,721
602,722
603,722
604,722
605,722
606,722
607,722
608,722
609,722
610,722
611,722
612,722
613,722
614,722
615,722
616,722
617,722
618,722
619,722
620,722
621,722
622,722
623,722
624,722
625,722
626,722
627,722
628,722
629,722
630,722
631,722
632,722
633,722
634,722
635,722
636,722
637,722
638,722
639,722
640,722
641,722
642,722
643,722
644,722
645,722
646,722
647,722
648,722
649,722
650,722
651,722
652,722
653,722
654,722
655,722
656,722
657,722
658,722
659,722
660,722
661,722
662,722
663,722
664,722
665,722
666,722
667,722
668,722
669,722
670,722
671,722
672,722
673,722
674,722
675,722
676,723
677,726
678,726
679,728
680,728
681,728
682,728
683,728
684,728
685,728
686,728
687,728
688,728
689,728
690,728
691,728
692,728
693,728
694,728
695,728
696,728
697,728
698,728
699,728
700,728
701,728
702,728
703,728
704,728
705,728
706,728
707,728
708,728
709,728
710,728
711,728
712,728
713,728
714,728
715,728
716,728
717,728
718,728
719,728
720,728
721,728
722,728
723,728
724,728
725,728
726,728
727,728
728,728
729,728
730,728
731,728
732,728
733,728
734,728
735,728
736,728
737,728
738,728
739,728
740,728
741,728
742,728
743,729
744,733
745,733
746,733
747,733
748,733
749,733
750,733
751,733
752,733
753,733
754,733
755,733
756,733
757,733
758,733
759,733
760,734
761,734
762,734
763,734
764,734
765,734
766,734
767,734
768,734
769,734
770,734
771,734
772,734
773,734
774,734
775,734
776,734
777,734
778,734
779,734
780,734
781,734
782,734
783,734
784,734
785,734
786,734
787,734
788,734
789,734
790,734
791,734
792,734
793,734
794,734
795,734
796,734
797,734
798,734
799,734
800,734
801,734
802,734
803,734
804,734
805,734
806,734
807,734
808,734
809,734
810,734
811,734
812,735
813,735
814,735
815,736
816,736
817,736
818,736
819,737
820,737
821,737
822,737
823,740
824,742
825,742
826,742
827,742
828,742
829,742
830,742
831,742
832,742
833,742
834,742
835,742
836,742
837,742
838,742
839,742
840,742
841,742
842,742
843,742
844,742
845,742
846,742
847,742
848,742
849,742
850,742
851,742
852,742
853,742
854,742
855,742
856,742
857,742
858,742
859,742
860,742
861,742
862,742
863,742
864,743
865,743
866,743
867,743
868,744
869,744
870,744
871,744
872,744
873,744
874,744
875,744
876,744
877,744
878,744
879,744
880,744
881,744
882,747
883,747
884,747
885,747
886,747
887,747
888,747
889,747
890,747
891,747
892,747
893,747
894,747
895,747
896,747
897,747
898,747
899,747
900,747
901,747
902,747
903,747
904,747
905,747
906,747
907,747
908,747
909,747
910,747
911,747
912,747
913,747
914,747
915,747
916,747
917,747
918,747
919,747
920,747
921,747
922,747
923,747
924,747
925,747
926,747
927,747
928,747
929,747
930,747
931,747
932,747
933,747
934,747
935,747
936,747
937,747
938,747
939,747
940,747
941,747
942,747
943,747
944,748
945,748
946,748
947,748
948,748
949,748
950,748
951,748
952,748
953,748
954,748
955,748
956,748
957,748
958,748
959,748
960,748
961,748
962,748
963,748
964,748
965,748
966,748
967,748
968,748
969,748
970,748
971,748
972,748
973,748
974,748
975,748
976,748
977,748
978,748
979,748
980,748
981,748
982,748
983,751
984,751
985,751
986,751
987,751
988,751
989,751
990,751
991,751
992,751
993,751
994,751
995,752
996,752
997,752
998,752
999,752
1000,752
1001,752
1002,752
1003,752
1004,752
1005,752
1006,752
1007,752
1008,752
1009,752
1010,752
1011,752
1012,752
1013,752
1014,752
1015,752
1016,752
1017,752
1018,753
1019,753
1020,753
1021,753
1022,753
1023,753
1024,753
1025,753
1026,753
1027,753
1028,753
1029,753
1030,753
1031,753
1032,753
1033,753
1034,753
1035,753
1036,753
1037,753
1038,753
1039,753
1040,753
1041,753
1042,753
1043,753
1044,753
1045,753
1046,753
1047,753
1048,753
1049,753
1050,753
1051,753
1052,753
1053,753
1054,753
1055,753
1056,753
1057,753
1058,753
1059,753
1060,753
1061,753
1062,753
1063,753
1064,753
1065,753
1066,753
1067,753
1068,753
1069,753
1070,753
1071,753
1072,753
1073,753
1074,753
1075,753
1076,753
1077,753
1078,753
1079,753
1080,753
1081,753
1082,753
1083,753
1084,753
1085,753
1086,753
1087,753
1088,753
1089,753
1090,753
1091,753
1092,753
1093,753
1094,753
1095,753
1096,753
1097,753
1098,753
1099,756
1100,756
1101,756
1102,756
1103,756
1104,756
1105,756
1106,756
1107,756
1108,756
1109,756
1110,756
1111,757
1112,757
1113,757
1114,757
1115,757
1116,757
1117,757
1118,757
1119,757
1120,757
1121,757
1122,758
1123,758
1124,758
1125,758
1126,758
1127,758
1128,758
1129,758
1130,758
1131,758
1132,758
1133,758
1134,758
1135,758
1136,758
1137,758
1138,758
1139,758
1140,758
1141,758
1142,758
1143,758
1144,758
1145,758
1146,758
1147,758
1148,758
1149,758
1150,758
1151,758
1152,758
1153,758
1154,758
1155,758
1156,758
1157,758
1158,758
1159,758
1160,758
1161,758
1162,758
1163,758
1164,758
1165,758
1166,758
1167,758
1168,758
1169,758
1170,758
1171,758
1172,758
1173,758
1174,758
1175,758
1176,758
1177,758
1178,758
1179,758
1180,758
1181,758
1182,758
1183,758
1184,758
1185,758
1186,758
1187,759
1188,759
1189,759
1190,759
1191,759
1192,759
1193,759
1194,759
1195,759
1196,759
1197,759
1198,759
1199,759
1200,759
1201,759
1202,759
1203,759
1204,759
1205,759
1206,759
1207,759
1208,759
1209,759
1210,759
1211,759
1212,759
1213,759
1214,759
1215,759
1216,759
1217,759
1218,759
1219,759
1220,759
1221,759
1222,759
1223,759
1224,759
1225,759
1226,759
1227,759
1228,759
1229,759
1230,759
1231,759
1232,759
1233,759
1234,759
1235,759
1236,762
1237,762
1238,762
1239,762
1240,762
1241,762
1242,762
1243,762
1244,762
1245,762
1246,762
1247,762
1248,762
1249,762
1250,762
1251,762
1252,762
1253,762
1254,762
1255,762
1256,762
1257,763
1258,763
1259,763
1260,763
1261,763
1262,763
1263,763
1264,763
1265,763
1266,763
1267,763
1268,763
1269,763
1270,763
1271,763
1272,763
1273,763
1274,763
1275,763
1276,763
1277,763
1278,763
1279,763
1280,763
1281,763
1282,763
1283,763
1284,763
1285,763
1286,763
1287,763
1288,763
1289,763
1290,763
1291,763
1292,763
1293,763
1294,763
1295,763
1296,763
1297,763
1298,763
1299,763
1300,763
1301,763
1302,763
1303,763
1304,763
1305,763
1306,763
1307,763
1308,763
1309,763
1310,763
1311,763
1312,763
1313,763
1314,763
1315,763
1316,763
1317,763
1318,763
1319,763
1320,763
1321,763
1322,763
1323,763
1324,763
1325,763
1326,763
1327,763
1328,763
1329,763
1330,763
1331,763
1332,763
1333,763
1334,763
1335,763
1336,763
1337,763
1338,763
1339,763
1340,763
1341,763
1342,763
1343,763
1344,763
1345,763
1346,763
1347,763
1348,763
1349,763
1350,763
1351,763
1352,763
1353,763
1354,763
1355,763
1356,763
1357,763
1358,763
1359,763
1360,763
1361,763
1362,763
1363,763
1364,763
1365,763
1366,763
1367,763
1368,763
1369,763
1370,763
1371,763
1372,763
1373,763
1374,763
1375,763
1376,763
1377,763
1378,763
1379,763
1380,763
1381,763
1382,763
1383,763
1384,763
1385,763
1386,763
1387,763
1388,763
1389,763
1390,763
1391,763
1392,763
1393,763
1394,763
1395,763
1396,763
1397,763
1398,763
1399,763
1400,763
1401,763
1402,763
1403,763
1404,763
1405,763
1406,763
1407,763
1408,763
1409,763
1410,763
1411,763
1412,763
1413,763
1414,763
1415,763
1416,763
1417,763
1418,763
1419,763
1420,763
1421,763
1422,763
1423,763
1424,763
1425,763
1426,763
1427,763
1428,763
1429,763
1430,763
1431,763
1432,763
1433,763
1434,763
1435,763
1436,763
1437,763
1438,763
1439,763
1440,763
1441,763
1442,763
1443,763
1444,763
1445,763
1446,763
1447,763
1448,763
1449,763
1450,763
1451,763
1452,763
1453,763
1454,763
1455,763
1456,763
1457,763
1458,763
1459,764
1460,764
1461,764
1462,764
1463,764
1464,764
1465,764
1466,764
1467,764
1468,764
1469,764
1470,764
1471,764
1472,764
1473,764
1474,764
1475,764
1476,764
1477,764
1478,764
1479,764
1480,764
1481,764
1482,764
1483,764
1484,764
1485,764
1486,764
1487,764
1488,764
1489,764
1490,764
1491,764
1492,764
1493,764
1494,764
1495,764
1496,764
1497,764
1498,764
1499,764
1500,764
1501,764
1502,764
1503,764
1504,764
1505,764
1506,764
1507,764
1508,764
1509,764
1510,764
1511,764
1512,764
1513,764
1514,764
1515,764
1516,764
1517,764
1518,764
1519,764
1520,764
1521,764
1522,764
1523,764
1524,764
1525,764
1526,764
1527,764
1528,764
1529,764
1530,764
1531,764
1532,764
1533,764
1534,764
1535,764
1536,764
1537,764
1538,764
1539,764
1540,764
1541,764
1542,764
1543,764
1544,764
1545,764
1546,764
1547,764
1548,764
1549,764
1550,764
1551,764
1552,764
1553,764
1554,764
1555,764
1556,764
1557,764
1558,764
1559,765
1560,765
1561,765
1562,765
1563,765
1564,765
1565,765
1566,765
1567,765
1568,765
1569,765
1570,765
1571,765
1572,765
1573,765
1574,765
1575,765
1576,765
1577,765
1578,765
1579,765
1580,765
1581,765
1582,765
1583,765
1584,765
1585,765
1586,765
1587,765
1588,765
1589,765
1590,765
1591,765
1592,765
1593,765
1594,765
1595,765
1596,765
1597,765
1598,765
1599,765
1600,765
1601,765
1602,765
1603,765
1604,765
1605,765
1606,765
1607,765
1608,765
1609,765
1610,765
1611,765
1612,765
1613,765
1614,765
1615,765
1616,765
1617,765
1618,765
1619,765
1620,765
1621,765
1622,765
1623,765
1624,765
1625,765
1626,765
1627,765
1628,765
1629,765
1630,765
