1,8
2,16
3,27
4,32
5,33
6,33
7,36
8,36
9,37
10,37
11,37
12,38
13,38
14,38
15,38
16,38
17,38
18,38
19,38
20,38
21,38
22,38
23,38
24,38
25,39
26,39
27,39
28,39
29,39
30,42
31,42
32,43
33,43
34,43
35,44
36,44
37,44
38,44
39,44
40,44
41,44
42,44
43,44
44,44
45,44
46,44
47,44
48,44
49,44
50,44
51,44
52,44
53,44
54,44
55,44
56,44
57,44
58,44
59,44
60,44
61,44
62,44
63,44
64,44
65,44
66,44
67,44
68,44
69,44
70,44
71,44
72,44
73,44
74,44
75,44
76,44
77,44
78,44
79,44
80,44
81,44
82,44
83,44
84,44
85,44
86,44
87,44
88,44
89,44
90,44
