1,13
2,13
3,21
4,25
5,31
6,36
7,37
8,39
9,39
10,40
11,40
12,40
13,40
14,40
15,40
16,40
17,41
18,42
19,42
20,43
21,43
22,43
23,43
24,43
25,43
26,43
27,43
28,43
29,43
30,43
31,43
32,43
33,43
34,43
35,43
36,43
37,43
38,43
39,43
40,43
41,43
42,43
43,43
44,43
45,43
46,43
47,43
48,43
49,44
50,44
51,44
52,44
53,44
54,44
55,44
56,44
57,44
58,44
59,44
60,44
61,44
62,44
63,44
64,44
65,44
66,44
67,44
68,44
69,44
70,44
71,44
72,44
73,44
74,44
75,44
76,44
77,44
78,44
79,44
80,44
81,44
82,44
83,44
84,44
85,44
86,44
87,44
88,44
89,44
90,44
