1,9
2,21
3,25
4,31
5,31
6,35
7,35
8,36
9,39
10,42
11,42
12,42
13,42
14,43
15,43
16,43
17,43
18,43
19,46
20,46
21,46
22,46
23,47
24,47
25,47
26,47
27,47
28,47
29,47
30,47
31,47
32,47
33,47
34,47
35,47
36,47
37,47
38,47
39,47
40,47
41,48
42,48
43,48
44,48
45,48
46,48
47,48
48,48
49,48
50,48
51,48
52,48
53,48
54,48
55,48
56,48
57,48
58,48
59,48
60,48
61,48
62,48
63,48
64,48
65,48
66,48
67,48
68,48
69,48
70,48
71,48
72,48
73,48
74,48
75,48
76,48
77,48
78,48
79,49
80,49
81,49
82,49
83,49
84,49
85,49
86,49
87,49
88,49
89,49
90,49
91,49
92,50
