1,8
2,13
3,23
4,23
5,28
6,29
7,35
8,35
9,39
10,39
11,42
12,42
13,42
14,42
15,44
16,44
17,46
18,46
19,46
20,46
21,47
22,47
23,47
24,47
25,47
26,47
27,47
28,48
29,48
30,48
31,48
32,48
33,48
34,48
35,48
36,48
37,49
38,49
39,49
40,49
41,49
42,49
43,49
44,49
45,49
46,49
47,49
48,49
49,49
50,49
51,49
52,49
53,49
54,49
55,49
56,49
57,49
58,49
59,49
60,49
61,49
62,49
63,49
64,49
65,49
66,49
67,49
68,49
69,49
70,49
71,49
72,49
73,49
74,49
75,49
76,49
77,49
78,49
79,49
80,49
81,49
82,49
83,49
84,50
