1,42
2,87
3,173
4,203
5,212
6,258
7,269
8,272
9,287
10,305
11,315
12,320
13,372
14,377
15,394
16,399
17,401
18,409
19,426
20,445
21,445
22,446
23,456
24,458
25,458
26,463
27,463
28,466
29,466
30,466
31,469
32,474
33,486
34,494
35,497
36,497
37,497
38,499
39,499
40,502
41,506
42,512
43,514
44,515
45,525
46,535
47,541
48,553
49,553
50,553
51,558
52,558
53,562
54,562
55,562
56,566
57,566
58,568
59,571
60,571
61,572
62,572
63,572
64,572
65,575
66,578
67,579
68,591
69,602
70,610
71,610
72,610
73,610
74,614
75,615
76,615
77,616
78,616
79,617
80,617
81,618
82,618
83,618
84,619
85,619
86,629
87,629
88,629
89,629
90,629
91,630
92,630
93,630
94,630
95,636
96,636
97,637
98,637
99,638
100,638
101,640
102,640
103,643
104,644
105,644
106,644
107,644
108,644
109,645
110,645
111,645
112,645
113,645
114,645
115,645
116,646
117,648
118,648
119,648
120,648
121,649
122,656
123,658
124,658
125,658
126,658
127,658
128,658
129,658
130,658
131,661
132,668
133,668
134,668
135,668
136,668
137,668
138,668
139,668
140,668
141,668
142,668
143,668
144,668
145,668
146,668
147,669
148,669
149,669
150,671
151,672
152,672
153,672
154,672
155,672
156,673
157,675
158,675
159,675
160,675
161,678
162,678
163,680
164,680
165,680
166,682
167,682
168,683
169,683
170,683
171,683
172,684
173,684
174,685
175,685
176,685
177,685
178,685
179,685
180,685
181,685
182,687
183,688
184,688
185,688
186,688
187,690
188,697
189,697
190,698
191,699
192,700
193,700
194,700
195,700
196,700
197,700
198,700
199,700
200,701
201,701
202,701
203,701
204,701
205,701
206,701
207,701
208,702
209,702
210,702
211,702
212,702
213,703
214,703
215,703
216,703
217,703
218,703
219,703
220,703
221,703
222,703
223,703
224,703
225,705
226,706
227,706
228,706
229,706
230,707
231,707
232,707
233,707
234,707
235,707
236,707
237,707
238,708
239,708
240,708
241,708
242,708
243,708
244,708
245,708
246,708
247,708
248,708
249,708
250,708
251,708
252,708
253,708
254,708
255,708
256,708
257,708
258,708
259,708
260,708
261,708
262,708
263,708
264,708
265,708
266,708
267,708
268,708
269,708
270,708
271,708
272,708
273,708
274,708
275,710
276,710
277,710
278,710
279,710
280,713
281,713
282,714
283,714
284,714
285,714
286,714
287,714
288,714
289,714
290,714
291,714
292,714
293,714
294,714
295,714
296,714
297,714
298,714
299,714
300,714
301,714
302,714
303,714
304,714
305,715
306,715
307,715
308,715
309,715
310,715
311,715
312,715
313,715
314,715
315,715
316,716
317,716
318,716
319,716
320,716
321,716
322,716
323,716
324,716
325,716
326,716
327,716
328,716
329,716
330,716
331,716
332,716
333,716
334,716
335,717
336,717
337,717
338,717
339,718
340,718
341,718
342,718
343,718
344,718
345,718
346,718
347,718
348,718
349,718
350,718
351,718
352,718
353,718
354,718
355,718
356,718
357,718
358,718
359,718
360,718
361,719
362,719
363,719
364,719
365,719
366,719
367,719
368,719
369,719
370,719
371,719
372,719
373,719
374,719
375,719
376,719
377,722
378,723
379,723
380,723
381,723
382,723
383,723
384,723
385,723
386,723
387,723
388,723
389,723
390,723
391,723
392,723
393,723
394,723
395,723
396,723
397,723
398,723
399,723
400,723
401,723
402,723
403,723
404,723
405,724
406,724
407,724
408,724
409,724
410,724
411,724
412,724
413,724
414,724
415,724
416,724
417,724
418,724
419,724
420,724
421,724
422,724
423,724
424,724
425,724
426,724
427,724
428,724
429,724
430,724
431,724
432,724
433,724
434,724
435,724
436,724
437,724
438,724
439,724
440,724
441,724
442,724
443,724
444,725
445,726
446,726
447,727
448,727
449,727
450,727
451,727
452,727
453,727
454,727
455,727
456,727
457,727
458,727
459,727
460,727
461,727
462,727
463,727
464,727
465,727
466,727
467,727
468,727
469,727
470,727
471,727
472,727
473,727
474,727
475,727
476,727
477,727
478,727
479,727
480,727
481,727
482,727
483,729
484,729
485,729
486,730
487,730
488,730
489,730
490,730
491,730
492,730
493,730
494,730
495,730
496,730
497,730
498,730
499,730
500,730
501,730
502,730
503,730
504,730
505,730
506,730
507,730
508,730
509,730
510,730
511,730
512,730
513,730
514,730
515,730
516,730
517,730
518,730
519,730
520,730
521,730
522,730
523,730
524,730
525,730
526,730
527,730
528,730
529,730
530,730
531,730
532,730
533,730
534,730
535,730
536,730
537,730
538,730
539,730
540,730
541,730
542,730
543,730
544,730
545,730
546,730
547,730
548,730
549,730
550,730
551,730
552,730
553,730
554,730
555,730
556,730
557,730
558,730
559,730
560,730
561,730
562,730
563,730
564,730
565,730
566,730
567,730
568,730
569,730
570,730
571,730
572,730
573,730
574,730
575,730
576,730
577,731
578,731
579,731
580,731
581,731
582,731
583,731
584,731
585,731
586,731
587,731
588,731
589,731
590,731
591,731
592,731
593,731
594,731
595,731
596,731
597,731
598,731
599,731
600,731
601,731
602,731
603,731
604,731
605,731
606,731
607,731
608,731
609,731
610,731
611,731
612,731
613,731
614,731
615,731
616,731
617,731
618,731
619,731
620,731
621,731
622,731
623,731
624,731
625,731
626,731
627,731
628,731
629,731
630,731
631,731
632,731
633,731
634,731
635,731
636,731
637,731
638,731
639,731
640,731
641,731
642,731
643,731
644,731
645,731
646,731
647,731
648,731
649,731
650,731
651,731
652,731
653,731
654,731
655,731
656,731
657,731
658,731
659,731
660,731
661,732
662,732
663,732
664,732
665,732
666,732
667,732
668,732
669,732
670,732
671,732
672,732
673,732
674,732
675,732
676,732
677,732
678,732
679,732
680,732
681,732
682,732
683,732
684,732
685,732
686,732
687,732
688,732
689,732
690,732
691,732
692,732
693,732
694,732
695,732
696,732
697,732
698,732
699,732
700,732
701,732
702,732
703,732
704,732
705,732
706,732
707,732
708,732
709,732
710,732
711,732
712,732
713,732
714,732
715,732
716,732
717,732
718,732
719,732
720,733
721,733
722,733
723,733
724,733
725,733
726,733
727,733
728,733
729,733
730,733
731,733
732,733
733,733
734,733
735,733
736,733
737,733
738,733
739,733
740,733
741,733
742,734
743,734
744,734
745,734
746,734
747,734
748,734
749,734
750,734
751,734
752,734
753,734
754,734
755,734
756,734
757,734
758,734
759,734
760,743
761,743
762,743
763,743
764,743
765,743
766,743
767,743
768,743
769,743
770,743
771,743
772,743
773,743
774,743
775,743
776,743
777,743
778,743
779,743
780,743
781,743
782,743
783,743
784,743
785,743
786,743
787,743
788,743
789,743
790,743
791,743
792,743
793,743
794,743
795,743
796,743
797,743
798,743
799,743
800,743
801,743
802,743
803,743
804,743
805,743
806,743
807,743
808,743
809,743
810,743
811,743
812,743
813,743
814,743
815,743
816,743
817,743
818,743
819,743
820,743
821,743
822,743
823,743
824,743
825,743
826,743
827,743
828,743
829,743
830,743
831,743
832,743
833,743
834,743
835,743
836,743
837,743
838,743
839,743
840,743
841,743
842,743
843,743
844,743
845,743
846,743
847,743
848,743
849,743
850,743
851,743
852,743
853,743
854,743
855,743
856,743
857,743
858,743
859,743
860,743
861,743
862,743
863,743
864,743
865,743
866,743
867,743
868,743
869,743
870,743
871,743
872,745
873,745
874,745
875,745
876,745
877,745
878,745
879,745
880,745
881,745
882,745
883,745
884,745
885,745
886,745
887,745
888,745
889,745
890,745
891,745
892,745
893,745
894,745
895,745
896,747
897,747
898,747
899,747
900,747
901,747
902,747
903,747
904,747
905,747
906,747
907,747
908,747
909,747
910,747
911,747
912,747
913,747
914,747
915,747
916,747
917,747
918,747
919,747
920,747
921,747
922,747
923,747
924,747
925,747
926,747
927,747
928,747
929,747
930,747
931,747
932,747
933,747
934,747
935,747
936,747
937,750
938,750
939,750
940,750
941,750
942,750
943,750
944,750
945,750
946,750
947,750
948,750
949,750
950,750
951,750
952,750
953,750
954,750
955,750
956,750
957,750
958,750
959,750
960,750
961,750
962,750
963,750
964,750
965,750
966,750
967,750
968,750
969,750
970,750
971,750
972,750
973,750
974,750
975,750
976,750
977,750
978,750
979,750
980,750
981,750
982,750
983,750
984,750
985,750
986,750
987,750
988,750
989,750
990,750
991,750
992,750
993,750
994,750
995,750
996,750
997,750
998,750
999,750
1000,750
1001,750
1002,750
1003,750
1004,750
1005,750
1006,750
1007,750
1008,750
1009,750
1010,750
1011,750
1012,750
1013,750
1014,750
1015,750
1016,750
1017,750
1018,750
1019,750
1020,750
1021,750
1022,750
1023,751
1024,751
1025,751
1026,751
1027,751
1028,751
1029,751
1030,751
1031,751
1032,751
1033,751
1034,751
1035,751
1036,751
1037,751
1038,751
1039,751
1040,751
1041,751
1042,751
1043,751
1044,751
1045,751
1046,751
1047,751
1048,751
1049,751
1050,751
1051,751
1052,751
1053,751
1054,751
1055,751
1056,751
1057,751
1058,751
1059,751
1060,751
1061,751
1062,751
1063,751
1064,751
1065,751
1066,751
1067,751
1068,751
1069,751
1070,751
1071,751
1072,751
1073,751
1074,751
1075,751
1076,751
1077,751
1078,751
1079,751
1080,751
1081,751
1082,751
1083,751
1084,751
1085,751
1086,751
1087,751
1088,751
1089,751
1090,751
1091,751
1092,751
1093,751
1094,751
1095,751
1096,751
1097,751
1098,751
1099,751
1100,751
1101,751
1102,751
1103,751
1104,751
1105,751
1106,751
1107,751
1108,751
1109,751
1110,751
1111,751
1112,751
1113,751
1114,751
1115,751
1116,751
1117,751
1118,751
1119,751
1120,751
1121,751
1122,751
1123,751
1124,751
1125,751
1126,751
1127,751
1128,751
1129,751
1130,751
1131,751
1132,751
1133,751
1134,751
1135,751
1136,751
1137,751
1138,751
1139,751
1140,751
1141,751
1142,751
1143,751
1144,751
1145,751
1146,751
1147,751
1148,751
1149,751
1150,751
1151,751
1152,751
1153,751
1154,751
1155,751
1156,751
1157,751
1158,751
1159,751
1160,751
1161,751
1162,751
1163,751
1164,751
1165,751
1166,752
1167,752
1168,752
1169,752
1170,752
1171,752
1172,752
1173,752
1174,752
1175,752
1176,752
1177,752
1178,752
1179,752
1180,752
1181,752
1182,752
1183,752
1184,752
1185,752
1186,752
1187,752
1188,752
1189,752
1190,752
1191,752
1192,752
1193,752
1194,752
1195,752
1196,752
1197,752
1198,752
1199,752
1200,752
1201,752
1202,752
1203,752
1204,752
1205,752
1206,752
1207,752
1208,752
1209,752
1210,752
1211,752
1212,752
1213,752
1214,752
1215,752
1216,752
1217,752
1218,752
1219,752
1220,752
1221,752
1222,752
1223,752
1224,752
1225,752
1226,752
1227,752
1228,752
1229,752
1230,752
1231,752
1232,752
1233,752
1234,752
1235,752
1236,752
1237,752
1238,752
1239,752
1240,752
1241,752
1242,752
1243,752
1244,752
1245,752
1246,752
1247,752
1248,752
1249,752
1250,752
1251,752
1252,752
1253,752
1254,752
1255,752
1256,752
1257,752
1258,752
1259,752
1260,752
1261,752
1262,752
1263,752
1264,752
1265,752
1266,752
1267,752
1268,752
1269,752
1270,752
1271,752
1272,752
1273,752
1274,752
1275,752
1276,752
1277,752
1278,752
1279,752
1280,752
1281,752
1282,752
1283,752
1284,752
1285,752
1286,752
1287,752
1288,752
1289,752
1290,752
1291,752
1292,752
1293,752
1294,752
1295,752
1296,752
1297,752
1298,752
1299,752
1300,752
1301,752
1302,752
1303,752
1304,752
1305,752
1306,752
1307,752
1308,752
1309,752
1310,752
1311,752
1312,752
1313,752
1314,752
1315,752
1316,752
1317,752
1318,752
1319,752
1320,752
1321,752
1322,752
1323,752
1324,752
1325,752
1326,752
1327,752
1328,752
1329,752
1330,752
1331,752
1332,752
1333,752
1334,752
1335,752
1336,752
1337,752
1338,752
1339,752
1340,752
1341,752
1342,752
1343,752
1344,752
1345,752
1346,752
1347,752
1348,752
1349,752
1350,752
1351,752
1352,752
1353,752
1354,752
1355,752
1356,752
1357,752
1358,752
1359,752
1360,752
1361,752
1362,752
1363,752
1364,752
1365,752
1366,752
1367,752
1368,752
1369,752
1370,752
1371,752
1372,752
1373,752
1374,752
1375,752
1376,752
1377,752
1378,752
1379,752
1380,752
1381,752
1382,752
1383,752
1384,752
1385,752
1386,752
1387,752
1388,752
1389,752
1390,752
1391,752
1392,752
1393,752
1394,752
1395,752
1396,752
1397,752
1398,752
1399,752
1400,752
1401,752
1402,752
1403,752
1404,752
1405,752
1406,752
1407,752
1408,752
1409,752
1410,752
1411,752
1412,752
1413,752
1414,752
1415,752
1416,752
1417,752
1418,752
1419,752
1420,752
1421,752
1422,752
1423,752
1424,752
1425,752
1426,752
1427,752
1428,752
1429,752
1430,752
1431,752
1432,752
1433,752
1434,752
1435,752
1436,752
1437,752
1438,752
1439,752
1440,752
1441,752
1442,752
1443,752
1444,752
1445,752
1446,752
1447,752
1448,752
1449,752
1450,752
1451,752
1452,752
1453,752
1454,752
1455,752
1456,752
1457,752
1458,752
1459,752
1460,752
1461,752
1462,752
1463,752
1464,752
1465,752
1466,752
1467,753
1468,753
1469,753
1470,753
1471,753
1472,753
1473,753
1474,753
1475,753
1476,753
1477,753
1478,753
1479,753
1480,753
1481,753
1482,753
1483,753
1484,753
1485,753
1486,753
1487,753
1488,753
1489,753
1490,753
1491,753
1492,753
1493,753
1494,754
1495,754
1496,754
1497,754
1498,754
1499,754
1500,754
1501,754
1502,754
1503,754
1504,754
1505,754
1506,754
1507,754
1508,754
1509,754
1510,754
1511,754
1512,754
1513,754
1514,754
1515,754
1516,754
1517,754
1518,754
1519,754
1520,754
1521,754
1522,754
1523,754
1524,754
1525,754
1526,754
1527,754
1528,754
1529,754
1530,754
1531,754
1532,754
1533,754
1534,754
1535,754
1536,754
1537,754
1538,754
1539,754
1540,754
1541,754
1542,754
1543,754
1544,754
1545,754
1546,754
1547,754
1548,754
1549,754
1550,754
1551,754
1552,754
1553,754
1554,754
1555,754
1556,754
1557,754
1558,754
1559,754
1560,754
