1,23
2,32
3,41
4,44
5,45
6,49
7,49
8,50
9,52
10,53
11,53
12,53
13,58
14,58
15,60
16,63
17,66
18,66
19,67
20,68
21,68
22,68
23,68
24,69
25,70
26,70
27,70
28,70
29,70
30,70
31,71
32,71
33,71
34,71
35,71
36,71
37,72
38,72
39,72
40,72
41,72
42,72
43,72
44,72
45,72
46,72
47,72
48,72
49,72
50,72
51,76
52,76
53,76
54,76
55,76
56,76
57,76
58,76
59,76
60,76
61,76
62,76
63,76
64,76
65,76
66,76
67,76
68,76
69,87
70,87
71,87
72,87
73,87
74,87
75,87
76,87
77,87
78,87
79,91
80,91
81,91
82,91
83,91
84,91
85,91
86,91
87,91
88,91
89,91
90,91
91,91
92,91
93,91
94,91
95,91
96,91
97,91
98,91
99,91
100,91
101,91
102,91
103,91
104,91
105,91
106,91
107,91
108,91
109,91
110,91
111,91
112,91
113,91
114,91
115,91
116,91
117,91
118,91
119,91
120,91
121,91
122,91
123,91
124,91
125,91
126,91
127,91
128,91
129,91
130,91
131,91
132,91
133,91
134,91
135,91
136,91
137,91
138,91
139,91
140,91
141,91
142,91
143,94
144,94
145,94
146,94
147,94
148,94
149,94
150,94
151,94
152,94
153,94
154,94
155,94
156,95
157,95
158,95
159,95
160,95
161,95
162,95
163,95
164,95
165,95
166,95
167,95
168,95
169,95
170,95
171,95
172,95
173,95
174,95
175,95
176,95
177,95
178,95
179,97
180,97
181,97
182,97
183,97
184,97
185,97
186,97
187,97
188,97
189,97
190,97
191,97
192,97
193,97
194,97
195,97
196,97
197,97
198,97
199,97
200,97
201,97
202,97
