1,9
2,9
3,17
4,17
5,18
6,24
7,27
8,29
9,29
10,30
11,30
12,31
13,31
14,34
15,35
16,37
17,37
18,38
19,38
20,38
21,38
22,38
23,41
24,42
25,42
26,42
27,42
28,42
29,42
30,42
31,42
32,42
33,42
34,42
35,42
36,42
37,42
38,42
39,42
40,42
41,42
42,42
43,43
44,43
45,43
46,43
47,43
48,43
49,43
50,43
51,44
