1,121
2,156
3,169
4,176
5,220
6,233
7,250
8,256
9,285
10,294
11,301
12,311
13,328
14,338
15,353
16,358
17,368
18,379
19,388
20,393
21,401
22,410
23,414
24,418
25,425
26,429
27,435
28,444
29,448
30,452
31,456
32,464
33,473
34,476
35,478
36,481
37,484
38,487
39,492
40,495
41,497
42,500
43,505
44,508
45,513
46,516
47,519
48,523
49,526
50,529
51,532
52,535
53,538
54,541
55,544
56,549
57,551
58,557
59,560
60,565
61,571
62,574
63,576
64,579
65,582
66,584
67,585
68,586
69,587
70,588
71,589
72,591
73,592
74,593
75,595
76,596
77,597
78,599
79,600
80,601
81,603
82,604
83,605
84,607
85,608
86,609
87,611
88,612
89,613
90,614
91,615
92,616
93,617
94,618
95,619
96,621
97,622
98,623
99,624
100,625
101,626
102,628
103,629
104,630
105,632
106,633
107,634
108,636
109,637
110,638
111,640
112,641
113,642
114,643
115,644
116,645
117,647
118,648
119,649
120,651
121,652
122,653
123,654
124,655
125,656
126,657
127,658
128,659
129,660
130,661
131,662
132,664
133,665
134,666
135,668
136,669
137,670
138,672
139,673
140,674
141,676
142,677
143,678
144,680
145,681
146,682
147,683
148,684
149,685
150,687
151,688
152,689
153,691
154,692
155,693
156,694
157,695
158,696
159,698
160,699
161,700
162,702
163,703
164,704
165,706
166,707
167,708
168,710
169,711
170,712
171,713
172,714
173,715
174,717
175,718
176,719
177,721
178,722
179,723
180,724
181,725
182,726
183,727
184,728
185,729
186,731
187,732
188,733
189,734
190,735
191,736
192,738
193,739
194,740
195,741
196,742
197,743
198,745
199,746
200,747
201,748
202,749
203,750
204,752
205,753
206,754
207,755
208,756
209,757
210,759
211,760
212,761
213,763
214,764
215,765
216,766
217,767
218,768
219,770
220,771
221,772
222,774
223,775
224,776
225,778
226,779
227,780
228,782
229,783
230,784
231,785
232,786
233,787
234,788
235,789
236,790
237,792
238,793
239,794
240,796
241,797
242,798
243,800
244,801
245,802
246,804
247,805
248,806
249,807
250,808
251,809
252,811
253,812
254,813
255,814
256,815
257,816
