1,48
2,60
3,95
4,114
5,184
6,194
7,203
8,207
9,256
10,278
11,287
12,295
13,297
14,301
15,309
16,334
17,334
18,334
19,336
20,336
21,336
22,340
23,350
24,356
25,358
26,369
27,369
28,371
29,377
30,381
31,382
32,387
33,388
34,393
35,416
36,417
37,417
38,430
39,440
40,448
41,488
42,490
43,492
44,503
45,503
46,505
47,511
48,512
49,514
50,514
51,514
52,514
53,514
54,515
55,526
56,527
57,527
58,527
59,528
60,528
61,528
62,528
63,528
64,528
65,529
66,529
67,529
68,529
69,537
70,538
71,538
72,538
73,538
74,538
75,538
76,541
77,541
78,541
79,542
80,542
81,549
82,549
83,549
84,549
85,550
86,550
87,550
88,550
89,550
90,550
91,550
92,555
93,555
94,555
95,555
96,556
97,556
98,559
99,559
100,559
101,560
102,560
103,560
104,560
105,560
106,568
107,568
108,568
109,570
110,570
111,571
112,571
113,572
114,572
115,572
116,572
117,576
118,576
119,576
120,577
121,577
122,578
123,578
124,578
125,578
126,578
127,578
128,578
129,578
130,578
131,578
132,578
133,578
134,578
135,578
136,580
137,580
138,580
139,582
140,582
141,582
142,582
143,582
144,582
145,597
146,597
147,597
148,597
149,597
150,597
151,597
152,597
153,597
154,597
155,597
156,597
157,597
158,598
159,598
160,598
161,598
162,598
163,598
164,600
165,600
166,600
167,603
168,603
169,603
170,603
171,603
172,603
173,603
174,603
175,607
176,607
177,610
178,610
179,610
180,610
181,610
182,610
183,611
184,611
185,611
186,611
187,611
188,616
189,616
190,617
191,620
192,620
193,621
194,621
195,622
196,623
197,624
198,624
199,624
200,624
201,624
202,624
203,624
204,624
205,625
206,625
207,625
208,625
209,625
210,627
211,627
212,629
213,629
214,629
215,629
216,629
217,629
218,629
219,629
220,629
221,629
222,630
223,630
224,630
225,630
226,630
227,630
228,630
229,630
230,630
231,630
232,630
233,630
234,630
235,633
236,633
237,633
238,633
239,633
240,634
241,634
242,634
243,634
244,634
245,634
246,634
247,634
248,635
249,635
250,635
251,635
252,637
253,637
254,637
255,637
256,637
257,637
258,637
259,637
260,637
261,637
262,637
263,637
264,637
265,637
266,637
267,637
268,637
269,637
270,637
271,637
272,637
273,637
274,637
275,637
276,637
277,637
278,637
279,637
280,637
281,637
282,637
283,637
284,637
285,637
286,637
287,637
288,637
289,637
290,637
291,637
292,643
293,643
294,643
295,643
296,643
297,643
298,645
299,645
300,645
301,645
302,645
303,645
304,645
305,645
306,645
307,658
308,658
309,658
310,658
311,658
312,658
313,658
314,658
315,658
316,658
317,658
318,658
319,658
320,658
321,658
322,659
323,659
324,660
325,660
326,660
327,660
328,660
329,660
330,660
331,660
332,660
333,660
334,660
335,660
336,660
337,660
338,660
339,661
340,661
341,661
342,661
343,661
344,664
345,664
346,665
347,665
348,665
349,666
350,666
351,666
352,666
353,666
354,666
355,669
356,670
357,670
358,670
359,670
360,671
361,671
362,671
363,676
364,676
365,677
366,677
367,677
368,677
369,677
370,677
371,677
372,677
373,678
374,678
375,678
376,678
377,678
378,678
379,678
380,678
381,678
382,678
383,678
384,678
385,678
386,678
387,678
388,678
389,678
390,678
391,678
392,678
393,678
394,678
395,678
396,680
397,680
398,680
399,680
400,680
401,680
402,680
403,681
404,681
405,681
406,681
407,681
408,681
409,681
410,681
411,681
412,681
413,681
414,681
415,681
416,681
417,681
418,681
419,681
420,681
421,681
422,681
423,681
424,683
425,683
426,683
427,684
428,684
429,684
430,684
431,684
432,684
433,684
434,684
435,684
436,684
437,684
438,684
439,685
440,685
441,686
442,686
443,686
444,686
445,686
446,686
447,686
448,686
449,686
450,686
451,686
452,686
453,686
454,686
455,690
456,690
457,690
458,690
459,690
460,690
461,690
462,690
463,690
464,690
465,690
466,690
467,690
468,690
469,697
470,697
471,698
472,698
473,698
474,698
475,698
476,698
477,698
478,698
479,698
480,698
481,698
482,698
483,698
484,698
485,698
486,698
487,698
488,698
489,698
490,698
491,698
492,698
493,698
494,698
495,698
496,698
497,698
498,698
499,698
500,698
501,698
502,698
503,698
504,699
505,700
506,700
507,700
508,700
509,707
510,707
511,707
512,707
513,707
514,707
515,707
516,707
517,707
518,707
519,707
520,707
521,707
522,707
523,707
524,707
525,707
526,707
527,707
528,707
529,707
530,707
531,707
532,707
533,707
534,707
535,707
536,707
537,707
538,707
539,707
540,707
541,707
542,707
543,707
544,707
545,707
546,707
547,707
548,707
549,707
550,707
551,707
552,707
553,707
554,707
555,709
556,709
557,709
558,709
559,709
560,709
561,709
562,709
563,710
564,710
565,712
566,712
567,712
568,712
569,712
570,715
571,715
572,715
573,715
574,715
575,715
576,715
577,715
578,715
579,715
580,715
581,715
582,715
583,715
584,715
585,715
586,715
587,715
588,715
589,715
590,715
591,715
592,715
593,715
594,715
595,715
596,715
597,715
598,715
599,715
600,715
601,715
602,715
603,715
604,715
605,715
606,715
607,715
608,715
609,715
610,715
611,715
612,715
613,715
614,715
615,715
616,715
617,715
618,715
619,715
620,715
621,715
622,715
623,715
624,715
625,715
626,715
627,715
628,715
629,715
630,715
631,715
632,715
633,715
634,715
635,715
636,715
637,715
638,715
639,715
640,715
641,715
642,715
643,715
644,725
645,725
646,725
647,725
648,725
649,725
650,725
651,725
652,725
653,725
654,725
655,725
656,725
657,725
658,725
659,725
660,725
661,725
662,725
663,725
664,725
665,725
666,725
667,725
668,725
669,725
670,725
671,725
672,725
673,725
674,725
675,725
676,725
677,725
678,725
679,725
680,725
681,726
682,726
683,726
684,726
685,726
686,726
687,726
688,726
689,726
690,726
691,726
692,726
693,726
694,726
695,726
696,726
697,726
698,726
699,726
700,726
701,726
702,726
703,726
704,726
705,726
706,726
707,726
708,726
709,726
710,726
711,726
712,726
713,726
714,726
715,726
716,726
717,726
718,726
719,726
720,726
721,726
722,726
723,726
724,726
725,726
726,726
727,726
728,726
729,726
730,726
731,726
732,726
733,726
734,726
735,726
736,726
737,726
738,726
739,726
740,726
741,726
742,726
743,726
744,726
745,726
746,726
747,726
748,726
749,726
750,726
751,726
752,726
753,726
754,726
755,726
756,726
757,726
758,726
759,726
760,726
761,726
762,726
763,726
764,726
765,726
766,726
767,726
768,726
769,726
770,726
771,726
772,726
773,726
774,726
775,726
776,726
777,726
778,726
779,726
780,726
781,726
782,726
783,726
784,726
785,726
786,726
787,726
788,726
789,726
790,726
791,726
792,726
793,726
794,726
795,726
796,726
797,726
798,726
799,726
800,726
801,726
802,726
803,726
804,726
805,726
806,726
807,726
808,726
809,726
810,726
811,727
812,727
813,727
814,727
815,727
816,727
817,727
818,727
819,727
820,727
821,727
822,727
823,727
824,727
825,727
826,727
827,727
828,727
829,727
830,727
831,727
832,727
833,727
834,730
835,730
836,730
837,730
838,730
839,730
840,732
841,732
842,732
843,732
844,732
845,732
846,732
847,732
848,732
849,732
850,732
851,732
852,732
853,732
854,732
855,732
856,732
857,732
858,732
859,732
860,732
861,732
862,732
863,734
864,734
865,734
866,734
867,734
868,734
869,734
870,734
871,734
872,734
873,734
874,734
875,734
876,734
877,734
878,734
879,734
880,734
881,734
882,734
883,734
884,734
885,734
886,734
887,734
888,734
889,734
890,734
891,734
892,734
893,734
894,734
895,734
896,734
897,734
898,734
899,734
900,734
901,734
902,734
903,734
904,734
905,734
906,734
907,734
908,734
909,734
910,734
911,734
912,734
913,734
914,734
915,734
916,734
917,746
918,746
919,746
920,746
921,746
922,746
923,746
924,746
925,746
926,746
927,746
928,746
929,746
930,746
931,746
932,746
933,746
934,746
935,746
936,746
937,746
938,746
939,746
940,746
941,746
942,746
943,746
944,746
945,746
946,746
947,746
948,746
949,746
950,746
951,746
952,746
953,746
954,746
955,746
956,746
957,746
958,747
959,747
960,747
961,747
962,747
963,747
964,747
965,747
966,747
967,747
968,747
969,747
970,747
971,747
972,747
973,747
974,747
975,747
976,747
977,747
978,747
979,747
980,747
981,747
982,747
983,747
984,747
985,747
986,748
987,748
988,748
989,748
990,748
991,748
992,748
993,748
994,748
995,748
996,748
997,748
998,748
999,748
1000,749
1001,749
1002,749
1003,749
1004,749
1005,749
1006,749
1007,749
1008,749
1009,749
1010,749
1011,749
1012,749
1013,749
1014,749
1015,749
1016,749
1017,749
1018,749
1019,749
1020,749
1021,749
1022,749
1023,749
1024,749
1025,749
1026,749
1027,749
1028,749
1029,749
1030,749
1031,749
1032,749
1033,749
1034,749
1035,749
1036,749
1037,749
1038,749
1039,749
1040,749
1041,749
1042,749
1043,749
1044,749
1045,749
1046,749
1047,749
1048,749
1049,749
1050,749
1051,749
1052,749
1053,755
1054,755
1055,755
1056,755
1057,755
1058,755
1059,755
1060,755
1061,755
1062,755
1063,757
1064,757
1065,757
1066,757
1067,757
1068,757
1069,757
1070,757
1071,757
1072,757
1073,757
1074,757
1075,757
1076,757
1077,757
1078,757
1079,757
1080,757
1081,757
1082,757
1083,757
1084,757
1085,757
1086,757
1087,757
1088,757
1089,757
1090,757
1091,757
1092,757
1093,757
1094,757
1095,757
1096,757
1097,757
1098,757
1099,757
1100,757
1101,757
1102,759
1103,759
1104,759
1105,759
1106,759
1107,759
1108,759
1109,759
1110,759
1111,759
1112,759
1113,759
1114,759
1115,759
1116,759
1117,759
1118,759
1119,759
1120,759
1121,759
1122,759
1123,759
1124,759
1125,759
1126,760
1127,760
1128,760
1129,760
1130,760
1131,760
1132,760
1133,760
1134,760
1135,760
1136,760
1137,760
1138,760
1139,760
1140,760
1141,760
1142,760
1143,760
1144,760
1145,760
1146,760
1147,760
1148,760
1149,760
1150,760
1151,760
1152,760
1153,760
1154,760
1155,760
1156,760
1157,760
1158,760
1159,760
1160,760
1161,760
1162,760
1163,760
1164,760
1165,760
1166,760
1167,760
1168,760
1169,760
1170,760
1171,760
1172,760
1173,760
1174,760
1175,760
1176,760
1177,760
1178,760
1179,760
1180,760
1181,760
1182,760
1183,760
1184,760
1185,760
1186,760
1187,760
1188,760
1189,760
1190,760
1191,760
1192,760
1193,760
1194,760
1195,760
1196,760
1197,760
1198,760
1199,760
1200,760
1201,760
1202,760
1203,760
1204,760
1205,760
1206,760
1207,760
1208,760
1209,760
1210,760
1211,760
1212,760
1213,760
1214,760
1215,760
1216,760
1217,760
1218,760
1219,760
1220,760
1221,760
1222,760
1223,760
1224,760
1225,760
1226,760
1227,760
1228,760
1229,760
1230,760
1231,760
1232,760
1233,760
1234,760
1235,760
1236,760
1237,760
1238,760
1239,760
1240,760
1241,760
1242,760
1243,760
1244,760
1245,762
1246,762
1247,762
1248,762
1249,762
1250,762
1251,762
1252,762
1253,762
1254,762
1255,762
1256,762
1257,762
1258,762
1259,762
1260,762
1261,762
1262,762
1263,762
1264,762
1265,762
1266,762
1267,762
1268,762
1269,762
1270,762
1271,762
1272,762
1273,762
1274,762
1275,762
1276,762
1277,762
1278,762
1279,762
1280,762
1281,762
1282,762
1283,762
1284,762
1285,762
1286,762
1287,762
1288,762
1289,762
1290,762
1291,762
1292,762
1293,762
1294,762
1295,762
1296,762
1297,762
1298,762
1299,762
1300,762
1301,762
1302,762
1303,762
1304,762
1305,762
1306,762
1307,762
1308,762
1309,762
1310,762
1311,762
1312,762
1313,762
1314,762
1315,762
1316,762
1317,762
1318,762
1319,762
1320,762
1321,762
1322,762
1323,762
1324,762
1325,762
1326,762
1327,762
1328,762
1329,762
1330,762
1331,762
1332,762
1333,762
1334,762
1335,762
1336,762
1337,766
1338,766
1339,766
1340,766
1341,766
1342,766
1343,766
1344,766
1345,766
1346,766
1347,766
1348,766
1349,766
1350,766
1351,766
1352,766
1353,766
1354,766
1355,771
1356,771
1357,771
1358,771
1359,771
1360,771
1361,771
1362,771
1363,771
1364,771
1365,771
1366,771
1367,771
1368,771
1369,771
1370,771
1371,771
1372,771
1373,771
1374,771
1375,771
1376,771
1377,771
1378,771
1379,771
1380,771
1381,771
1382,771
1383,771
1384,771
1385,771
1386,771
1387,771
1388,771
1389,771
1390,771
1391,771
1392,771
1393,771
1394,771
1395,771
1396,771
1397,771
1398,771
1399,771
1400,771
1401,771
1402,771
1403,771
1404,771
1405,771
1406,771
1407,771
1408,771
1409,771
1410,771
1411,771
1412,771
1413,771
1414,772
1415,772
1416,772
1417,772
1418,772
1419,772
1420,772
1421,772
1422,772
1423,772
1424,772
1425,772
1426,772
1427,772
1428,772
1429,772
1430,772
1431,772
1432,772
1433,772
1434,772
1435,772
1436,772
1437,772
1438,772
1439,772
1440,772
1441,772
1442,772
1443,772
1444,772
1445,772
1446,772
1447,772
1448,772
1449,772
1450,772
1451,772
1452,772
1453,772
1454,772
1455,772
1456,772
1457,772
1458,772
1459,772
1460,772
1461,772
1462,772
1463,772
1464,772
1465,772
1466,772
1467,772
1468,772
1469,772
1470,772
1471,772
1472,772
1473,772
1474,772
1475,772
1476,773
1477,773
1478,773
1479,773
1480,773
1481,773
1482,773
1483,773
1484,773
1485,773
1486,773
1487,773
1488,773
1489,773
1490,773
1491,773
1492,773
1493,774
1494,774
1495,774
1496,774
1497,774
1498,774
1499,774
1500,774
1501,774
1502,774
1503,774
1504,774
1505,774
1506,774
1507,774
1508,774
1509,774
1510,774
1511,774
1512,774
1513,774
1514,774
1515,774
1516,774
1517,774
1518,774
1519,774
1520,774
1521,774
1522,774
1523,774
1524,774
1525,774
1526,774
1527,774
1528,774
1529,774
1530,774
1531,775
1532,775
1533,775
1534,775
1535,775
1536,775
1537,775
1538,775
1539,775
1540,775
1541,775
1542,775
1543,775
1544,775
1545,775
1546,775
1547,775
1548,775
1549,775
1550,775
1551,775
1552,775
1553,775
1554,776
1555,776
1556,776
1557,776
1558,776
1559,776
1560,776
1561,776
1562,776
1563,776
1564,776
1565,776
1566,776
1567,776
1568,776
1569,776
1570,776
1571,776
1572,776
1573,776
1574,776
1575,776
1576,776
1577,776
1578,776
1579,776
1580,776
1581,776
1582,776
1583,776
1584,776
1585,776
1586,776
1587,776
1588,776
1589,776
1590,776
1591,776
1592,776
1593,776
1594,776
1595,776
1596,776
1597,776
1598,776
1599,776
1600,776
1601,776
1602,776
1603,776
1604,776
1605,776
1606,776
1607,776
1608,776
1609,776
1610,776
1611,776
1612,776
1613,776
1614,776
1615,777
1616,777
1617,777
1618,777
1619,777
1620,777
1621,777
1622,777
1623,777
1624,777
1625,777
1626,777
1627,777
1628,777
1629,777
1630,777
1631,777
1632,777
