1,52
2,89
3,98
4,159
5,221
6,230
7,241
8,271
9,276
10,286
11,300
12,317
13,324
14,326
15,344
16,344
17,346
18,351
19,351
20,352
21,352
22,354
23,357
24,376
25,379
26,380
27,385
28,413
29,417
30,425
31,426
32,441
33,444
34,444
35,452
36,460
37,460
38,461
39,462
40,462
41,465
42,465
43,465
44,470
45,485
46,490
47,493
48,498
49,502
50,502
51,522
52,523
53,523
54,534
55,534
56,534
57,534
58,534
59,535
60,535
61,535
62,539
63,540
64,546
65,546
66,546
67,546
68,546
69,546
70,547
71,548
72,556
73,556
74,556
75,557
76,557
77,559
78,567
79,567
80,574
81,574
82,574
83,574
84,574
85,574
86,574
87,574
88,574
89,574
90,574
91,574
92,574
93,574
94,574
95,574
96,576
97,576
98,581
99,581
100,581
101,581
102,584
103,584
104,584
105,584
106,587
107,589
108,589
109,589
110,589
111,589
112,589
113,589
114,589
115,589
116,597
117,599
118,599
119,599
120,599
121,599
122,599
123,599
124,599
125,599
126,599
127,600
128,600
129,601
130,601
131,601
132,602
133,602
134,602
135,602
136,602
137,602
138,603
139,605
140,608
141,608
142,608
143,608
144,608
145,608
146,608
147,608
148,608
149,608
150,608
151,608
152,608
153,608
154,608
155,608
156,610
157,610
158,610
159,610
160,610
161,610
162,610
163,610
164,610
165,613
166,613
167,613
168,613
169,613
170,613
171,613
172,613
173,613
174,613
175,613
176,613
177,613
178,613
179,613
180,624
181,624
182,624
183,624
184,624
185,625
186,625
187,625
188,625
189,631
190,631
191,631
192,631
193,631
194,631
195,631
196,631
197,631
198,646
199,646
200,646
201,646
202,646
203,647
204,647
205,651
206,653
207,653
208,653
209,653
210,653
211,653
212,653
213,653
214,653
215,653
216,654
217,654
218,655
219,655
220,655
221,657
222,658
223,658
224,660
225,660
226,660
227,660
228,660
229,660
230,660
231,660
232,660
233,660
234,660
235,660
236,660
237,660
238,660
239,660
240,661
241,661
242,661
243,661
244,661
245,661
246,661
247,661
248,661
249,661
250,661
251,661
252,661
253,661
254,666
255,666
256,666
257,666
258,666
259,666
260,666
261,666
262,666
263,666
264,666
265,670
266,670
267,670
268,670
269,670
270,671
271,671
272,671
273,671
274,671
275,671
276,671
277,671
278,671
279,671
280,671
281,671
282,671
283,671
284,671
285,671
286,671
287,671
288,671
289,673
290,673
291,673
292,673
293,673
294,673
295,673
296,673
297,673
298,675
299,675
300,675
301,675
302,676
303,680
304,681
305,681
306,681
307,681
308,681
309,681
310,684
311,684
312,684
313,684
314,684
315,684
316,684
317,684
318,684
319,685
320,685
321,685
322,685
323,685
324,685
325,686
326,686
327,686
328,686
329,686
330,686
331,686
332,687
333,687
334,687
335,687
336,687
337,687
338,687
339,687
340,687
341,687
342,687
343,687
344,687
345,687
346,687
347,687
348,687
349,687
350,687
351,687
352,687
353,687
354,687
355,691
356,691
357,691
358,691
359,691
360,691
361,691
362,691
363,692
364,692
365,692
366,693
367,693
368,695
369,695
370,695
371,695
372,695
373,695
374,696
375,696
376,696
377,696
378,696
379,696
380,696
381,696
382,696
383,696
384,698
385,698
386,698
387,698
388,698
389,698
390,698
391,698
392,698
393,698
394,698
395,698
396,698
397,698
398,698
399,698
400,698
401,698
402,698
403,698
404,698
405,698
406,698
407,698
408,698
409,698
410,701
411,701
412,701
413,701
414,701
415,701
416,701
417,701
418,701
419,701
420,701
421,701
422,701
423,701
424,701
425,701
426,701
427,701
428,701
429,701
430,701
431,701
432,701
433,701
434,701
435,701
436,701
437,701
438,701
439,701
440,701
441,702
442,702
443,702
444,702
445,702
446,702
447,702
448,703
449,703
450,703
451,703
452,703
453,703
454,703
455,703
456,703
457,709
458,709
459,709
460,709
461,709
462,709
463,709
464,709
465,709
466,709
467,709
468,709
469,709
470,709
471,709
472,709
473,709
474,709
475,709
476,709
477,709
478,710
479,712
480,713
481,713
482,713
483,713
484,713
485,713
486,713
487,713
488,713
489,713
490,713
491,713
492,713
493,713
494,713
495,713
496,713
497,713
498,713
499,713
500,713
501,719
502,719
503,719
504,719
505,719
506,719
507,720
508,720
509,720
510,720
511,720
512,720
513,720
514,720
515,720
516,720
517,720
518,720
519,720
520,720
521,720
522,720
523,720
524,720
525,720
526,720
527,720
528,720
529,720
530,720
531,720
532,720
533,720
534,720
535,720
536,720
537,720
538,720
539,720
540,722
541,722
542,722
543,722
544,722
545,722
546,722
547,722
548,722
549,722
550,722
551,722
552,722
553,722
554,722
555,722
556,722
557,722
558,722
559,722
560,722
561,722
562,722
563,722
564,722
565,722
566,722
567,722
568,722
569,722
570,722
571,722
572,722
573,722
574,722
575,722
576,722
577,722
578,722
579,722
580,722
581,722
582,722
583,722
584,722
585,722
586,724
587,724
588,724
589,724
590,724
591,724
592,724
593,724
594,724
595,724
596,724
597,724
598,724
599,724
600,724
601,724
602,724
603,724
604,724
605,724
606,724
607,726
608,726
609,726
610,726
611,726
612,726
613,726
614,726
615,726
616,727
617,727
618,727
619,727
620,727
621,727
622,727
623,727
624,727
625,727
626,727
627,728
628,728
629,728
630,728
631,728
632,728
633,728
634,728
635,728
636,728
637,728
638,728
639,728
640,728
641,728
642,728
643,729
644,729
645,729
646,730
647,730
648,730
649,730
650,730
651,730
652,730
653,730
654,730
655,730
656,730
657,730
658,730
659,730
660,730
661,730
662,730
663,730
664,730
665,730
666,730
667,730
668,730
669,730
670,730
671,730
672,730
673,731
674,731
675,731
676,731
677,731
678,731
679,731
680,731
681,731
682,731
683,731
684,731
685,731
686,731
687,731
688,731
689,731
690,731
691,731
692,731
693,731
694,731
695,731
696,731
697,731
698,731
699,731
700,731
701,731
702,731
703,731
704,731
705,731
706,731
707,731
708,731
709,731
710,731
711,731
712,731
713,731
714,731
715,733
716,733
717,733
718,733
719,733
720,733
721,733
722,733
723,733
724,733
725,733
726,733
727,733
728,734
729,734
730,734
731,734
732,734
733,734
734,734
735,734
736,734
737,734
738,734
739,734
740,734
741,734
742,734
743,734
744,734
745,734
746,734
747,734
748,734
749,734
750,734
751,734
752,734
753,734
754,734
755,734
756,734
757,734
758,734
759,734
760,734
761,734
762,734
763,734
764,734
765,734
766,734
767,734
768,734
769,734
770,734
771,734
772,734
773,734
774,734
775,734
776,734
777,734
778,734
779,734
780,734
781,734
782,734
783,734
784,734
785,734
786,734
787,734
788,734
789,734
790,734
791,734
792,734
793,734
794,734
795,734
796,734
797,734
798,734
799,734
800,734
801,734
802,734
803,734
804,734
805,734
806,734
807,734
808,734
809,734
810,734
811,734
812,734
813,734
814,734
815,734
816,734
817,734
818,734
819,734
820,734
821,734
822,734
823,734
824,734
825,734
826,734
827,734
828,734
829,734
830,734
831,734
832,734
833,734
834,734
835,734
836,734
837,734
838,735
839,735
840,735
841,735
842,735
843,735
844,735
845,735
846,735
847,735
848,735
849,737
850,737
851,737
852,741
853,741
854,741
855,741
856,741
857,741
858,741
859,741
860,741
861,741
862,741
863,741
864,741
865,741
866,741
867,741
868,741
869,741
870,741
871,741
872,741
873,741
874,741
875,741
876,741
877,741
878,741
879,741
880,741
881,741
882,741
883,741
884,741
885,741
886,741
887,741
888,741
889,741
890,741
891,741
892,741
893,741
894,741
895,741
896,741
897,741
898,741
899,741
900,741
901,741
902,741
903,741
904,741
905,741
906,741
907,741
908,741
909,741
910,741
911,741
912,741
913,741
914,741
915,741
916,741
917,741
918,741
919,741
920,742
921,742
922,742
923,743
924,743
925,743
926,743
927,743
928,743
929,743
930,743
931,743
932,743
933,743
934,743
935,743
936,743
937,743
938,743
939,743
940,743
941,743
942,743
943,743
944,743
945,743
946,743
947,743
948,743
949,743
950,743
951,743
952,745
953,745
954,745
955,745
956,745
957,745
958,745
959,745
960,745
961,745
962,745
963,745
964,745
965,745
966,745
967,745
968,745
969,745
970,745
971,745
972,745
973,745
974,745
975,745
976,745
977,745
978,745
979,745
980,745
981,745
982,745
983,745
984,745
985,745
986,745
987,745
988,745
989,745
990,745
991,745
992,745
993,745
994,745
995,745
996,745
997,745
998,745
999,745
1000,745
1001,745
1002,745
1003,745
1004,745
1005,745
1006,745
1007,745
1008,745
1009,745
1010,745
1011,745
1012,745
1013,745
1014,745
1015,745
1016,745
1017,745
1018,745
1019,745
1020,745
1021,745
1022,745
1023,745
1024,745
1025,745
1026,745
1027,745
1028,745
1029,745
1030,745
1031,745
1032,745
1033,745
1034,745
1035,745
1036,745
1037,745
1038,745
1039,745
1040,745
1041,745
1042,745
1043,745
1044,745
1045,745
1046,745
1047,745
1048,745
1049,745
1050,745
1051,745
1052,745
1053,745
1054,746
1055,746
1056,746
1057,746
1058,746
1059,746
1060,746
1061,746
1062,746
1063,746
1064,746
1065,746
1066,746
1067,746
1068,746
1069,746
1070,746
1071,746
1072,746
1073,746
1074,746
1075,746
1076,746
1077,746
1078,746
1079,746
1080,746
1081,746
1082,746
1083,746
1084,746
1085,746
1086,746
1087,746
1088,746
1089,746
1090,746
1091,746
1092,746
1093,746
1094,746
1095,746
1096,746
1097,746
1098,746
1099,746
1100,746
1101,746
1102,749
1103,749
1104,749
1105,749
1106,749
1107,749
1108,749
1109,749
1110,749
1111,749
1112,749
1113,749
1114,749
1115,749
1116,749
1117,749
1118,749
1119,749
1120,749
1121,749
1122,749
1123,749
1124,749
1125,749
1126,749
1127,749
1128,749
1129,749
1130,749
1131,749
1132,749
1133,749
1134,749
1135,749
1136,749
1137,749
1138,749
1139,749
1140,749
1141,749
1142,749
1143,749
1144,749
1145,749
1146,749
1147,749
1148,749
1149,749
1150,749
1151,749
1152,749
1153,749
1154,749
1155,749
1156,749
1157,749
1158,749
1159,749
1160,749
1161,749
1162,749
1163,749
1164,749
1165,749
1166,749
1167,749
1168,749
1169,749
1170,749
1171,749
1172,749
1173,749
1174,749
1175,749
1176,749
1177,749
1178,749
1179,749
1180,749
1181,749
1182,749
1183,749
1184,749
1185,749
1186,749
1187,749
1188,749
1189,749
1190,749
1191,749
1192,749
1193,749
1194,749
1195,749
1196,749
1197,749
1198,749
1199,749
1200,749
1201,749
1202,749
1203,749
1204,749
1205,749
1206,749
1207,749
1208,749
1209,749
1210,750
1211,750
1212,750
1213,750
1214,750
1215,750
1216,750
1217,750
1218,750
1219,750
1220,750
1221,750
1222,750
1223,750
1224,750
1225,750
1226,750
1227,750
1228,750
1229,750
1230,751
1231,751
1232,751
1233,751
1234,751
1235,751
1236,751
1237,751
1238,751
1239,751
1240,751
1241,751
1242,751
1243,751
1244,751
1245,751
1246,751
1247,751
1248,751
1249,751
1250,751
1251,751
1252,751
1253,751
1254,751
1255,751
1256,751
1257,751
1258,751
1259,751
1260,751
1261,751
1262,751
1263,751
1264,751
1265,751
1266,751
1267,751
1268,751
1269,751
1270,751
1271,751
1272,751
1273,751
1274,751
1275,751
1276,751
1277,751
1278,751
1279,751
1280,751
1281,751
1282,751
1283,751
1284,751
1285,751
1286,751
1287,751
1288,751
1289,751
1290,751
1291,751
1292,751
1293,751
1294,751
1295,751
1296,751
1297,751
1298,751
1299,751
1300,751
1301,751
1302,751
1303,751
1304,751
1305,751
1306,751
1307,751
1308,751
1309,751
1310,751
1311,751
1312,751
1313,751
1314,751
1315,751
1316,751
1317,751
1318,751
1319,751
1320,751
1321,751
1322,751
1323,751
1324,751
1325,751
1326,751
1327,751
1328,751
1329,751
1330,751
1331,751
1332,751
1333,751
1334,751
1335,751
1336,751
1337,751
1338,751
1339,751
1340,751
1341,751
1342,751
1343,751
1344,751
1345,751
1346,751
1347,751
1348,751
1349,751
1350,751
1351,751
1352,751
1353,751
1354,751
1355,751
1356,751
1357,751
1358,751
1359,751
1360,751
1361,751
1362,751
1363,751
1364,751
1365,751
1366,751
1367,751
1368,751
1369,751
1370,751
1371,751
1372,751
1373,751
1374,751
1375,751
1376,751
1377,751
1378,751
1379,751
1380,751
1381,751
1382,751
1383,751
1384,751
1385,751
1386,751
1387,751
1388,751
1389,751
1390,751
1391,751
1392,751
1393,751
1394,751
1395,751
1396,751
1397,751
1398,751
1399,751
1400,751
1401,751
1402,751
1403,751
1404,751
1405,751
1406,751
1407,751
1408,751
1409,751
1410,751
1411,751
1412,751
1413,751
1414,751
1415,751
1416,751
1417,751
1418,751
1419,751
1420,751
1421,751
1422,751
1423,751
1424,751
1425,751
1426,751
1427,751
1428,751
1429,751
1430,751
1431,751
1432,751
1433,751
1434,751
1435,751
1436,751
1437,751
1438,751
1439,751
1440,751
1441,751
1442,751
1443,751
1444,751
1445,751
1446,751
1447,751
1448,751
1449,751
1450,751
1451,756
1452,756
1453,756
1454,756
1455,756
1456,756
1457,756
1458,756
1459,756
1460,756
1461,756
1462,756
1463,756
1464,756
1465,756
1466,756
1467,756
1468,756
1469,756
1470,756
1471,756
1472,756
1473,756
1474,756
1475,756
1476,756
1477,756
1478,756
1479,756
1480,756
1481,756
1482,756
1483,756
1484,756
1485,756
1486,756
1487,756
1488,756
1489,756
1490,756
1491,756
1492,756
1493,756
1494,756
1495,756
1496,756
1497,756
1498,756
1499,756
1500,756
1501,756
1502,756
1503,756
1504,756
1505,756
1506,756
1507,756
1508,756
1509,756
1510,756
1511,756
1512,756
1513,756
1514,756
1515,756
1516,756
1517,756
1518,756
1519,756
1520,756
1521,756
1522,756
1523,756
1524,756
1525,756
1526,756
1527,756
1528,756
1529,756
1530,756
1531,756
1532,757
1533,757
1534,757
1535,757
1536,757
1537,757
1538,757
1539,757
1540,757
1541,757
1542,757
1543,757
1544,757
1545,757
1546,757
1547,757
1548,757
1549,757
1550,757
1551,757
1552,757
1553,757
1554,757
1555,757
1556,757
1557,757
1558,757
1559,757
1560,757
1561,757
1562,757
1563,757
1564,757
1565,757
1566,757
1567,757
1568,757
1569,757
1570,757
1571,757
1572,757
1573,757
1574,757
1575,757
1576,757
1577,757
1578,757
1579,757
1580,757
1581,757
1582,757
1583,757
1584,757
1585,757
1586,757
1587,757
1588,757
1589,757
1590,757
1591,757
1592,757
1593,757
1594,757
1595,757
1596,757
1597,757
1598,757
1599,757
1600,757
1601,757
1602,757
1603,757
1604,757
1605,757
1606,757
1607,757
1608,757
1609,757
1610,757
1611,757
1612,757
1613,757
1614,757
1615,757
1616,757
1617,757
1618,757
1619,757
1620,757
1621,757
1622,757
1623,757
1624,757
1625,757
1626,757
1627,757
1628,757
1629,757
1630,757
1631,757
1632,757
