1,21
2,43
3,69
4,87
5,90
6,100
7,109
8,113
9,119
10,144
11,146
12,165
13,179
14,182
15,187
16,189
17,216
18,223
19,225
20,248
21,259
22,271
23,277
24,283
25,285
26,285
27,288
28,288
29,288
30,288
31,288
32,288
33,289
34,289
35,292
36,292
37,298
38,301
39,301
40,303
41,303
42,306
43,306
44,306
45,308
46,309
47,309
48,309
49,309
50,310
51,310
52,310
53,310
54,311
55,311
56,311
57,312
58,312
59,312
60,313
61,324
62,324
63,324
64,327
65,328
66,328
67,328
68,329
69,334
70,337
71,337
72,337
73,346
74,347
75,347
76,348
77,348
78,351
79,352
80,352
81,352
82,352
83,353
84,353
85,353
86,353
87,354
88,354
89,354
90,354
91,354
92,354
93,354
94,354
95,354
96,354
97,354
98,354
99,354
100,354
101,354
102,354
103,354
104,354
105,354
106,354
107,354
108,354
109,354
110,354
111,354
112,354
113,355
114,355
115,355
116,355
117,355
118,356
119,356
120,356
121,356
122,357
123,358
124,358
125,358
126,358
127,359
128,359
129,359
130,359
131,359
132,359
133,359
134,359
135,359
136,359
137,359
138,359
139,359
140,359
141,359
142,361
143,361
144,361
145,361
146,361
147,361
148,361
149,361
150,361
151,361
152,361
153,361
154,361
155,361
156,361
157,361
158,361
159,361
160,361
161,361
162,361
163,361
164,361
165,361
166,361
167,361
168,361
169,361
170,361
171,361
172,361
173,361
174,361
175,361
176,361
177,361
178,361
179,361
180,361
181,361
182,361
183,361
184,361
185,361
186,361
187,362
188,363
189,363
190,363
191,363
192,364
193,364
194,367
195,367
196,367
197,367
198,367
199,367
200,367
201,367
202,367
203,372
204,372
205,372
206,372
207,372
208,372
209,372
210,372
211,372
212,372
213,372
214,372
215,372
216,372
217,372
218,372
219,372
220,372
221,372
222,372
223,372
224,372
225,372
226,372
227,372
228,372
229,372
230,372
231,372
232,372
233,372
234,372
235,372
236,372
237,372
238,372
239,372
240,372
241,372
242,372
243,372
244,372
245,372
246,372
247,372
248,372
249,372
250,372
251,372
252,372
253,374
254,374
255,374
256,374
257,374
258,374
259,374
260,374
261,374
262,374
263,374
264,374
265,374
266,374
267,374
268,374
269,374
270,374
271,374
272,374
273,374
274,374
275,374
276,374
277,374
278,374
279,374
280,374
281,374
282,374
283,374
284,374
285,374
286,374
287,374
288,374
289,374
290,374
291,374
292,374
293,374
294,374
295,374
296,374
297,374
298,374
299,374
300,374
301,374
302,374
303,374
304,374
305,374
306,374
307,374
308,374
309,374
310,374
311,374
312,375
313,375
314,375
315,375
316,376
317,376
318,376
319,376
320,376
321,376
322,376
323,376
324,376
325,376
326,376
327,376
328,376
329,376
330,376
331,376
332,376
333,376
334,376
335,376
336,376
337,376
338,376
339,376
340,376
341,376
342,376
343,376
344,376
345,376
346,376
347,376
348,376
349,376
350,376
351,376
352,376
353,376
354,376
355,376
356,376
357,376
358,376
359,376
360,376
361,376
362,376
363,376
364,376
365,376
366,376
367,376
368,376
369,376
370,376
371,376
372,376
373,376
374,376
375,376
376,376
377,376
378,376
379,376
380,376
381,376
382,376
383,376
384,376
385,376
386,376
387,376
388,376
389,376
390,376
391,376
392,376
393,376
394,376
395,376
396,376
397,376
398,376
399,376
400,376
401,376
402,376
403,376
404,376
405,376
406,376
407,376
408,376
409,376
410,376
411,377
412,377
413,377
414,377
415,377
416,377
417,377
418,377
419,377
420,377
421,377
422,377
423,377
424,377
425,377
426,377
427,377
428,377
429,377
430,377
431,377
432,377
433,377
434,377
435,377
436,377
437,377
438,377
439,377
440,377
441,377
442,377
443,377
444,377
445,377
446,377
447,377
448,377
449,377
450,377
451,377
452,377
453,377
454,377
455,377
456,377
457,377
458,377
459,377
460,377
461,377
462,377
463,377
464,377
465,377
466,377
467,377
468,377
469,377
470,377
471,377
472,377
473,377
474,377
475,377
476,377
477,377
478,377
479,377
480,377
481,377
482,377
483,377
484,377
485,377
486,377
487,377
488,377
489,377
490,377
491,377
492,377
493,377
494,377
495,377
496,377
497,377
498,377
499,377
500,377
501,377
502,377
503,377
504,377
505,377
506,377
507,377
508,377
509,377
510,378
511,378
512,378
513,378
514,378
515,378
516,378
517,378
518,378
519,378
520,378
521,378
522,378
523,378
524,378
525,378
526,378
527,378
528,378
529,378
530,378
531,378
532,378
533,378
534,378
535,378
536,378
537,378
538,378
539,378
540,378
541,378
542,378
543,378
544,378
545,378
546,378
547,378
548,378
549,378
550,378
551,378
552,378
553,378
554,378
555,378
556,378
557,378
558,378
559,378
560,378
561,378
562,378
563,378
564,378
565,378
566,378
567,378
568,378
569,378
570,378
571,378
572,378
573,378
574,378
575,378
576,378
577,378
578,378
579,378
580,378
581,378
582,378
583,378
584,378
585,378
586,378
587,378
588,378
589,378
590,378
591,378
592,378
593,378
594,378
595,378
596,378
597,378
598,378
599,378
600,378
601,378
602,378
603,378
604,378
605,378
606,378
607,378
608,378
609,378
610,378
611,378
612,378
613,378
614,378
615,378
616,378
617,378
618,378
619,378
620,378
621,378
622,378
623,378
624,378
625,378
626,378
627,378
628,378
629,378
630,378
631,378
632,378
633,378
634,378
635,378
636,378
637,378
638,378
639,378
640,378
641,378
642,378
643,378
644,378
645,378
646,378
647,378
648,378
649,378
650,378
651,378
652,378
653,378
654,378
655,378
656,378
657,378
658,378
659,378
660,378
661,378
662,378
663,378
664,378
665,378
666,378
667,378
668,378
669,378
670,378
671,378
672,378
673,378
674,378
675,378
676,378
677,378
678,378
679,378
680,378
681,378
682,378
683,378
684,378
685,378
686,379
687,379
688,379
689,379
690,379
691,379
692,379
693,379
694,379
695,379
696,379
697,379
698,379
699,379
700,379
701,379
702,379
703,379
704,379
705,379
706,379
707,379
708,379
709,379
710,379
711,379
712,379
713,379
714,379
715,379
716,379
717,379
718,379
719,379
720,379
721,379
722,379
723,379
724,379
725,379
726,379
727,379
728,379
729,379
730,379
731,379
732,379
733,379
734,379
735,379
736,379
737,379
738,379
739,379
740,379
741,379
742,379
743,379
744,379
745,379
746,379
747,379
748,379
749,379
750,379
751,379
752,379
753,379
754,379
755,379
756,379
757,379
758,379
759,379
760,379
761,379
762,379
763,379
764,379
765,379
766,379
767,379
768,379
769,379
770,379
771,379
772,379
773,379
774,379
775,379
776,379
777,379
778,379
779,379
780,379
781,379
782,379
