1,223
2,238
3,249
4,271
5,277
6,283
7,293
8,302
9,328
10,336
11,350
12,375
13,379
14,384
15,388
16,396
17,400
18,404
19,407
20,411
21,415
22,418
23,429
24,434
25,438
26,442
27,450
28,455
29,458
30,467
31,471
32,475
33,479
34,481
35,486
36,489
37,491
38,493
39,497
40,500
41,503
42,506
43,508
44,511
45,514
46,517
47,520
48,523
49,525
50,528
51,531
52,537
53,542
54,544
55,546
56,548
57,553
58,556
59,559
60,562
61,564
62,567
63,569
64,571
65,576
66,578
67,579
68,580
69,582
70,583
71,584
72,586
73,587
74,588
75,590
76,591
77,592
78,593
79,594
80,595
81,596
82,597
83,598
84,600
85,601
86,602
87,603
88,604
89,605
90,607
91,608
92,609
93,611
94,612
95,613
96,615
97,616
98,617
99,618
100,619
101,620
102,622
103,623
104,624
105,626
106,627
107,628
108,629
109,630
110,631
111,633
112,634
113,635
114,636
115,637
116,638
117,640
118,641
119,642
120,644
121,645
122,646
123,648
124,649
125,650
126,651
127,652
128,653
129,655
130,656
131,657
132,659
133,660
134,661
135,663
136,664
137,665
138,667
139,668
140,669
141,670
142,671
143,672
144,674
145,675
146,676
147,677
148,678
149,679
150,680
151,681
152,682
153,684
154,685
155,686
156,688
157,689
158,690
159,691
160,692
161,693
162,695
163,696
164,697
165,699
166,700
167,701
168,702
169,703
170,704
171,705
172,706
173,707
174,709
175,710
176,711
177,713
178,714
179,715
180,717
181,718
182,719
183,721
184,722
185,723
186,724
187,725
188,726
189,727
190,728
191,729
192,731
193,732
194,733
195,735
196,736
197,737
198,739
199,740
200,741
201,743
202,744
203,745
204,747
205,748
206,749
207,751
208,752
209,753
210,755
211,756
212,757
213,759
214,760
215,761
216,763
217,764
218,765
219,766
220,767
221,768
222,770
223,771
224,772
225,774
226,775
227,776
228,778
229,779
230,780
231,782
232,783
233,784
234,785
235,786
236,787
237,789
238,790
239,791
240,793
241,794
242,795
243,796
244,797
245,798
246,799
247,800
248,801
249,802
250,803
251,804
252,806
253,807
254,808
255,810
256,811
257,812
