1,0
2,1
3,1
4,1
5,1
6,1
7,1
8,1
9,1
10,1
11,1
12,1
13,1
14,1
15,1
16,1
17,1
18,1
19,1
20,1
21,1
22,1
23,1
24,1
25,1
26,1
27,1
28,1
29,1
30,1
31,1
32,1
33,1
34,1
35,2
36,2
37,2
38,2
39,2
40,2
41,2
42,2
43,2
44,2
45,2
46,2
47,2
48,2
49,2
50,2
51,2
52,2
53,2
54,2
55,2
56,2
57,2
58,2
59,2
60,2
61,2
62,2
63,2
64,2
65,2
66,2
67,2
68,2
69,2
70,2
71,2
72,2
73,2
74,2
75,2
76,2
77,2
78,2
79,2
80,2
81,2
82,2
83,2
84,2
85,2
86,2
87,2
88,2
89,2
90,2
91,2
92,2
93,2
94,2
95,2
96,2
97,2
98,2
99,2
100,2
101,2
102,2
103,2
104,2
105,2
106,2
107,2
108,2
109,4
110,4
111,4
112,4
113,4
114,4
115,4
116,4
117,4
118,4
119,4
120,4
121,4
122,4
123,4
124,4
125,4
126,4
127,4
128,4
129,4
130,4
131,4
132,4
133,4
134,4
135,4
136,4
137,4
138,4
139,4
140,4
141,4
142,4
143,4
144,4
145,4
146,4
147,4
148,4
149,4
150,4
151,4
152,4
153,4
154,4
155,4
156,4
157,4
158,4
159,4
160,4
161,4
162,4
163,4
164,4
165,4
166,4
167,4
168,4
169,4
170,4
171,4
172,4
173,4
174,4
175,4
176,4
177,4
178,4
179,4
180,4
181,4
182,4
183,4
184,4
185,4
186,4
187,4
188,4
189,4
190,4
191,4
192,4
193,4
194,4
195,4
196,4
197,4
198,4
199,4
200,4
201,4
202,4
203,4
204,4
205,4
206,4
207,4
208,4
209,4
210,4
211,4
212,4
213,4
214,4
215,4
216,4
217,4
218,4
219,4
220,4
221,4
222,4
223,4
224,4
225,4
226,4
227,4
228,4
229,4
230,4
231,4
232,4
233,4
234,4
235,4
236,4
237,4
238,4
239,4
240,4
241,4
242,4
243,4
244,4
245,4
246,4
247,4
248,4
249,4
250,4
251,4
252,4
253,4
254,4
255,4
256,4
257,4
258,4
259,4
260,4
261,4
262,4
263,4
264,4
265,4
266,4
267,4
268,4
269,4
270,4
271,4
272,4
273,4
274,4
275,4
276,4
277,4
278,4
279,4
280,4
281,4
282,4
283,4
284,4
285,4
286,4
287,4
288,4
289,4
290,4
291,4
292,4
293,4
294,4
295,4
296,4
297,4
298,4
299,4
300,4
301,4
302,4
303,4
304,4
305,4
306,4
307,4
308,4
309,4
310,4
311,4
312,4
313,4
314,4
315,4
316,4
317,4
318,4
319,4
320,4
321,4
322,4
323,4
324,4
325,4
326,4
327,4
328,4
329,4
330,4
331,4
332,4
333,4
334,4
335,4
336,4
337,4
338,4
339,4
340,4
341,4
342,4
343,4
344,4
345,4
346,4
347,4
348,4
349,4
350,4
351,4
352,4
353,4
354,4
355,4
356,4
357,4
358,4
359,4
360,4
361,4
362,4
363,4
364,4
365,4
366,4
367,4
368,4
369,4
370,4
371,4
372,4
373,4
374,4
375,4
376,4
377,4
378,4
379,4
380,4
381,4
382,4
383,4
384,4
385,4
386,4
387,4
388,4
389,4
390,4
391,4
392,4
393,4
394,4
395,4
396,4
397,4
398,4
399,4
400,4
401,4
402,4
403,4
404,4
405,4
406,4
407,14
408,14
409,14
410,14
411,14
412,14
413,14
414,14
415,14
416,14
417,14
418,14
419,14
420,14
421,14
422,14
423,14
424,14
425,14
426,14
427,14
428,14
429,14
430,14
431,14
432,14
433,15
434,15
435,15
436,15
437,15
438,15
439,15
440,15
441,15
442,15
443,15
444,15
445,15
446,15
447,15
448,15
449,15
450,15
451,15
452,15
453,15
454,15
455,15
456,15
457,15
458,15
459,15
460,15
461,15
462,15
463,15
464,15
465,15
466,15
467,15
468,15
469,15
470,15
471,15
472,15
473,15
474,15
475,15
476,15
477,15
478,15
479,15
480,15
481,15
482,15
483,15
484,15
485,15
486,15
487,15
488,15
489,15
490,15
491,15
492,15
493,15
494,15
495,15
496,15
497,15
498,15
499,15
500,15
501,15
502,15
503,15
504,15
505,15
506,15
507,15
508,15
509,15
510,15
511,15
512,15
513,15
514,15
515,15
516,15
517,15
518,15
519,15
520,15
521,15
522,15
523,15
524,15
525,15
526,15
527,15
528,15
529,15
530,15
531,15
532,15
533,15
534,15
535,15
536,15
537,15
538,15
539,15
540,15
541,15
542,15
543,15
544,15
545,15
546,15
547,15
548,15
549,15
550,15
551,15
552,15
553,15
554,15
555,15
556,15
557,15
558,15
559,15
560,15
561,15
562,15
563,15
564,15
565,15
566,15
567,15
568,15
569,15
570,15
571,15
572,15
573,15
574,15
575,15
576,15
577,15
578,15
579,15
580,15
581,15
582,15
583,15
584,15
585,15
586,15
587,15
588,15
589,15
590,15
591,15
592,15
593,15
594,15
595,15
596,15
597,15
598,15
599,15
600,15
601,15
602,15
603,15
604,15
605,15
606,15
607,15
608,15
609,15
610,15
611,15
612,15
613,15
614,15
615,15
616,15
617,15
618,15
619,15
620,15
621,15
622,15
623,15
624,15
625,15
626,15
627,15
628,15
629,15
630,15
631,15
632,15
633,15
634,15
635,15
636,15
637,15
638,15
639,15
640,15
641,15
642,15
643,15
644,15
645,15
646,15
647,15
648,15
649,15
650,15
651,15
652,15
653,15
654,15
655,15
656,15
657,15
658,15
659,15
660,15
661,15
662,15
663,15
664,15
665,15
666,15
667,15
668,15
669,15
670,15
671,15
672,15
673,15
674,15
675,15
676,15
677,15
678,15
679,15
680,15
681,15
682,15
683,15
684,15
685,15
686,15
687,15
688,15
689,15
690,15
691,15
692,15
693,15
694,15
695,15
696,15
697,15
698,15
699,15
700,15
701,15
702,15
703,15
704,15
705,15
706,15
707,15
708,15
709,15
710,15
711,15
712,15
713,15
714,15
715,15
716,15
717,15
718,15
719,15
720,15
721,15
722,15
723,15
724,15
725,15
726,15
727,15
728,15
729,15
730,15
731,15
732,15
733,15
734,15
735,15
736,15
737,15
738,15
739,15
740,15
741,15
742,15
743,15
744,15
745,15
746,15
747,15
748,15
749,15
750,15
751,15
752,15
753,15
754,15
755,15
756,15
757,15
758,15
759,15
760,15
761,15
762,15
763,15
764,15
765,15
766,15
767,15
768,15
769,15
770,15
771,15
772,15
773,15
774,15
775,15
776,15
777,15
778,15
779,15
780,15
781,15
782,15
783,15
784,15
785,15
786,15
787,15
788,15
789,15
790,15
791,15
792,15
793,15
794,15
795,15
796,15
797,15
798,15
799,15
800,15
801,15
802,15
803,15
804,15
805,15
806,15
807,15
808,15
809,15
810,15
811,15
812,15
813,15
814,15
815,15
816,15
817,15
818,15
819,15
820,15
821,15
822,15
823,15
824,15
825,15
826,15
827,15
828,15
829,15
830,15
831,15
832,15
833,15
834,15
835,15
836,15
837,15
838,15
839,15
840,15
841,15
842,15
843,15
844,15
845,15
846,15
847,15
848,15
849,15
850,15
851,15
852,15
853,15
854,15
855,15
856,15
857,15
858,15
859,15
860,15
861,15
862,15
863,15
864,15
865,15
866,15
867,15
868,15
869,15
870,15
871,15
872,15
873,15
874,15
875,15
876,15
877,15
878,15
879,15
880,15
881,15
882,15
883,15
884,15
885,15
886,15
887,15
888,15
889,15
890,15
891,15
892,15
893,15
894,15
895,15
896,15
897,15
898,15
899,15
900,15
901,15
902,15
903,15
904,15
905,15
906,15
907,15
908,15
909,15
910,15
911,15
912,15
913,15
914,15
915,15
916,15
917,15
918,15
919,15
920,15
921,15
922,15
923,15
924,15
925,15
926,15
927,15
928,15
929,15
930,15
931,15
932,15
933,15
934,15
935,15
936,15
937,15
938,15
939,15
940,15
941,15
942,15
943,15
944,15
945,15
946,15
947,15
948,15
949,15
950,15
951,15
952,15
953,15
954,15
955,15
956,15
957,15
958,15
959,15
960,15
961,15
962,15
963,15
964,15
965,15
966,15
967,15
968,15
969,15
970,15
971,15
972,15
973,15
974,15
975,15
976,15
977,15
978,15
979,15
980,15
981,15
982,15
983,15
984,15
985,15
986,15
987,15
988,15
989,15
990,15
991,15
992,15
993,15
994,15
995,15
996,15
997,15
998,15
999,15
1000,15
1001,15
1002,15
1003,15
1004,15
1005,15
1006,15
1007,15
1008,15
1009,15
1010,15
1011,15
1012,15
1013,15
1014,15
1015,15
1016,15
1017,15
1018,15
1019,15
1020,15
1021,15
1022,15
1023,15
1024,15
1025,15
1026,15
1027,15
1028,15
1029,15
1030,15
1031,15
1032,15
1033,15
1034,15
1035,15
1036,15
1037,15
1038,15
1039,15
1040,15
1041,15
1042,15
1043,15
1044,15
1045,15
1046,15
1047,15
1048,15
1049,15
1050,15
1051,15
1052,15
1053,15
1054,15
1055,15
1056,15
1057,15
1058,15
1059,15
1060,15
1061,15
1062,15
1063,15
1064,15
1065,15
1066,15
1067,15
1068,15
1069,15
1070,15
1071,15
1072,15
1073,15
1074,15
1075,15
1076,15
1077,15
1078,15
1079,15
1080,15
1081,15
1082,15
1083,15
1084,15
1085,15
1086,15
1087,15
1088,15
1089,15
1090,15
1091,15
1092,15
1093,15
1094,15
1095,15
1096,15
1097,15
1098,15
1099,15
1100,15
1101,15
1102,15
1103,15
1104,15
1105,15
1106,15
1107,15
1108,15
1109,15
1110,15
1111,15
1112,15
1113,15
1114,15
1115,15
1116,15
1117,15
1118,15
1119,15
1120,15
1121,15
1122,15
1123,15
1124,15
1125,15
1126,15
1127,15
1128,15
1129,15
1130,15
1131,15
1132,15
1133,15
1134,15
1135,15
1136,15
1137,15
1138,15
1139,15
1140,15
1141,15
1142,15
1143,15
1144,15
1145,15
1146,15
1147,15
1148,15
1149,15
1150,15
1151,15
1152,15
1153,15
1154,15
1155,15
1156,15
1157,15
1158,15
1159,15
1160,15
1161,15
1162,15
1163,15
1164,15
1165,15
1166,15
1167,15
1168,15
1169,15
1170,15
1171,15
1172,15
1173,15
1174,15
1175,15
1176,15
1177,15
1178,15
1179,15
1180,15
1181,15
1182,15
1183,15
1184,15
1185,15
1186,15
1187,15
1188,15
1189,15
1190,15
1191,15
1192,15
1193,15
1194,15
1195,15
1196,15
1197,15
1198,15
1199,15
1200,15
1201,15
1202,15
1203,15
1204,15
1205,15
1206,15
1207,76
1208,76
1209,76
1210,76
1211,76
1212,76
1213,76
1214,76
1215,76
1216,76
1217,76
1218,76
1219,76
1220,76
1221,76
1222,76
1223,76
1224,76
1225,76
1226,76
1227,76
1228,76
1229,76
1230,76
1231,76
1232,76
1233,76
1234,76
1235,76
1236,76
1237,76
1238,76
1239,76
1240,76
1241,76
1242,76
1243,76
1244,76
1245,76
1246,76
1247,76
1248,76
1249,76
1250,76
1251,76
1252,76
1253,76
1254,76
1255,76
1256,76
1257,76
1258,76
1259,76
1260,76
1261,76
1262,76
1263,76
1264,76
1265,76
1266,76
1267,76
1268,76
1269,76
1270,76
1271,76
1272,76
1273,76
1274,76
1275,76
1276,76
1277,76
1278,76
1279,76
1280,76
1281,76
1282,76
1283,76
1284,76
1285,76
1286,76
1287,76
1288,76
1289,76
1290,76
1291,76
1292,76
1293,76
1294,76
1295,76
1296,76
1297,76
1298,76
1299,76
1300,76
1301,76
1302,76
1303,76
1304,76
1305,76
1306,76
1307,76
1308,76
1309,76
1310,76
1311,76
1312,76
1313,76
1314,76
1315,76
1316,76
1317,76
1318,76
1319,76
1320,76
1321,76
1322,76
1323,76
1324,76
1325,76
1326,76
1327,76
1328,76
1329,76
1330,76
1331,76
1332,76
1333,76
1334,76
1335,76
1336,76
1337,76
1338,76
1339,76
1340,76
1341,76
1342,76
1343,76
1344,76
1345,76
1346,76
1347,76
1348,76
1349,76
1350,76
1351,76
1352,76
1353,76
1354,76
1355,76
1356,76
1357,76
1358,76
1359,76
1360,76
1361,76
1362,76
1363,76
1364,76
1365,76
1366,76
1367,76
1368,76
1369,76
1370,76
1371,76
1372,76
1373,76
1374,76
1375,76
1376,76
1377,76
1378,76
1379,76
1380,76
1381,76
1382,76
1383,76
1384,76
1385,76
1386,76
1387,76
1388,76
1389,76
1390,76
1391,76
1392,76
1393,76
1394,76
1395,76
1396,76
1397,76
1398,76
1399,76
1400,76
1401,76
1402,76
1403,76
1404,76
1405,76
1406,76
1407,76
1408,76
1409,76
1410,76
1411,76
1412,76
1413,76
1414,76
1415,76
1416,76
1417,76
1418,76
1419,76
1420,76
1421,76
1422,76
1423,76
1424,76
1425,76
1426,76
1427,76
1428,76
1429,76
1430,76
1431,76
1432,76
1433,76
1434,76
1435,76
1436,76
1437,76
1438,76
1439,76
1440,76
1441,76
1442,76
1443,76
1444,76
1445,76
1446,76
1447,76
1448,76
1449,76
1450,76
1451,76
1452,76
1453,76
1454,76
1455,76
1456,76
1457,76
1458,76
1459,76
1460,76
1461,76
1462,76
1463,76
1464,76
1465,76
1466,76
1467,76
1468,76
1469,76
1470,76
1471,76
1472,76
1473,76
1474,76
1475,76
1476,76
1477,76
1478,76
1479,76
1480,76
1481,76
1482,76
1483,76
1484,76
1485,76
1486,76
1487,76
1488,76
1489,76
1490,76
1491,76
1492,76
1493,76
1494,76
1495,76
1496,76
1497,76
1498,76
1499,76
1500,76
1501,76
1502,76
1503,76
1504,76
1505,76
1506,76
1507,76
1508,76
1509,76
1510,76
1511,76
1512,76
1513,76
1514,76
1515,76
1516,76
1517,76
1518,76
1519,76
1520,76
1521,76
1522,76
1523,76
1524,76
1525,76
1526,76
1527,76
1528,76
1529,76
1530,76
1531,76
1532,76
1533,76
1534,76
1535,76
1536,76
1537,76
1538,76
1539,76
1540,76
1541,76
1542,76
1543,76
1544,76
1545,76
1546,76
1547,76
1548,76
1549,76
1550,76
1551,76
1552,76
1553,76
1554,76
1555,76
1556,76
1557,76
1558,76
1559,76
1560,76
1561,76
1562,76
1563,76
1564,76
1565,76
1566,76
1567,76
1568,76
1569,76
1570,76
1571,76
1572,76
1573,76
1574,76
1575,76
1576,77
1577,77
1578,77
1579,77
1580,77
1581,77
1582,77
1583,77
1584,77
1585,77
1586,77
1587,77
1588,77
1589,77
1590,77
1591,77
1592,77
1593,77
1594,77
1595,77
1596,77
1597,77
1598,77
1599,77
1600,77
1601,77
1602,77
1603,77
1604,77
1605,77
1606,77
1607,77
1608,77
1609,77
1610,77
1611,77
1612,77
1613,77
1614,77
1615,77
1616,77
1617,77
1618,77
1619,77
1620,77
1621,77
1622,77
1623,77
1624,77
