1,35
2,72
3,101
4,130
5,145
6,149
7,156
8,173
9,184
10,188
11,196
12,208
13,212
14,216
15,219
16,222
17,228
18,231
19,233
20,236
21,239
22,242
23,244
24,246
25,249
26,251
27,253
28,255
29,258
30,261
31,264
32,268
33,271
34,272
35,273
36,274
37,276
38,277
39,278
40,280
41,281
42,282
43,283
44,284
45,285
46,287
47,288
48,289
49,291
50,292
51,293
52,295
53,296
54,297
55,299
56,300
57,301
58,303
59,304
60,305
61,307
62,308
63,309
64,311
65,312
66,313
67,315
68,316
69,317
70,319
71,320
72,321
73,322
74,323
75,324
76,325
77,326
78,327
79,329
80,330
81,331
82,332
83,333
84,334
85,335
86,336
87,337
88,339
89,340
90,341
91,343
92,344
93,345
94,347
95,348
96,349
97,351
98,352
99,353
100,355
101,356
102,357
103,359
104,360
105,361
106,363
107,364
108,365
109,367
110,368
111,369
112,370
113,371
114,372
115,374
116,375
117,376
118,378
119,379
120,380
121,381
122,382
123,383
124,385
125,386
126,387
127,389
128,390
129,391
