1,17
2,21
3,21
4,21
5,25
6,27
7,27
8,27
9,27
10,27
11,27
12,34
13,34
14,37
15,46
16,47
17,55
18,69
19,69
20,75
21,75
22,98
23,98
24,101
25,103
26,103
27,126
28,126
29,126
30,132
31,135
32,135
33,156
34,164
35,167
36,170
37,170
38,171
39,171
40,171
41,171
42,171
43,171
44,171
45,176
46,202
47,221
48,224
49,225
50,225
51,227
52,230
53,233
54,233
55,236
56,236
57,236
58,236
59,236
60,236
61,243
62,258
63,258
64,260
65,260
66,260
67,260
68,260
69,262
70,262
71,262
72,262
73,271
74,271
75,271
76,277
77,277
78,277
79,277
80,277
81,277
82,283
83,286
84,286
85,286
86,290
87,290
88,290
89,290
90,290
91,290
92,290
93,303
94,303
95,303
96,303
97,303
98,304
99,305
100,305
101,310
102,310
103,310
104,310
105,310
106,310
107,310
108,310
109,310
110,310
111,314
112,316
113,316
114,316
115,317
116,317
117,318
118,318
119,318
120,318
121,318
122,321
123,322
124,322
125,322
126,322
127,323
128,323
129,323
130,325
131,325
132,325
133,325
134,325
135,325
136,325
137,325
138,325
139,325
140,325
141,325
142,325
143,325
144,325
145,325
146,325
147,325
148,325
149,325
150,325
151,325
152,325
153,325
154,325
155,325
156,325
157,325
158,325
159,325
160,326
161,326
162,326
163,327
164,327
165,327
166,331
167,331
168,334
169,334
170,334
171,334
172,334
173,334
174,334
175,334
176,334
177,334
178,334
179,334
180,337
181,337
182,337
183,337
184,337
185,337
186,337
187,337
188,337
189,337
190,337
191,337
192,337
193,337
194,337
195,337
196,337
197,337
198,337
199,337
200,337
201,337
202,337
203,337
204,337
205,337
206,337
207,337
208,337
209,337
210,337
211,337
212,337
213,337
214,337
215,337
216,337
217,339
218,339
219,339
220,339
221,339
222,339
223,339
224,339
225,339
226,339
227,339
228,339
229,339
230,339
231,339
232,339
233,339
234,339
235,339
236,339
237,339
238,339
239,339
240,339
241,339
242,339
243,339
244,339
245,339
246,339
247,339
248,339
249,339
250,339
251,339
252,339
253,339
254,339
255,339
256,339
257,339
258,339
259,339
260,339
261,339
262,339
263,339
264,339
265,339
266,339
267,339
268,339
269,339
270,339
271,339
272,339
273,339
274,339
275,339
276,339
277,339
278,339
279,339
280,339
281,339
282,339
283,339
284,339
285,339
286,339
287,339
288,339
289,339
290,339
291,339
292,339
293,339
294,339
295,339
296,339
297,339
298,339
299,339
300,339
301,339
302,339
303,339
304,339
305,339
306,339
307,339
308,339
309,339
310,339
311,339
312,339
313,339
314,339
315,339
316,339
317,339
318,339
319,339
320,339
321,339
322,339
323,339
324,339
325,339
326,339
327,339
328,339
329,339
330,339
331,339
332,339
333,339
334,339
335,340
336,340
337,340
338,340
339,340
340,342
341,342
342,342
343,342
344,342
345,342
346,342
347,342
348,342
349,342
350,342
351,342
352,342
353,342
354,342
355,342
356,342
357,342
358,342
359,342
360,342
361,342
362,342
363,342
364,342
365,342
366,342
367,342
368,342
369,342
370,345
371,345
372,345
373,345
374,345
375,345
376,345
377,345
378,346
379,346
380,346
381,346
382,352
383,352
384,352
385,352
386,352
387,352
388,352
389,352
390,352
391,352
392,352
393,352
394,352
395,352
396,352
397,352
398,352
399,352
400,352
401,352
402,352
403,352
404,352
405,352
406,352
407,352
408,352
409,352
410,352
411,352
412,352
413,352
414,352
415,352
416,352
417,352
418,352
419,352
420,352
421,352
422,352
423,353
424,353
425,353
426,353
427,353
428,353
429,353
430,353
431,353
432,353
433,353
434,353
435,353
436,353
437,353
438,353
439,353
440,353
441,353
442,353
443,353
444,353
445,353
446,353
447,353
448,353
449,353
450,353
451,353
452,353
453,353
454,353
455,353
456,353
457,353
458,353
459,354
460,354
461,354
462,354
463,354
464,356
465,356
466,356
467,356
468,356
469,356
470,356
471,356
472,356
473,356
474,356
475,356
476,356
477,356
478,356
479,356
480,356
481,356
482,356
483,356
484,356
485,356
486,356
487,356
488,356
489,356
490,357
491,357
492,357
493,357
494,357
495,357
496,357
497,357
498,357
499,357
500,357
501,357
502,357
503,357
504,357
505,357
506,357
507,357
508,358
509,358
510,358
511,358
512,358
513,358
514,358
515,358
516,358
517,358
518,358
519,358
520,358
521,358
522,358
523,358
524,358
525,358
526,358
527,358
528,358
529,358
530,359
531,359
532,359
533,359
534,359
535,359
536,359
537,359
538,359
539,359
540,359
541,359
542,359
543,359
544,359
545,359
546,359
547,359
548,360
549,360
550,360
551,360
552,360
553,360
554,360
555,360
556,360
557,360
558,360
559,360
560,360
561,360
562,360
563,360
564,360
565,360
566,360
567,360
568,360
569,360
570,360
571,360
572,360
573,360
574,360
575,360
576,360
577,360
578,361
579,361
580,361
581,361
582,361
583,361
584,361
585,361
586,361
587,361
588,364
589,364
590,364
591,364
592,364
593,364
594,364
595,364
596,364
597,364
598,364
599,364
600,364
601,364
602,364
603,364
604,364
605,364
606,364
607,364
608,364
609,364
610,364
611,364
612,364
613,364
614,364
615,364
616,364
617,364
618,364
619,364
620,364
621,364
622,364
623,364
624,364
625,364
626,364
627,364
628,364
629,364
630,364
631,369
632,369
633,369
634,369
635,369
636,369
637,369
638,369
639,369
640,369
641,369
642,370
643,370
644,370
645,370
646,370
647,370
648,370
649,370
650,370
651,371
652,371
653,371
654,371
655,371
656,371
657,371
658,371
659,371
660,371
661,371
662,371
663,371
664,371
665,371
666,371
667,371
668,371
669,371
670,371
671,371
672,371
673,371
674,371
675,371
676,371
677,371
678,371
679,371
680,371
681,371
682,371
683,371
684,371
685,371
686,371
687,371
688,371
689,371
690,371
691,371
692,371
693,371
694,371
695,371
696,371
697,371
698,371
699,371
700,371
701,371
702,371
703,371
704,371
705,371
706,371
707,371
708,371
709,371
710,371
711,371
712,371
713,371
714,371
715,371
716,371
717,371
718,371
719,371
720,371
721,371
722,371
723,371
724,371
725,371
726,371
727,371
728,371
729,371
730,371
731,371
732,371
733,371
734,371
735,371
736,371
737,371
738,371
739,371
740,371
741,371
742,371
743,371
744,371
745,371
746,371
747,371
748,371
749,371
750,371
751,371
752,371
753,371
754,371
755,371
756,371
757,371
758,371
759,371
760,371
761,371
762,371
763,371
764,371
765,371
766,371
767,371
768,371
769,371
770,371
771,371
772,371
773,371
774,371
775,371
776,371
777,371
778,371
779,371
780,371
781,371
782,371
